(kicad_sch (version 20211123) (generator eeschema)

  (uuid ea3735d1-c9c0-41f4-9556-ea1adf76c52c)

  (paper "A4")

  (title_block
    (date "2022-01-10")
    (rev "0.13")
  )

  (lib_symbols
    (symbol "SamacSys_Parts:RJE398880400" (pin_names (offset 0.762)) (in_bom yes) (on_board yes)
      (property "Reference" "J" (id 0) (at 19.05 7.62 0)
        (effects (font (size 1.27 1.27)) (justify left))
      )
      (property "Value" "RJE398880400" (id 1) (at 19.05 5.08 0)
        (effects (font (size 1.27 1.27)) (justify left))
      )
      (property "Footprint" "RJE398880400" (id 2) (at 19.05 2.54 0)
        (effects (font (size 1.27 1.27)) (justify left) hide)
      )
      (property "Datasheet" "" (id 3) (at 19.05 0 0)
        (effects (font (size 1.27 1.27)) (justify left) hide)
      )
      (property "Description" "Modular Connectors / Ethernet Connectors RA Eight Port No shiield, no LED\\'s" (id 4) (at 19.05 -2.54 0)
        (effects (font (size 1.27 1.27)) (justify left) hide)
      )
      (property "Height" "12.9" (id 5) (at 19.05 -5.08 0)
        (effects (font (size 1.27 1.27)) (justify left) hide)
      )
      (property "Mouser Part Number" "523-RJE398880400" (id 6) (at 19.05 -7.62 0)
        (effects (font (size 1.27 1.27)) (justify left) hide)
      )
      (property "Mouser Price/Stock" "https://www.mouser.co.uk/ProductDetail/Amphenol-Commercial-Products/RJE398880400?qs=vLWxofP3U2wjdwWQ78xhUg%3D%3D" (id 7) (at 19.05 -10.16 0)
        (effects (font (size 1.27 1.27)) (justify left) hide)
      )
      (property "Manufacturer_Name" "Amphenol" (id 8) (at 19.05 -12.7 0)
        (effects (font (size 1.27 1.27)) (justify left) hide)
      )
      (property "Manufacturer_Part_Number" "RJE398880400" (id 9) (at 19.05 -15.24 0)
        (effects (font (size 1.27 1.27)) (justify left) hide)
      )
      (property "ki_description" "Modular Connectors / Ethernet Connectors RA Eight Port No shiield, no LED's" (id 10) (at 0 0 0)
        (effects (font (size 1.27 1.27)) hide)
      )
      (symbol "RJE398880400_0_0"
        (pin passive line (at 0 -78.74 0) (length 5.08)
          (name "1" (effects (font (size 1.27 1.27))))
          (number "1" (effects (font (size 1.27 1.27))))
        )
        (pin passive line (at 22.86 -68.58 180) (length 5.08)
          (name "10" (effects (font (size 1.27 1.27))))
          (number "10" (effects (font (size 1.27 1.27))))
        )
        (pin passive line (at 0 -66.04 0) (length 5.08)
          (name "11" (effects (font (size 1.27 1.27))))
          (number "11" (effects (font (size 1.27 1.27))))
        )
        (pin passive line (at 22.86 -66.04 180) (length 5.08)
          (name "12" (effects (font (size 1.27 1.27))))
          (number "12" (effects (font (size 1.27 1.27))))
        )
        (pin passive line (at 0 -63.5 0) (length 5.08)
          (name "13" (effects (font (size 1.27 1.27))))
          (number "13" (effects (font (size 1.27 1.27))))
        )
        (pin passive line (at 22.86 -63.5 180) (length 5.08)
          (name "14" (effects (font (size 1.27 1.27))))
          (number "14" (effects (font (size 1.27 1.27))))
        )
        (pin passive line (at 0 -60.96 0) (length 5.08)
          (name "15" (effects (font (size 1.27 1.27))))
          (number "15" (effects (font (size 1.27 1.27))))
        )
        (pin passive line (at 22.86 -60.96 180) (length 5.08)
          (name "16" (effects (font (size 1.27 1.27))))
          (number "16" (effects (font (size 1.27 1.27))))
        )
        (pin passive line (at 0 -58.42 0) (length 5.08)
          (name "17" (effects (font (size 1.27 1.27))))
          (number "17" (effects (font (size 1.27 1.27))))
        )
        (pin passive line (at 22.86 -58.42 180) (length 5.08)
          (name "18" (effects (font (size 1.27 1.27))))
          (number "18" (effects (font (size 1.27 1.27))))
        )
        (pin passive line (at 0 -55.88 0) (length 5.08)
          (name "19" (effects (font (size 1.27 1.27))))
          (number "19" (effects (font (size 1.27 1.27))))
        )
        (pin passive line (at 22.86 -78.74 180) (length 5.08)
          (name "2" (effects (font (size 1.27 1.27))))
          (number "2" (effects (font (size 1.27 1.27))))
        )
        (pin passive line (at 22.86 -55.88 180) (length 5.08)
          (name "20" (effects (font (size 1.27 1.27))))
          (number "20" (effects (font (size 1.27 1.27))))
        )
        (pin passive line (at 0 -53.34 0) (length 5.08)
          (name "21" (effects (font (size 1.27 1.27))))
          (number "21" (effects (font (size 1.27 1.27))))
        )
        (pin passive line (at 22.86 -53.34 180) (length 5.08)
          (name "22" (effects (font (size 1.27 1.27))))
          (number "22" (effects (font (size 1.27 1.27))))
        )
        (pin passive line (at 0 -50.8 0) (length 5.08)
          (name "23" (effects (font (size 1.27 1.27))))
          (number "23" (effects (font (size 1.27 1.27))))
        )
        (pin passive line (at 22.86 -50.8 180) (length 5.08)
          (name "24" (effects (font (size 1.27 1.27))))
          (number "24" (effects (font (size 1.27 1.27))))
        )
        (pin passive line (at 0 -48.26 0) (length 5.08)
          (name "25" (effects (font (size 1.27 1.27))))
          (number "25" (effects (font (size 1.27 1.27))))
        )
        (pin passive line (at 22.86 -48.26 180) (length 5.08)
          (name "26" (effects (font (size 1.27 1.27))))
          (number "26" (effects (font (size 1.27 1.27))))
        )
        (pin passive line (at 0 -45.72 0) (length 5.08)
          (name "27" (effects (font (size 1.27 1.27))))
          (number "27" (effects (font (size 1.27 1.27))))
        )
        (pin passive line (at 22.86 -45.72 180) (length 5.08)
          (name "28" (effects (font (size 1.27 1.27))))
          (number "28" (effects (font (size 1.27 1.27))))
        )
        (pin passive line (at 0 -43.18 0) (length 5.08)
          (name "29" (effects (font (size 1.27 1.27))))
          (number "29" (effects (font (size 1.27 1.27))))
        )
        (pin passive line (at 0 -76.2 0) (length 5.08)
          (name "3" (effects (font (size 1.27 1.27))))
          (number "3" (effects (font (size 1.27 1.27))))
        )
        (pin passive line (at 22.86 -43.18 180) (length 5.08)
          (name "30" (effects (font (size 1.27 1.27))))
          (number "30" (effects (font (size 1.27 1.27))))
        )
        (pin passive line (at 0 -40.64 0) (length 5.08)
          (name "31" (effects (font (size 1.27 1.27))))
          (number "31" (effects (font (size 1.27 1.27))))
        )
        (pin passive line (at 22.86 -40.64 180) (length 5.08)
          (name "32" (effects (font (size 1.27 1.27))))
          (number "32" (effects (font (size 1.27 1.27))))
        )
        (pin passive line (at 0 -38.1 0) (length 5.08)
          (name "33" (effects (font (size 1.27 1.27))))
          (number "33" (effects (font (size 1.27 1.27))))
        )
        (pin passive line (at 22.86 -38.1 180) (length 5.08)
          (name "34" (effects (font (size 1.27 1.27))))
          (number "34" (effects (font (size 1.27 1.27))))
        )
        (pin passive line (at 0 -35.56 0) (length 5.08)
          (name "35" (effects (font (size 1.27 1.27))))
          (number "35" (effects (font (size 1.27 1.27))))
        )
        (pin passive line (at 22.86 -35.56 180) (length 5.08)
          (name "36" (effects (font (size 1.27 1.27))))
          (number "36" (effects (font (size 1.27 1.27))))
        )
        (pin passive line (at 0 -33.02 0) (length 5.08)
          (name "37" (effects (font (size 1.27 1.27))))
          (number "37" (effects (font (size 1.27 1.27))))
        )
        (pin passive line (at 22.86 -33.02 180) (length 5.08)
          (name "38" (effects (font (size 1.27 1.27))))
          (number "38" (effects (font (size 1.27 1.27))))
        )
        (pin passive line (at 0 -30.48 0) (length 5.08)
          (name "39" (effects (font (size 1.27 1.27))))
          (number "39" (effects (font (size 1.27 1.27))))
        )
        (pin passive line (at 22.86 -76.2 180) (length 5.08)
          (name "4" (effects (font (size 1.27 1.27))))
          (number "4" (effects (font (size 1.27 1.27))))
        )
        (pin passive line (at 22.86 -30.48 180) (length 5.08)
          (name "40" (effects (font (size 1.27 1.27))))
          (number "40" (effects (font (size 1.27 1.27))))
        )
        (pin passive line (at 0 -27.94 0) (length 5.08)
          (name "41" (effects (font (size 1.27 1.27))))
          (number "41" (effects (font (size 1.27 1.27))))
        )
        (pin passive line (at 22.86 -27.94 180) (length 5.08)
          (name "42" (effects (font (size 1.27 1.27))))
          (number "42" (effects (font (size 1.27 1.27))))
        )
        (pin passive line (at 0 -25.4 0) (length 5.08)
          (name "43" (effects (font (size 1.27 1.27))))
          (number "43" (effects (font (size 1.27 1.27))))
        )
        (pin passive line (at 22.86 -25.4 180) (length 5.08)
          (name "44" (effects (font (size 1.27 1.27))))
          (number "44" (effects (font (size 1.27 1.27))))
        )
        (pin passive line (at 0 -22.86 0) (length 5.08)
          (name "45" (effects (font (size 1.27 1.27))))
          (number "45" (effects (font (size 1.27 1.27))))
        )
        (pin passive line (at 22.86 -22.86 180) (length 5.08)
          (name "46" (effects (font (size 1.27 1.27))))
          (number "46" (effects (font (size 1.27 1.27))))
        )
        (pin passive line (at 0 -20.32 0) (length 5.08)
          (name "47" (effects (font (size 1.27 1.27))))
          (number "47" (effects (font (size 1.27 1.27))))
        )
        (pin passive line (at 22.86 -20.32 180) (length 5.08)
          (name "48" (effects (font (size 1.27 1.27))))
          (number "48" (effects (font (size 1.27 1.27))))
        )
        (pin passive line (at 0 -17.78 0) (length 5.08)
          (name "49" (effects (font (size 1.27 1.27))))
          (number "49" (effects (font (size 1.27 1.27))))
        )
        (pin passive line (at 0 -73.66 0) (length 5.08)
          (name "5" (effects (font (size 1.27 1.27))))
          (number "5" (effects (font (size 1.27 1.27))))
        )
        (pin passive line (at 22.86 -17.78 180) (length 5.08)
          (name "50" (effects (font (size 1.27 1.27))))
          (number "50" (effects (font (size 1.27 1.27))))
        )
        (pin passive line (at 0 -15.24 0) (length 5.08)
          (name "51" (effects (font (size 1.27 1.27))))
          (number "51" (effects (font (size 1.27 1.27))))
        )
        (pin passive line (at 22.86 -15.24 180) (length 5.08)
          (name "52" (effects (font (size 1.27 1.27))))
          (number "52" (effects (font (size 1.27 1.27))))
        )
        (pin passive line (at 0 -12.7 0) (length 5.08)
          (name "53" (effects (font (size 1.27 1.27))))
          (number "53" (effects (font (size 1.27 1.27))))
        )
        (pin passive line (at 22.86 -12.7 180) (length 5.08)
          (name "54" (effects (font (size 1.27 1.27))))
          (number "54" (effects (font (size 1.27 1.27))))
        )
        (pin passive line (at 0 -10.16 0) (length 5.08)
          (name "55" (effects (font (size 1.27 1.27))))
          (number "55" (effects (font (size 1.27 1.27))))
        )
        (pin passive line (at 22.86 -10.16 180) (length 5.08)
          (name "56" (effects (font (size 1.27 1.27))))
          (number "56" (effects (font (size 1.27 1.27))))
        )
        (pin passive line (at 0 -7.62 0) (length 5.08)
          (name "57" (effects (font (size 1.27 1.27))))
          (number "57" (effects (font (size 1.27 1.27))))
        )
        (pin passive line (at 22.86 -7.62 180) (length 5.08)
          (name "58" (effects (font (size 1.27 1.27))))
          (number "58" (effects (font (size 1.27 1.27))))
        )
        (pin passive line (at 0 -5.08 0) (length 5.08)
          (name "59" (effects (font (size 1.27 1.27))))
          (number "59" (effects (font (size 1.27 1.27))))
        )
        (pin passive line (at 22.86 -73.66 180) (length 5.08)
          (name "6" (effects (font (size 1.27 1.27))))
          (number "6" (effects (font (size 1.27 1.27))))
        )
        (pin passive line (at 22.86 -5.08 180) (length 5.08)
          (name "60" (effects (font (size 1.27 1.27))))
          (number "60" (effects (font (size 1.27 1.27))))
        )
        (pin passive line (at 0 -2.54 0) (length 5.08)
          (name "61" (effects (font (size 1.27 1.27))))
          (number "61" (effects (font (size 1.27 1.27))))
        )
        (pin passive line (at 22.86 -2.54 180) (length 5.08)
          (name "62" (effects (font (size 1.27 1.27))))
          (number "62" (effects (font (size 1.27 1.27))))
        )
        (pin passive line (at 0 0 0) (length 5.08)
          (name "63" (effects (font (size 1.27 1.27))))
          (number "63" (effects (font (size 1.27 1.27))))
        )
        (pin passive line (at 22.86 0 180) (length 5.08)
          (name "64" (effects (font (size 1.27 1.27))))
          (number "64" (effects (font (size 1.27 1.27))))
        )
        (pin passive line (at 0 -71.12 0) (length 5.08)
          (name "7" (effects (font (size 1.27 1.27))))
          (number "7" (effects (font (size 1.27 1.27))))
        )
        (pin passive line (at 22.86 -71.12 180) (length 5.08)
          (name "8" (effects (font (size 1.27 1.27))))
          (number "8" (effects (font (size 1.27 1.27))))
        )
        (pin passive line (at 0 -68.58 0) (length 5.08)
          (name "9" (effects (font (size 1.27 1.27))))
          (number "9" (effects (font (size 1.27 1.27))))
        )
      )
      (symbol "RJE398880400_0_1"
        (polyline
          (pts
            (xy 5.08 2.54)
            (xy 17.78 2.54)
            (xy 17.78 -81.28)
            (xy 5.08 -81.28)
            (xy 5.08 2.54)
          )
          (stroke (width 0.1524) (type default) (color 0 0 0 0))
          (fill (type none))
        )
      )
    )
  )

  (junction (at 157.48 111.76) (diameter 0) (color 0 0 0 0)
    (uuid 0072b8aa-148f-4ad3-b3cd-731cdde1eda7)
  )
  (junction (at 185.42 111.76) (diameter 0) (color 0 0 0 0)
    (uuid 018ae944-7a86-40b9-af98-d38db56a9415)
  )
  (junction (at 124.46 132.08) (diameter 0) (color 0 0 0 0)
    (uuid 08475d8d-befb-4dff-811c-d7bafb17cb72)
  )
  (junction (at 157.48 109.22) (diameter 0) (color 0 0 0 0)
    (uuid 0a2a45f7-2964-47e4-b592-1425fde2b2b3)
  )
  (junction (at 157.48 132.08) (diameter 0) (color 0 0 0 0)
    (uuid 0d18fd58-ec27-4e4e-b9f9-e785117ba72f)
  )
  (junction (at 96.52 71.12) (diameter 0) (color 0 0 0 0)
    (uuid 0de44de0-4280-4bf4-b80f-f93aa5f680a5)
  )
  (junction (at 96.52 121.92) (diameter 0) (color 0 0 0 0)
    (uuid 139b0382-ff78-4b3b-ba89-ed115064c5ca)
  )
  (junction (at 124.46 58.42) (diameter 0) (color 0 0 0 0)
    (uuid 230f1b27-1b31-4a78-b9fd-58c1c32dc261)
  )
  (junction (at 157.48 129.54) (diameter 0) (color 0 0 0 0)
    (uuid 2421353f-bd1d-41f8-a664-716efd1682b8)
  )
  (junction (at 157.48 101.6) (diameter 0) (color 0 0 0 0)
    (uuid 25989799-6496-4c2a-9f86-f0e1e0916e63)
  )
  (junction (at 96.52 99.06) (diameter 0) (color 0 0 0 0)
    (uuid 25fc1ff8-331d-4d17-bddb-853a05535ceb)
  )
  (junction (at 96.52 129.54) (diameter 0) (color 0 0 0 0)
    (uuid 28ec3da3-139b-4c0d-933d-79eae0ede3d2)
  )
  (junction (at 157.48 88.9) (diameter 0) (color 0 0 0 0)
    (uuid 2a63ce8d-c4b8-4d04-b10d-2b65454fe2f4)
  )
  (junction (at 157.48 121.92) (diameter 0) (color 0 0 0 0)
    (uuid 30d01942-6870-429f-bbc7-9e4ca548c5c9)
  )
  (junction (at 157.48 99.06) (diameter 0) (color 0 0 0 0)
    (uuid 31761123-9181-44a0-8c71-61809245c52d)
  )
  (junction (at 124.46 129.54) (diameter 0) (color 0 0 0 0)
    (uuid 327e9d10-549b-444d-85cf-d0ad6997cb40)
  )
  (junction (at 124.46 91.44) (diameter 0) (color 0 0 0 0)
    (uuid 352cda21-dedb-4485-a43f-d833b809d07b)
  )
  (junction (at 185.42 101.6) (diameter 0) (color 0 0 0 0)
    (uuid 36cfb9b4-3553-47ee-9268-dd86eda6299b)
  )
  (junction (at 124.46 68.58) (diameter 0) (color 0 0 0 0)
    (uuid 378991be-92f9-44b3-951a-fb663d1e80a8)
  )
  (junction (at 185.42 58.42) (diameter 0) (color 0 0 0 0)
    (uuid 3b4fe813-de35-47b4-8591-076ccef4d364)
  )
  (junction (at 124.46 81.28) (diameter 0) (color 0 0 0 0)
    (uuid 3c266e62-7c6c-443a-a1e4-22d3ddfd0919)
  )
  (junction (at 124.46 119.38) (diameter 0) (color 0 0 0 0)
    (uuid 4187ca5c-9965-4704-a198-f3e7c566a216)
  )
  (junction (at 96.52 132.08) (diameter 0) (color 0 0 0 0)
    (uuid 4256e93f-79b3-4b2d-81ac-a4bbe6b29182)
  )
  (junction (at 96.52 68.58) (diameter 0) (color 0 0 0 0)
    (uuid 4c23a3c8-8519-4030-adc5-23eeabea23df)
  )
  (junction (at 124.46 111.76) (diameter 0) (color 0 0 0 0)
    (uuid 573d575c-17ea-4825-9928-a33c4415d1e6)
  )
  (junction (at 185.42 88.9) (diameter 0) (color 0 0 0 0)
    (uuid 64393633-dc57-43d2-b428-044226386450)
  )
  (junction (at 96.52 91.44) (diameter 0) (color 0 0 0 0)
    (uuid 6ad76dec-4e79-4b51-8cdb-5a433f60c986)
  )
  (junction (at 185.42 99.06) (diameter 0) (color 0 0 0 0)
    (uuid 6caca9a7-94b0-4a83-952f-df9d01dec422)
  )
  (junction (at 185.42 121.92) (diameter 0) (color 0 0 0 0)
    (uuid 7069f604-2487-4ee5-8b63-757c61053d52)
  )
  (junction (at 157.48 119.38) (diameter 0) (color 0 0 0 0)
    (uuid 70f202e8-100d-41c0-8efb-c9e820f84a92)
  )
  (junction (at 185.42 60.96) (diameter 0) (color 0 0 0 0)
    (uuid 7badde17-7b98-44d0-8cd6-3968a61662e3)
  )
  (junction (at 157.48 78.74) (diameter 0) (color 0 0 0 0)
    (uuid 7f2770b4-83bf-462f-a1ea-68f28e6ec5f0)
  )
  (junction (at 96.52 78.74) (diameter 0) (color 0 0 0 0)
    (uuid 80301770-dd6e-4f65-b812-9ab438fbcba2)
  )
  (junction (at 157.48 91.44) (diameter 0) (color 0 0 0 0)
    (uuid 81ffad0a-f494-41a6-bbf2-335092014d71)
  )
  (junction (at 185.42 119.38) (diameter 0) (color 0 0 0 0)
    (uuid 85a0adc4-003f-4e60-818a-b61f6a8d4e7b)
  )
  (junction (at 185.42 132.08) (diameter 0) (color 0 0 0 0)
    (uuid 8b22f517-ef9a-438e-bc8c-2c3d8b6a5ac3)
  )
  (junction (at 96.52 111.76) (diameter 0) (color 0 0 0 0)
    (uuid 8d96e49b-830f-48b4-a7a4-625adb5aae21)
  )
  (junction (at 185.42 78.74) (diameter 0) (color 0 0 0 0)
    (uuid 8e0197e7-dfe8-4e5f-bb0c-d8e39e92fb8b)
  )
  (junction (at 185.42 68.58) (diameter 0) (color 0 0 0 0)
    (uuid 93b94641-c46f-4918-8fbf-6b7b652a1d88)
  )
  (junction (at 185.42 129.54) (diameter 0) (color 0 0 0 0)
    (uuid 968370bb-a099-446c-bc1a-ae6dc30bcb8a)
  )
  (junction (at 124.46 99.06) (diameter 0) (color 0 0 0 0)
    (uuid 98ba1f83-29b0-4e63-b3fc-78524cf3b016)
  )
  (junction (at 96.52 60.96) (diameter 0) (color 0 0 0 0)
    (uuid 98dcabdf-7d56-445e-9277-66188c0f403b)
  )
  (junction (at 96.52 58.42) (diameter 0) (color 0 0 0 0)
    (uuid 9d23b66e-1bb5-4a6f-9772-b8d25945affb)
  )
  (junction (at 185.42 81.28) (diameter 0) (color 0 0 0 0)
    (uuid 9e079a12-9f0c-42cb-8df9-b4a7f17c1153)
  )
  (junction (at 185.42 91.44) (diameter 0) (color 0 0 0 0)
    (uuid a4577db6-9080-401b-a350-02d0f1522bea)
  )
  (junction (at 185.42 71.12) (diameter 0) (color 0 0 0 0)
    (uuid a5c82259-ad91-40a0-afe9-5c26da2026b8)
  )
  (junction (at 96.52 81.28) (diameter 0) (color 0 0 0 0)
    (uuid a65a9ab6-0b5f-4916-ac68-7ba27713fcfa)
  )
  (junction (at 157.48 68.58) (diameter 0) (color 0 0 0 0)
    (uuid a9df5342-ce95-4f93-b7be-e8ef7969f308)
  )
  (junction (at 157.48 60.96) (diameter 0) (color 0 0 0 0)
    (uuid af86907f-c354-4f38-a850-1fb0ef968ac4)
  )
  (junction (at 124.46 78.74) (diameter 0) (color 0 0 0 0)
    (uuid b449c8b9-df49-41a1-b1d1-d2ab8e2e4c00)
  )
  (junction (at 96.52 119.38) (diameter 0) (color 0 0 0 0)
    (uuid b6b6f23c-b4f5-4d1e-86ba-466dffbd3d8b)
  )
  (junction (at 124.46 109.22) (diameter 0) (color 0 0 0 0)
    (uuid b8eaef8b-05f0-490a-a02c-e05f6b682ccb)
  )
  (junction (at 124.46 121.92) (diameter 0) (color 0 0 0 0)
    (uuid ba6a3af4-6c92-4197-aaff-6e589aa1f4d0)
  )
  (junction (at 124.46 88.9) (diameter 0) (color 0 0 0 0)
    (uuid c15966b6-7997-4bb6-ae70-7a748e30c0c5)
  )
  (junction (at 157.48 58.42) (diameter 0) (color 0 0 0 0)
    (uuid d2d6c656-f950-4157-87a5-63cde50ab906)
  )
  (junction (at 157.48 71.12) (diameter 0) (color 0 0 0 0)
    (uuid d8d04eb0-7ed8-4205-bb00-15d7a4a02a43)
  )
  (junction (at 96.52 109.22) (diameter 0) (color 0 0 0 0)
    (uuid d9a76ad4-0d91-41b7-9896-72f27bf5fd98)
  )
  (junction (at 185.42 109.22) (diameter 0) (color 0 0 0 0)
    (uuid e1d7e63f-15e0-40f2-bb37-8218f7ab6a5a)
  )
  (junction (at 96.52 88.9) (diameter 0) (color 0 0 0 0)
    (uuid e70fb45f-ece6-45b3-afaf-43ec343d86d9)
  )
  (junction (at 124.46 101.6) (diameter 0) (color 0 0 0 0)
    (uuid eab660b0-3959-4b86-aceb-bc26ac1d6b39)
  )
  (junction (at 124.46 60.96) (diameter 0) (color 0 0 0 0)
    (uuid f06b9da4-06f2-4902-a5e2-0418192c4136)
  )
  (junction (at 96.52 101.6) (diameter 0) (color 0 0 0 0)
    (uuid f666cb93-df9b-4b3f-b89c-252f7826f9a8)
  )
  (junction (at 124.46 71.12) (diameter 0) (color 0 0 0 0)
    (uuid fea54ca7-0fa6-4550-8a7f-f852771e86c1)
  )
  (junction (at 157.48 81.28) (diameter 0) (color 0 0 0 0)
    (uuid ff00eda2-f304-45f0-b78b-4302e7a07fb4)
  )

  (wire (pts (xy 121.92 116.84) (xy 124.46 116.84))
    (stroke (width 0) (type default) (color 0 0 0 0))
    (uuid 00d2bd23-947e-4a27-ae99-b25a72213bf9)
  )
  (wire (pts (xy 124.46 109.22) (xy 124.46 111.76))
    (stroke (width 0) (type default) (color 0 0 0 0))
    (uuid 01ba4546-bc9e-4372-a5a5-88da8e0df8ab)
  )
  (wire (pts (xy 182.88 129.54) (xy 185.42 129.54))
    (stroke (width 0) (type default) (color 0 0 0 0))
    (uuid 01fcd4bc-b483-4123-9211-b5df82834951)
  )
  (wire (pts (xy 124.46 119.38) (xy 124.46 121.92))
    (stroke (width 0) (type default) (color 0 0 0 0))
    (uuid 03a945c4-67bc-4db1-8c8f-10988efbe275)
  )
  (wire (pts (xy 96.52 78.74) (xy 96.52 81.28))
    (stroke (width 0) (type default) (color 0 0 0 0))
    (uuid 04235242-8ff4-4248-98ce-ea4e425f2de5)
  )
  (wire (pts (xy 124.46 111.76) (xy 127 111.76))
    (stroke (width 0) (type default) (color 0 0 0 0))
    (uuid 09e5a236-39af-419c-ad15-3a94a799c793)
  )
  (wire (pts (xy 182.88 81.28) (xy 185.42 81.28))
    (stroke (width 0) (type default) (color 0 0 0 0))
    (uuid 0a650cec-684d-4ed9-b0d1-aaf20d7dca20)
  )
  (wire (pts (xy 182.88 111.76) (xy 185.42 111.76))
    (stroke (width 0) (type default) (color 0 0 0 0))
    (uuid 0b8eb89c-9dd8-4e4f-bd75-96bf09917f97)
  )
  (wire (pts (xy 124.46 78.74) (xy 124.46 81.28))
    (stroke (width 0) (type default) (color 0 0 0 0))
    (uuid 0c589d2c-5d53-4c81-b514-1a0235995c0a)
  )
  (wire (pts (xy 124.46 121.92) (xy 127 121.92))
    (stroke (width 0) (type default) (color 0 0 0 0))
    (uuid 0ddeac8a-4bc6-4016-b00c-d119f46e8293)
  )
  (wire (pts (xy 157.48 121.92) (xy 160.02 121.92))
    (stroke (width 0) (type default) (color 0 0 0 0))
    (uuid 0e92a6d7-ccdb-4ddf-844d-a6703d4c4aab)
  )
  (wire (pts (xy 99.06 86.36) (xy 96.52 86.36))
    (stroke (width 0) (type default) (color 0 0 0 0))
    (uuid 1018def6-7a70-46e2-ab5e-1c4aeeb05123)
  )
  (wire (pts (xy 121.92 129.54) (xy 124.46 129.54))
    (stroke (width 0) (type default) (color 0 0 0 0))
    (uuid 10ed59db-5f87-4e3b-b75c-9d69e67835de)
  )
  (wire (pts (xy 160.02 76.2) (xy 157.48 76.2))
    (stroke (width 0) (type default) (color 0 0 0 0))
    (uuid 111274e0-7b7d-4557-ab89-a261603ab22a)
  )
  (wire (pts (xy 96.52 81.28) (xy 99.06 81.28))
    (stroke (width 0) (type default) (color 0 0 0 0))
    (uuid 12fd04cd-cdc9-41a7-95a3-d2fd36edfa37)
  )
  (wire (pts (xy 160.02 55.88) (xy 157.48 55.88))
    (stroke (width 0) (type default) (color 0 0 0 0))
    (uuid 1596b4ae-1159-425e-9496-1b9dd3a94452)
  )
  (wire (pts (xy 121.92 134.62) (xy 127 134.62))
    (stroke (width 0) (type default) (color 0 0 0 0))
    (uuid 17fcbfe4-f3a6-4e4e-82fe-262869292ee0)
  )
  (wire (pts (xy 121.92 71.12) (xy 124.46 71.12))
    (stroke (width 0) (type default) (color 0 0 0 0))
    (uuid 1805611a-105d-4c8d-bfe1-c5add7afedde)
  )
  (wire (pts (xy 154.94 101.6) (xy 157.48 101.6))
    (stroke (width 0) (type default) (color 0 0 0 0))
    (uuid 1877ca6c-b7ad-4681-acd8-0f86d893ad31)
  )
  (wire (pts (xy 96.52 106.68) (xy 96.52 109.22))
    (stroke (width 0) (type default) (color 0 0 0 0))
    (uuid 18dd5408-2f05-4dcc-a641-148f18a9a673)
  )
  (wire (pts (xy 121.92 73.66) (xy 127 73.66))
    (stroke (width 0) (type default) (color 0 0 0 0))
    (uuid 1a01fd12-dcfe-4769-96be-9d519bd02601)
  )
  (wire (pts (xy 182.88 116.84) (xy 185.42 116.84))
    (stroke (width 0) (type default) (color 0 0 0 0))
    (uuid 1a99fbbc-1429-4356-96fd-7cd86f7c4880)
  )
  (wire (pts (xy 93.98 81.28) (xy 96.52 81.28))
    (stroke (width 0) (type default) (color 0 0 0 0))
    (uuid 1aecac82-367a-4f90-bfaf-e38058014022)
  )
  (wire (pts (xy 160.02 109.22) (xy 157.48 109.22))
    (stroke (width 0) (type default) (color 0 0 0 0))
    (uuid 1b1b52b9-f9f9-4247-a153-076d6342ccee)
  )
  (wire (pts (xy 182.88 83.82) (xy 187.96 83.82))
    (stroke (width 0) (type default) (color 0 0 0 0))
    (uuid 1b56ea39-dd5b-4e1c-b5c5-50bd71490709)
  )
  (wire (pts (xy 99.06 96.52) (xy 96.52 96.52))
    (stroke (width 0) (type default) (color 0 0 0 0))
    (uuid 1bd8bbf7-ab8a-476a-a905-5c29b1fb5cc3)
  )
  (wire (pts (xy 99.06 58.42) (xy 96.52 58.42))
    (stroke (width 0) (type default) (color 0 0 0 0))
    (uuid 1f654530-4304-4e2c-9359-d4e2bb056019)
  )
  (wire (pts (xy 121.92 101.6) (xy 124.46 101.6))
    (stroke (width 0) (type default) (color 0 0 0 0))
    (uuid 1fce72cf-e22b-4b88-9f3c-78ae6e51d843)
  )
  (wire (pts (xy 93.98 134.62) (xy 99.06 134.62))
    (stroke (width 0) (type default) (color 0 0 0 0))
    (uuid 1fd12820-0b52-4aa2-9667-f1e816431954)
  )
  (wire (pts (xy 99.06 66.04) (xy 96.52 66.04))
    (stroke (width 0) (type default) (color 0 0 0 0))
    (uuid 2369fad5-a867-4b1f-9c22-6c65ac326ac3)
  )
  (wire (pts (xy 154.94 134.62) (xy 160.02 134.62))
    (stroke (width 0) (type default) (color 0 0 0 0))
    (uuid 247340bd-cebc-4dd5-aca4-8f0b69de9f6d)
  )
  (wire (pts (xy 157.48 119.38) (xy 157.48 121.92))
    (stroke (width 0) (type default) (color 0 0 0 0))
    (uuid 293ceaf3-45e8-419d-87d8-652e10edfe16)
  )
  (wire (pts (xy 157.48 116.84) (xy 157.48 119.38))
    (stroke (width 0) (type default) (color 0 0 0 0))
    (uuid 2c9b76eb-87f3-4a02-b379-098cc94974dd)
  )
  (wire (pts (xy 160.02 86.36) (xy 157.48 86.36))
    (stroke (width 0) (type default) (color 0 0 0 0))
    (uuid 2e177d58-8a2e-4a83-93ad-2edfeb0d2717)
  )
  (wire (pts (xy 93.98 121.92) (xy 96.52 121.92))
    (stroke (width 0) (type default) (color 0 0 0 0))
    (uuid 2f6e6fe6-ab74-4562-bb4a-f82faddc4443)
  )
  (wire (pts (xy 96.52 68.58) (xy 96.52 71.12))
    (stroke (width 0) (type default) (color 0 0 0 0))
    (uuid 300e2409-dd91-4553-953d-41dd55cb7899)
  )
  (wire (pts (xy 160.02 58.42) (xy 157.48 58.42))
    (stroke (width 0) (type default) (color 0 0 0 0))
    (uuid 303ba58e-c890-46b7-b8ae-a97ed8a980c0)
  )
  (wire (pts (xy 182.88 63.5) (xy 187.96 63.5))
    (stroke (width 0) (type default) (color 0 0 0 0))
    (uuid 30584b8d-c4cc-488e-8b52-7716a5ef2450)
  )
  (wire (pts (xy 154.94 114.3) (xy 160.02 114.3))
    (stroke (width 0) (type default) (color 0 0 0 0))
    (uuid 30bc5f36-ae42-4c53-b6d6-96aa532113da)
  )
  (wire (pts (xy 93.98 83.82) (xy 99.06 83.82))
    (stroke (width 0) (type default) (color 0 0 0 0))
    (uuid 31bf875f-d468-4225-9226-3660f2d51a09)
  )
  (wire (pts (xy 121.92 96.52) (xy 124.46 96.52))
    (stroke (width 0) (type default) (color 0 0 0 0))
    (uuid 33e2015b-411f-4f29-950b-92974f00eff1)
  )
  (wire (pts (xy 93.98 111.76) (xy 96.52 111.76))
    (stroke (width 0) (type default) (color 0 0 0 0))
    (uuid 3411aa83-ed36-4e61-a373-c5d0fa7de01c)
  )
  (wire (pts (xy 124.46 127) (xy 124.46 129.54))
    (stroke (width 0) (type default) (color 0 0 0 0))
    (uuid 34da927f-d2e2-49d9-8ae1-9858f54577cd)
  )
  (wire (pts (xy 154.94 81.28) (xy 157.48 81.28))
    (stroke (width 0) (type default) (color 0 0 0 0))
    (uuid 3546385e-ca55-45e8-bbf6-9c53933ea28a)
  )
  (wire (pts (xy 121.92 114.3) (xy 127 114.3))
    (stroke (width 0) (type default) (color 0 0 0 0))
    (uuid 36215f5a-f38c-4996-ad88-227611aa5491)
  )
  (wire (pts (xy 99.06 68.58) (xy 96.52 68.58))
    (stroke (width 0) (type default) (color 0 0 0 0))
    (uuid 366d7379-5def-4252-93bc-7d107ffe3b36)
  )
  (wire (pts (xy 182.88 99.06) (xy 185.42 99.06))
    (stroke (width 0) (type default) (color 0 0 0 0))
    (uuid 37b54b52-6baa-456e-a5ef-ed0a6cf5128e)
  )
  (wire (pts (xy 96.52 58.42) (xy 96.52 60.96))
    (stroke (width 0) (type default) (color 0 0 0 0))
    (uuid 3a775c13-7a3d-4e26-ad94-0e79d1c6b49b)
  )
  (wire (pts (xy 99.06 116.84) (xy 96.52 116.84))
    (stroke (width 0) (type default) (color 0 0 0 0))
    (uuid 3ac9fd70-7920-4300-b1d6-7d56e8e9a95e)
  )
  (wire (pts (xy 124.46 81.28) (xy 127 81.28))
    (stroke (width 0) (type default) (color 0 0 0 0))
    (uuid 3d4ee8fe-e6dd-4c56-87bb-50f4869cd1c9)
  )
  (wire (pts (xy 182.88 55.88) (xy 185.42 55.88))
    (stroke (width 0) (type default) (color 0 0 0 0))
    (uuid 3d7e3f23-cf87-4fdd-8b6c-117ab27b3f0a)
  )
  (wire (pts (xy 182.88 114.3) (xy 187.96 114.3))
    (stroke (width 0) (type default) (color 0 0 0 0))
    (uuid 3e9e5551-9e93-4204-8f8e-179db4a32cf3)
  )
  (wire (pts (xy 160.02 96.52) (xy 157.48 96.52))
    (stroke (width 0) (type default) (color 0 0 0 0))
    (uuid 3f2d5c26-c8e8-47f1-b42b-2ef5c121ba91)
  )
  (wire (pts (xy 121.92 121.92) (xy 124.46 121.92))
    (stroke (width 0) (type default) (color 0 0 0 0))
    (uuid 40886d90-cda1-45d3-84c9-605575893f32)
  )
  (wire (pts (xy 160.02 106.68) (xy 157.48 106.68))
    (stroke (width 0) (type default) (color 0 0 0 0))
    (uuid 415f8cbf-1543-4dea-9365-14a5706895b5)
  )
  (wire (pts (xy 99.06 55.88) (xy 96.52 55.88))
    (stroke (width 0) (type default) (color 0 0 0 0))
    (uuid 4340a911-e03b-4453-8aaa-871b70731451)
  )
  (wire (pts (xy 182.88 104.14) (xy 187.96 104.14))
    (stroke (width 0) (type default) (color 0 0 0 0))
    (uuid 43571651-8522-458b-a1d5-56aeb1ab75b6)
  )
  (wire (pts (xy 154.94 63.5) (xy 160.02 63.5))
    (stroke (width 0) (type default) (color 0 0 0 0))
    (uuid 43f56c35-c0ee-4ea0-924c-4d45dea2f943)
  )
  (wire (pts (xy 121.92 127) (xy 124.46 127))
    (stroke (width 0) (type default) (color 0 0 0 0))
    (uuid 46d42f2f-3fab-4e93-b3f4-884f596e8117)
  )
  (wire (pts (xy 182.88 96.52) (xy 185.42 96.52))
    (stroke (width 0) (type default) (color 0 0 0 0))
    (uuid 46d72020-5138-4946-b891-dd1f6738a27f)
  )
  (wire (pts (xy 124.46 96.52) (xy 124.46 99.06))
    (stroke (width 0) (type default) (color 0 0 0 0))
    (uuid 474b9c08-f27d-4575-a70a-b46ef84c8a62)
  )
  (wire (pts (xy 185.42 121.92) (xy 187.96 121.92))
    (stroke (width 0) (type default) (color 0 0 0 0))
    (uuid 4795b200-c4de-43d8-80af-367c26832180)
  )
  (wire (pts (xy 182.88 121.92) (xy 185.42 121.92))
    (stroke (width 0) (type default) (color 0 0 0 0))
    (uuid 47973d63-18dd-4d6c-91d8-b18ecd706717)
  )
  (wire (pts (xy 124.46 88.9) (xy 124.46 91.44))
    (stroke (width 0) (type default) (color 0 0 0 0))
    (uuid 47eda29f-ba76-4d15-a44f-eeef8a11ec18)
  )
  (wire (pts (xy 157.48 111.76) (xy 160.02 111.76))
    (stroke (width 0) (type default) (color 0 0 0 0))
    (uuid 49041697-4782-4bc7-abb6-e18d8981778e)
  )
  (wire (pts (xy 157.48 101.6) (xy 160.02 101.6))
    (stroke (width 0) (type default) (color 0 0 0 0))
    (uuid 4a97ef00-74c7-48f8-bbb9-45cb38bbebfc)
  )
  (wire (pts (xy 185.42 99.06) (xy 185.42 101.6))
    (stroke (width 0) (type default) (color 0 0 0 0))
    (uuid 4b84fe17-bc4f-4881-98c1-222adb5c61cf)
  )
  (wire (pts (xy 124.46 132.08) (xy 127 132.08))
    (stroke (width 0) (type default) (color 0 0 0 0))
    (uuid 4c4cb891-c0cd-40b4-a398-2655edb53c38)
  )
  (wire (pts (xy 182.88 109.22) (xy 185.42 109.22))
    (stroke (width 0) (type default) (color 0 0 0 0))
    (uuid 4ce7dab1-ef5e-4c20-b9a5-f5726fd87fb1)
  )
  (wire (pts (xy 99.06 88.9) (xy 96.52 88.9))
    (stroke (width 0) (type default) (color 0 0 0 0))
    (uuid 4d56ed3a-0d20-49ae-ba71-12ca36a3eeb7)
  )
  (wire (pts (xy 185.42 55.88) (xy 185.42 58.42))
    (stroke (width 0) (type default) (color 0 0 0 0))
    (uuid 4e80981a-9924-4e12-bf9e-7425710b9109)
  )
  (wire (pts (xy 160.02 127) (xy 157.48 127))
    (stroke (width 0) (type default) (color 0 0 0 0))
    (uuid 4f4b93c6-48d7-4662-b5df-479937ea326d)
  )
  (wire (pts (xy 99.06 78.74) (xy 96.52 78.74))
    (stroke (width 0) (type default) (color 0 0 0 0))
    (uuid 50111c35-1704-4bda-8362-8284918cf7ab)
  )
  (wire (pts (xy 160.02 68.58) (xy 157.48 68.58))
    (stroke (width 0) (type default) (color 0 0 0 0))
    (uuid 5012d35e-3af9-4e53-b856-1b235e1f2af6)
  )
  (wire (pts (xy 185.42 127) (xy 185.42 129.54))
    (stroke (width 0) (type default) (color 0 0 0 0))
    (uuid 5083d26f-30b6-412d-a77a-343683e9cfb8)
  )
  (wire (pts (xy 93.98 124.46) (xy 99.06 124.46))
    (stroke (width 0) (type default) (color 0 0 0 0))
    (uuid 50a7b31e-7ebf-40b9-aea8-607bd559467f)
  )
  (wire (pts (xy 99.06 119.38) (xy 96.52 119.38))
    (stroke (width 0) (type default) (color 0 0 0 0))
    (uuid 51401585-0822-4b5e-a3b9-bbd84703326a)
  )
  (wire (pts (xy 93.98 71.12) (xy 96.52 71.12))
    (stroke (width 0) (type default) (color 0 0 0 0))
    (uuid 51da66ba-43f4-479d-9b57-827df5977a07)
  )
  (wire (pts (xy 99.06 106.68) (xy 96.52 106.68))
    (stroke (width 0) (type default) (color 0 0 0 0))
    (uuid 52cf702c-a008-40b2-84f5-a17dd0e0ca1c)
  )
  (wire (pts (xy 185.42 68.58) (xy 185.42 71.12))
    (stroke (width 0) (type default) (color 0 0 0 0))
    (uuid 52f6256d-98ea-4db6-8f7b-8a8980fa83cd)
  )
  (wire (pts (xy 121.92 86.36) (xy 124.46 86.36))
    (stroke (width 0) (type default) (color 0 0 0 0))
    (uuid 5408ba8d-70cc-4460-b762-67f61fc7f67b)
  )
  (wire (pts (xy 154.94 73.66) (xy 160.02 73.66))
    (stroke (width 0) (type default) (color 0 0 0 0))
    (uuid 551d13e7-9b24-4f9c-bc5d-b9b1c136b2e3)
  )
  (wire (pts (xy 121.92 111.76) (xy 124.46 111.76))
    (stroke (width 0) (type default) (color 0 0 0 0))
    (uuid 560fb8de-08ea-4ce3-b952-ebfc555b4239)
  )
  (wire (pts (xy 182.88 93.98) (xy 187.96 93.98))
    (stroke (width 0) (type default) (color 0 0 0 0))
    (uuid 568eff04-d3ea-4bea-bb1f-3e9db6b6b863)
  )
  (wire (pts (xy 157.48 96.52) (xy 157.48 99.06))
    (stroke (width 0) (type default) (color 0 0 0 0))
    (uuid 56adcc63-9ab3-430c-84e5-f8d14cbeed5a)
  )
  (wire (pts (xy 124.46 66.04) (xy 124.46 68.58))
    (stroke (width 0) (type default) (color 0 0 0 0))
    (uuid 56da0f13-f3fd-45be-9b53-d50461ae38bf)
  )
  (wire (pts (xy 121.92 76.2) (xy 124.46 76.2))
    (stroke (width 0) (type default) (color 0 0 0 0))
    (uuid 581d7dae-acbe-4a53-88bb-4fca71d911de)
  )
  (wire (pts (xy 182.88 76.2) (xy 185.42 76.2))
    (stroke (width 0) (type default) (color 0 0 0 0))
    (uuid 58dbd3f5-9cca-4714-8c82-1e6fbefdc0b2)
  )
  (wire (pts (xy 154.94 60.96) (xy 157.48 60.96))
    (stroke (width 0) (type default) (color 0 0 0 0))
    (uuid 59e5c7dc-3b61-4d74-9875-4f3aa3016845)
  )
  (wire (pts (xy 96.52 132.08) (xy 99.06 132.08))
    (stroke (width 0) (type default) (color 0 0 0 0))
    (uuid 5a160791-00c4-4591-9fec-854ecf537540)
  )
  (wire (pts (xy 96.52 55.88) (xy 96.52 58.42))
    (stroke (width 0) (type default) (color 0 0 0 0))
    (uuid 5d24104c-3a29-49f8-8489-136f17c4110e)
  )
  (wire (pts (xy 182.88 124.46) (xy 187.96 124.46))
    (stroke (width 0) (type default) (color 0 0 0 0))
    (uuid 5d9bd90f-7da9-498d-a850-139e5487556e)
  )
  (wire (pts (xy 154.94 71.12) (xy 157.48 71.12))
    (stroke (width 0) (type default) (color 0 0 0 0))
    (uuid 5ecbd118-e389-4dba-9b7f-f670a5441d57)
  )
  (wire (pts (xy 185.42 76.2) (xy 185.42 78.74))
    (stroke (width 0) (type default) (color 0 0 0 0))
    (uuid 5f5de427-f972-4447-8b7c-33dc53098f52)
  )
  (wire (pts (xy 99.06 99.06) (xy 96.52 99.06))
    (stroke (width 0) (type default) (color 0 0 0 0))
    (uuid 5f7fd090-8457-48c9-bf75-ed5257b4cbc5)
  )
  (wire (pts (xy 93.98 114.3) (xy 99.06 114.3))
    (stroke (width 0) (type default) (color 0 0 0 0))
    (uuid 5f868e9d-414c-4552-a47d-cdef30635a50)
  )
  (wire (pts (xy 154.94 111.76) (xy 157.48 111.76))
    (stroke (width 0) (type default) (color 0 0 0 0))
    (uuid 5f90097f-80ce-43b5-84c6-9249f1d8b40b)
  )
  (wire (pts (xy 154.94 132.08) (xy 157.48 132.08))
    (stroke (width 0) (type default) (color 0 0 0 0))
    (uuid 6097a1c3-58a3-4e86-898d-995d6e247933)
  )
  (wire (pts (xy 157.48 86.36) (xy 157.48 88.9))
    (stroke (width 0) (type default) (color 0 0 0 0))
    (uuid 613932bd-2b56-4ac1-a8e5-a4bf7dfca60e)
  )
  (wire (pts (xy 157.48 132.08) (xy 160.02 132.08))
    (stroke (width 0) (type default) (color 0 0 0 0))
    (uuid 61de877e-29e3-42bb-a8a0-845a725fad9e)
  )
  (wire (pts (xy 185.42 101.6) (xy 187.96 101.6))
    (stroke (width 0) (type default) (color 0 0 0 0))
    (uuid 623c4943-7041-4db3-8eaf-463b7050cef7)
  )
  (wire (pts (xy 124.46 116.84) (xy 124.46 119.38))
    (stroke (width 0) (type default) (color 0 0 0 0))
    (uuid 64233d9d-e997-454c-912d-64034e5cb203)
  )
  (wire (pts (xy 124.46 91.44) (xy 127 91.44))
    (stroke (width 0) (type default) (color 0 0 0 0))
    (uuid 657cd4e0-7159-4348-8b37-b29f731895e1)
  )
  (wire (pts (xy 182.88 71.12) (xy 185.42 71.12))
    (stroke (width 0) (type default) (color 0 0 0 0))
    (uuid 68136be9-98a1-4c91-9162-24d07a7ef6d6)
  )
  (wire (pts (xy 185.42 119.38) (xy 185.42 121.92))
    (stroke (width 0) (type default) (color 0 0 0 0))
    (uuid 6c86c774-a879-4d9d-818b-b1d36e58ac25)
  )
  (wire (pts (xy 93.98 73.66) (xy 99.06 73.66))
    (stroke (width 0) (type default) (color 0 0 0 0))
    (uuid 6cf0765d-1e50-4941-9ef7-52e3ee1c6c82)
  )
  (wire (pts (xy 185.42 106.68) (xy 185.42 109.22))
    (stroke (width 0) (type default) (color 0 0 0 0))
    (uuid 6df2a794-d7bd-41ca-8f39-bd614fefa780)
  )
  (wire (pts (xy 96.52 71.12) (xy 99.06 71.12))
    (stroke (width 0) (type default) (color 0 0 0 0))
    (uuid 6ecdfd05-d098-41ef-93cc-e4fc3c46a507)
  )
  (wire (pts (xy 121.92 93.98) (xy 127 93.98))
    (stroke (width 0) (type default) (color 0 0 0 0))
    (uuid 6f4504ae-7cbf-43bf-9654-4de19f13615a)
  )
  (wire (pts (xy 96.52 109.22) (xy 96.52 111.76))
    (stroke (width 0) (type default) (color 0 0 0 0))
    (uuid 6f4e631e-a257-4ca6-ab24-95183f7b4492)
  )
  (wire (pts (xy 154.94 104.14) (xy 160.02 104.14))
    (stroke (width 0) (type default) (color 0 0 0 0))
    (uuid 7076bd80-b559-4624-a298-c38500db90fb)
  )
  (wire (pts (xy 121.92 104.14) (xy 127 104.14))
    (stroke (width 0) (type default) (color 0 0 0 0))
    (uuid 710abe27-ce29-434f-9460-1c18893d781d)
  )
  (wire (pts (xy 185.42 60.96) (xy 187.96 60.96))
    (stroke (width 0) (type default) (color 0 0 0 0))
    (uuid 73852f96-067b-482b-9ff3-fd8a0f12db69)
  )
  (wire (pts (xy 99.06 127) (xy 96.52 127))
    (stroke (width 0) (type default) (color 0 0 0 0))
    (uuid 753a4509-1a61-43f5-b050-e11d4ee4d59f)
  )
  (wire (pts (xy 185.42 129.54) (xy 185.42 132.08))
    (stroke (width 0) (type default) (color 0 0 0 0))
    (uuid 77342960-d5c8-47dc-8112-7bc87dec7f3d)
  )
  (wire (pts (xy 93.98 60.96) (xy 96.52 60.96))
    (stroke (width 0) (type default) (color 0 0 0 0))
    (uuid 778daa62-8fac-407e-b0cf-193619966711)
  )
  (wire (pts (xy 121.92 60.96) (xy 124.46 60.96))
    (stroke (width 0) (type default) (color 0 0 0 0))
    (uuid 78232cc5-7b0b-4c21-950b-5d1a54788840)
  )
  (wire (pts (xy 157.48 127) (xy 157.48 129.54))
    (stroke (width 0) (type default) (color 0 0 0 0))
    (uuid 7849515d-5e09-4df7-879c-67c1d1cd4a06)
  )
  (wire (pts (xy 121.92 55.88) (xy 124.46 55.88))
    (stroke (width 0) (type default) (color 0 0 0 0))
    (uuid 79e32a44-14f9-4635-b954-74ca073762ea)
  )
  (wire (pts (xy 96.52 116.84) (xy 96.52 119.38))
    (stroke (width 0) (type default) (color 0 0 0 0))
    (uuid 7a275d30-c5ed-47a5-abf9-bfb7e17b0c1d)
  )
  (wire (pts (xy 182.88 60.96) (xy 185.42 60.96))
    (stroke (width 0) (type default) (color 0 0 0 0))
    (uuid 7a9f7c21-1e41-4524-b556-7cfee2d2be2d)
  )
  (wire (pts (xy 96.52 121.92) (xy 99.06 121.92))
    (stroke (width 0) (type default) (color 0 0 0 0))
    (uuid 7b32312b-2d05-43ff-a19a-68ca216c214a)
  )
  (wire (pts (xy 182.88 58.42) (xy 185.42 58.42))
    (stroke (width 0) (type default) (color 0 0 0 0))
    (uuid 7fd50bc0-a2dc-43cc-a4be-a2debadf762e)
  )
  (wire (pts (xy 185.42 71.12) (xy 187.96 71.12))
    (stroke (width 0) (type default) (color 0 0 0 0))
    (uuid 81a63f5e-1f7c-4cf7-a9c8-17b436f30a19)
  )
  (wire (pts (xy 124.46 101.6) (xy 127 101.6))
    (stroke (width 0) (type default) (color 0 0 0 0))
    (uuid 86404492-8ee4-4ce1-8d6f-80899bd99b1c)
  )
  (wire (pts (xy 160.02 116.84) (xy 157.48 116.84))
    (stroke (width 0) (type default) (color 0 0 0 0))
    (uuid 896f4657-f42f-4d04-aefd-2a0b33a5b453)
  )
  (wire (pts (xy 96.52 101.6) (xy 99.06 101.6))
    (stroke (width 0) (type default) (color 0 0 0 0))
    (uuid 89fbeeaa-1245-4082-a630-b68b08abcf06)
  )
  (wire (pts (xy 121.92 68.58) (xy 124.46 68.58))
    (stroke (width 0) (type default) (color 0 0 0 0))
    (uuid 8c630a40-2342-4ebf-93fe-e61c5f19ef3f)
  )
  (wire (pts (xy 185.42 78.74) (xy 185.42 81.28))
    (stroke (width 0) (type default) (color 0 0 0 0))
    (uuid 8c83bc82-feae-4f13-9a02-6e67bb523741)
  )
  (wire (pts (xy 124.46 55.88) (xy 124.46 58.42))
    (stroke (width 0) (type default) (color 0 0 0 0))
    (uuid 8e2705c9-318d-4614-b0d8-7cc5e04db19d)
  )
  (wire (pts (xy 185.42 88.9) (xy 185.42 91.44))
    (stroke (width 0) (type default) (color 0 0 0 0))
    (uuid 8e397910-9e15-49a5-b2cb-6d00e6b9b060)
  )
  (wire (pts (xy 124.46 71.12) (xy 127 71.12))
    (stroke (width 0) (type default) (color 0 0 0 0))
    (uuid 8e707f33-d628-4f8c-9719-18afa8db4e6d)
  )
  (wire (pts (xy 182.88 88.9) (xy 185.42 88.9))
    (stroke (width 0) (type default) (color 0 0 0 0))
    (uuid 8f11fd72-48f8-41ba-b401-54b8b3794a9f)
  )
  (wire (pts (xy 157.48 91.44) (xy 160.02 91.44))
    (stroke (width 0) (type default) (color 0 0 0 0))
    (uuid 901db633-6cd2-4486-a435-c664d9afe4ce)
  )
  (wire (pts (xy 121.92 81.28) (xy 124.46 81.28))
    (stroke (width 0) (type default) (color 0 0 0 0))
    (uuid 90a410bd-d3d9-422e-9b20-06e5c6622c52)
  )
  (wire (pts (xy 157.48 68.58) (xy 157.48 71.12))
    (stroke (width 0) (type default) (color 0 0 0 0))
    (uuid 90bc35cd-3986-4230-9546-15730d5d0c73)
  )
  (wire (pts (xy 185.42 96.52) (xy 185.42 99.06))
    (stroke (width 0) (type default) (color 0 0 0 0))
    (uuid 94d545b4-b3db-45a8-9b58-9e1c2d7780ba)
  )
  (wire (pts (xy 160.02 88.9) (xy 157.48 88.9))
    (stroke (width 0) (type default) (color 0 0 0 0))
    (uuid 96b58b7d-7114-4de2-be51-4b4186c5cbe3)
  )
  (wire (pts (xy 96.52 119.38) (xy 96.52 121.92))
    (stroke (width 0) (type default) (color 0 0 0 0))
    (uuid 9783d521-6ae9-468a-9f5a-9f4307b60c18)
  )
  (wire (pts (xy 157.48 99.06) (xy 157.48 101.6))
    (stroke (width 0) (type default) (color 0 0 0 0))
    (uuid 9867a058-355f-421a-821f-ce2cc045a62b)
  )
  (wire (pts (xy 96.52 96.52) (xy 96.52 99.06))
    (stroke (width 0) (type default) (color 0 0 0 0))
    (uuid 9a433a0f-766c-4331-bf35-682b954f8034)
  )
  (wire (pts (xy 124.46 58.42) (xy 124.46 60.96))
    (stroke (width 0) (type default) (color 0 0 0 0))
    (uuid 9bd9a2d2-8d46-4667-a399-908c701b1d68)
  )
  (wire (pts (xy 124.46 106.68) (xy 124.46 109.22))
    (stroke (width 0) (type default) (color 0 0 0 0))
    (uuid 9cdb205e-cf4a-4d98-8f90-6dee9ff4e85d)
  )
  (wire (pts (xy 185.42 86.36) (xy 185.42 88.9))
    (stroke (width 0) (type default) (color 0 0 0 0))
    (uuid 9d959ba1-c0bd-4c41-a733-888a168ca5b2)
  )
  (wire (pts (xy 185.42 66.04) (xy 185.42 68.58))
    (stroke (width 0) (type default) (color 0 0 0 0))
    (uuid 9e38ed18-cada-4125-88f2-7103f339b8ca)
  )
  (wire (pts (xy 93.98 93.98) (xy 99.06 93.98))
    (stroke (width 0) (type default) (color 0 0 0 0))
    (uuid 9e6e667b-24fe-4689-8b8a-a6a3952789be)
  )
  (wire (pts (xy 121.92 63.5) (xy 127 63.5))
    (stroke (width 0) (type default) (color 0 0 0 0))
    (uuid 9fc06eb0-2d92-40fd-9da9-7460a8daa2bb)
  )
  (wire (pts (xy 96.52 76.2) (xy 96.52 78.74))
    (stroke (width 0) (type default) (color 0 0 0 0))
    (uuid 9fd1f3d7-b5ab-4c9f-87f2-7fa75ac89b52)
  )
  (wire (pts (xy 121.92 66.04) (xy 124.46 66.04))
    (stroke (width 0) (type default) (color 0 0 0 0))
    (uuid a22a5752-7b0d-4a8d-b862-7a99ead00d22)
  )
  (wire (pts (xy 185.42 91.44) (xy 187.96 91.44))
    (stroke (width 0) (type default) (color 0 0 0 0))
    (uuid a23bb30e-b14b-4cb0-b5a6-03ecb04f358c)
  )
  (wire (pts (xy 160.02 129.54) (xy 157.48 129.54))
    (stroke (width 0) (type default) (color 0 0 0 0))
    (uuid a3afc26d-de36-4131-8613-53518d99077f)
  )
  (wire (pts (xy 154.94 83.82) (xy 160.02 83.82))
    (stroke (width 0) (type default) (color 0 0 0 0))
    (uuid a43901d8-270a-44ec-8e58-c5650a0e2d22)
  )
  (wire (pts (xy 93.98 104.14) (xy 99.06 104.14))
    (stroke (width 0) (type default) (color 0 0 0 0))
    (uuid a4f69329-0f05-4e94-b358-8ca236cb1af3)
  )
  (wire (pts (xy 182.88 66.04) (xy 185.42 66.04))
    (stroke (width 0) (type default) (color 0 0 0 0))
    (uuid a5760197-62d8-4ad0-9537-9313c0aadb0f)
  )
  (wire (pts (xy 185.42 81.28) (xy 187.96 81.28))
    (stroke (width 0) (type default) (color 0 0 0 0))
    (uuid a5b7fb43-e1c5-453f-baf1-2f75fb4b9a8c)
  )
  (wire (pts (xy 96.52 86.36) (xy 96.52 88.9))
    (stroke (width 0) (type default) (color 0 0 0 0))
    (uuid a625d2bb-f8b3-4648-b13d-de25387674ec)
  )
  (wire (pts (xy 96.52 111.76) (xy 99.06 111.76))
    (stroke (width 0) (type default) (color 0 0 0 0))
    (uuid a6a523ea-6455-4ed5-b384-734b4ef6c606)
  )
  (wire (pts (xy 154.94 91.44) (xy 157.48 91.44))
    (stroke (width 0) (type default) (color 0 0 0 0))
    (uuid ab28fe50-8613-4cca-af6b-21a97c9b7827)
  )
  (wire (pts (xy 157.48 88.9) (xy 157.48 91.44))
    (stroke (width 0) (type default) (color 0 0 0 0))
    (uuid ac732da3-cf72-4e46-97e1-87e3c79db8c0)
  )
  (wire (pts (xy 121.92 109.22) (xy 124.46 109.22))
    (stroke (width 0) (type default) (color 0 0 0 0))
    (uuid ad79303a-6120-4c10-b936-8ee93a134ac1)
  )
  (wire (pts (xy 93.98 101.6) (xy 96.52 101.6))
    (stroke (width 0) (type default) (color 0 0 0 0))
    (uuid aea0a85b-4c25-4031-a073-52a27497bb93)
  )
  (wire (pts (xy 124.46 99.06) (xy 124.46 101.6))
    (stroke (width 0) (type default) (color 0 0 0 0))
    (uuid aecc79f1-796e-45a4-86e0-bfd3383bb31c)
  )
  (wire (pts (xy 157.48 66.04) (xy 157.48 68.58))
    (stroke (width 0) (type default) (color 0 0 0 0))
    (uuid b31b70e1-3e60-4a02-ad4b-ae44d37a7244)
  )
  (wire (pts (xy 121.92 83.82) (xy 127 83.82))
    (stroke (width 0) (type default) (color 0 0 0 0))
    (uuid b42cc0c1-a118-4ade-966a-e1456d3600f8)
  )
  (wire (pts (xy 182.88 68.58) (xy 185.42 68.58))
    (stroke (width 0) (type default) (color 0 0 0 0))
    (uuid b52fba96-78ed-43ef-9d42-5e9b1898c8f9)
  )
  (wire (pts (xy 93.98 63.5) (xy 99.06 63.5))
    (stroke (width 0) (type default) (color 0 0 0 0))
    (uuid b7d0f37c-0008-43ec-b5cf-e4a2080014e6)
  )
  (wire (pts (xy 124.46 129.54) (xy 124.46 132.08))
    (stroke (width 0) (type default) (color 0 0 0 0))
    (uuid b95133c2-e806-49cf-a519-bb10ffc6f28e)
  )
  (wire (pts (xy 182.88 106.68) (xy 185.42 106.68))
    (stroke (width 0) (type default) (color 0 0 0 0))
    (uuid bb35adbf-efb9-4887-80df-87b43c264338)
  )
  (wire (pts (xy 96.52 127) (xy 96.52 129.54))
    (stroke (width 0) (type default) (color 0 0 0 0))
    (uuid bd767e18-57d2-4f00-8104-bd97c910e1c7)
  )
  (wire (pts (xy 182.88 91.44) (xy 185.42 91.44))
    (stroke (width 0) (type default) (color 0 0 0 0))
    (uuid be04c83a-5454-4fe5-ad15-3a384d21be1d)
  )
  (wire (pts (xy 121.92 132.08) (xy 124.46 132.08))
    (stroke (width 0) (type default) (color 0 0 0 0))
    (uuid bfc5d266-0035-4d32-8c68-985d0c6dbbd9)
  )
  (wire (pts (xy 157.48 55.88) (xy 157.48 58.42))
    (stroke (width 0) (type default) (color 0 0 0 0))
    (uuid c0d2c489-6e48-4556-9aa8-c4655856fdb2)
  )
  (wire (pts (xy 157.48 129.54) (xy 157.48 132.08))
    (stroke (width 0) (type default) (color 0 0 0 0))
    (uuid c19b9ffa-274a-4fda-9813-f576e9356fb4)
  )
  (wire (pts (xy 160.02 99.06) (xy 157.48 99.06))
    (stroke (width 0) (type default) (color 0 0 0 0))
    (uuid c1c3fba9-8509-48d0-8ca8-5c9f00dd1b6b)
  )
  (wire (pts (xy 121.92 99.06) (xy 124.46 99.06))
    (stroke (width 0) (type default) (color 0 0 0 0))
    (uuid c61f073c-076e-4378-b2cb-3650e640a861)
  )
  (wire (pts (xy 124.46 60.96) (xy 127 60.96))
    (stroke (width 0) (type default) (color 0 0 0 0))
    (uuid c743a699-57fa-4bc3-a4a2-720e35a26238)
  )
  (wire (pts (xy 182.88 73.66) (xy 187.96 73.66))
    (stroke (width 0) (type default) (color 0 0 0 0))
    (uuid c7b34bbf-fc88-46af-91a2-b2ba0b792b12)
  )
  (wire (pts (xy 185.42 58.42) (xy 185.42 60.96))
    (stroke (width 0) (type default) (color 0 0 0 0))
    (uuid ca456ca0-5c1e-408a-8487-6d1e91aeeaee)
  )
  (wire (pts (xy 96.52 91.44) (xy 99.06 91.44))
    (stroke (width 0) (type default) (color 0 0 0 0))
    (uuid cb632b00-c968-40d6-ba5d-cd7b4945cf5f)
  )
  (wire (pts (xy 182.88 101.6) (xy 185.42 101.6))
    (stroke (width 0) (type default) (color 0 0 0 0))
    (uuid cddd496a-f4d7-4136-ac82-98b733a6cec5)
  )
  (wire (pts (xy 157.48 58.42) (xy 157.48 60.96))
    (stroke (width 0) (type default) (color 0 0 0 0))
    (uuid ce076266-016e-41d7-b01a-1e88af332f9a)
  )
  (wire (pts (xy 157.48 76.2) (xy 157.48 78.74))
    (stroke (width 0) (type default) (color 0 0 0 0))
    (uuid ce454572-5eb0-4a99-9545-c9ff677ced47)
  )
  (wire (pts (xy 121.92 106.68) (xy 124.46 106.68))
    (stroke (width 0) (type default) (color 0 0 0 0))
    (uuid cf8673ff-e443-4be1-9717-72cc8ae83847)
  )
  (wire (pts (xy 182.88 134.62) (xy 187.96 134.62))
    (stroke (width 0) (type default) (color 0 0 0 0))
    (uuid d05eae15-55fa-419a-aa01-58dd29db05bc)
  )
  (wire (pts (xy 96.52 99.06) (xy 96.52 101.6))
    (stroke (width 0) (type default) (color 0 0 0 0))
    (uuid d0e231ca-104f-4ca7-af34-c298de29e2d0)
  )
  (wire (pts (xy 182.88 119.38) (xy 185.42 119.38))
    (stroke (width 0) (type default) (color 0 0 0 0))
    (uuid d1a23553-90dc-4eb9-a3aa-386550ad92b3)
  )
  (wire (pts (xy 96.52 88.9) (xy 96.52 91.44))
    (stroke (width 0) (type default) (color 0 0 0 0))
    (uuid d210dd2e-83a1-4b12-9886-5ab8beb9e18a)
  )
  (wire (pts (xy 182.88 78.74) (xy 185.42 78.74))
    (stroke (width 0) (type default) (color 0 0 0 0))
    (uuid d2bc8699-a948-4845-8247-c7b6cb99c690)
  )
  (wire (pts (xy 154.94 93.98) (xy 160.02 93.98))
    (stroke (width 0) (type default) (color 0 0 0 0))
    (uuid d55a1b2c-622b-47de-9976-350c51dbccd6)
  )
  (wire (pts (xy 96.52 66.04) (xy 96.52 68.58))
    (stroke (width 0) (type default) (color 0 0 0 0))
    (uuid d58d3466-c8c3-4860-a29c-8cd36e7095f3)
  )
  (wire (pts (xy 124.46 76.2) (xy 124.46 78.74))
    (stroke (width 0) (type default) (color 0 0 0 0))
    (uuid d8653329-97ef-427c-b466-caa2469c196f)
  )
  (wire (pts (xy 124.46 86.36) (xy 124.46 88.9))
    (stroke (width 0) (type default) (color 0 0 0 0))
    (uuid d98d110d-e2ed-4ce4-b8ae-b92fdb8f9a61)
  )
  (wire (pts (xy 121.92 91.44) (xy 124.46 91.44))
    (stroke (width 0) (type default) (color 0 0 0 0))
    (uuid da8b25bc-c5f4-4496-8652-207c8eee8e50)
  )
  (wire (pts (xy 182.88 132.08) (xy 185.42 132.08))
    (stroke (width 0) (type default) (color 0 0 0 0))
    (uuid db120137-25dd-4ca5-8ae1-09a6d970feb6)
  )
  (wire (pts (xy 185.42 109.22) (xy 185.42 111.76))
    (stroke (width 0) (type default) (color 0 0 0 0))
    (uuid db2122bd-4dc5-45d1-a84d-d1727e0a9302)
  )
  (wire (pts (xy 99.06 129.54) (xy 96.52 129.54))
    (stroke (width 0) (type default) (color 0 0 0 0))
    (uuid dbe3bb81-c84c-4e6e-a131-665e83e44cc8)
  )
  (wire (pts (xy 121.92 78.74) (xy 124.46 78.74))
    (stroke (width 0) (type default) (color 0 0 0 0))
    (uuid dcb9f71f-0f11-4e89-af3e-d3fc1f5062f8)
  )
  (wire (pts (xy 157.48 81.28) (xy 160.02 81.28))
    (stroke (width 0) (type default) (color 0 0 0 0))
    (uuid dd74d397-cc7c-48ec-8f6a-181f55c7872c)
  )
  (wire (pts (xy 93.98 91.44) (xy 96.52 91.44))
    (stroke (width 0) (type default) (color 0 0 0 0))
    (uuid df918fb4-d41c-482f-aedc-3b8c96d06eaf)
  )
  (wire (pts (xy 157.48 60.96) (xy 160.02 60.96))
    (stroke (width 0) (type default) (color 0 0 0 0))
    (uuid e154b2a8-7971-4d03-8a83-71e2cbb0cd17)
  )
  (wire (pts (xy 160.02 119.38) (xy 157.48 119.38))
    (stroke (width 0) (type default) (color 0 0 0 0))
    (uuid e241e98b-9792-4ccf-bf97-683dfd887506)
  )
  (wire (pts (xy 157.48 109.22) (xy 157.48 111.76))
    (stroke (width 0) (type default) (color 0 0 0 0))
    (uuid e6fcc82f-a015-4ca6-8a4d-e3d4038def00)
  )
  (wire (pts (xy 185.42 132.08) (xy 187.96 132.08))
    (stroke (width 0) (type default) (color 0 0 0 0))
    (uuid e8662160-988e-4e2a-bd34-02c6d3417fb4)
  )
  (wire (pts (xy 185.42 116.84) (xy 185.42 119.38))
    (stroke (width 0) (type default) (color 0 0 0 0))
    (uuid e8c15d1f-dbb7-4d81-8f11-1cb3cb2024f7)
  )
  (wire (pts (xy 157.48 78.74) (xy 157.48 81.28))
    (stroke (width 0) (type default) (color 0 0 0 0))
    (uuid e950ba2a-96bf-4d41-949e-073bdfc34329)
  )
  (wire (pts (xy 154.94 121.92) (xy 157.48 121.92))
    (stroke (width 0) (type default) (color 0 0 0 0))
    (uuid eb864483-e196-435c-883d-01561ef1c1ce)
  )
  (wire (pts (xy 160.02 78.74) (xy 157.48 78.74))
    (stroke (width 0) (type default) (color 0 0 0 0))
    (uuid ed345f05-de15-4d0e-93e2-fd8278f9cd5a)
  )
  (wire (pts (xy 121.92 88.9) (xy 124.46 88.9))
    (stroke (width 0) (type default) (color 0 0 0 0))
    (uuid ef200fc7-ce03-4d75-9506-ff0b7b956d14)
  )
  (wire (pts (xy 157.48 106.68) (xy 157.48 109.22))
    (stroke (width 0) (type default) (color 0 0 0 0))
    (uuid efd29842-623d-44dc-9938-db106904db2b)
  )
  (wire (pts (xy 93.98 132.08) (xy 96.52 132.08))
    (stroke (width 0) (type default) (color 0 0 0 0))
    (uuid f2516246-020e-4072-8aad-e94bc5942202)
  )
  (wire (pts (xy 99.06 109.22) (xy 96.52 109.22))
    (stroke (width 0) (type default) (color 0 0 0 0))
    (uuid f3a6b616-bd30-468e-a60c-ec2c78b0a48d)
  )
  (wire (pts (xy 121.92 124.46) (xy 127 124.46))
    (stroke (width 0) (type default) (color 0 0 0 0))
    (uuid f3eb0970-6b2a-400a-a665-d5e6a13e44b8)
  )
  (wire (pts (xy 154.94 124.46) (xy 160.02 124.46))
    (stroke (width 0) (type default) (color 0 0 0 0))
    (uuid f54b9041-8057-4c54-973a-c52584a9ceb9)
  )
  (wire (pts (xy 121.92 119.38) (xy 124.46 119.38))
    (stroke (width 0) (type default) (color 0 0 0 0))
    (uuid f59ee99e-0d59-4645-9027-6900c1022f95)
  )
  (wire (pts (xy 157.48 71.12) (xy 160.02 71.12))
    (stroke (width 0) (type default) (color 0 0 0 0))
    (uuid f684786e-2b40-4f1b-921e-40176e1599f1)
  )
  (wire (pts (xy 182.88 127) (xy 185.42 127))
    (stroke (width 0) (type default) (color 0 0 0 0))
    (uuid f83b029a-a6b3-4ca1-ab07-72be79027479)
  )
  (wire (pts (xy 96.52 129.54) (xy 96.52 132.08))
    (stroke (width 0) (type default) (color 0 0 0 0))
    (uuid f96c577a-083a-4f61-b807-84ebe6e10a70)
  )
  (wire (pts (xy 121.92 58.42) (xy 124.46 58.42))
    (stroke (width 0) (type default) (color 0 0 0 0))
    (uuid f9e75d77-e6d7-4bd9-bf8c-ed8acf3f3846)
  )
  (wire (pts (xy 185.42 111.76) (xy 187.96 111.76))
    (stroke (width 0) (type default) (color 0 0 0 0))
    (uuid faf6165d-81e9-4053-90bd-ef98eea88d59)
  )
  (wire (pts (xy 96.52 60.96) (xy 99.06 60.96))
    (stroke (width 0) (type default) (color 0 0 0 0))
    (uuid fbd78dde-ae1b-4385-a010-0aa440cb43f0)
  )
  (wire (pts (xy 160.02 66.04) (xy 157.48 66.04))
    (stroke (width 0) (type default) (color 0 0 0 0))
    (uuid fc6a6812-f72f-4670-9759-6d37067414c6)
  )
  (wire (pts (xy 124.46 68.58) (xy 124.46 71.12))
    (stroke (width 0) (type default) (color 0 0 0 0))
    (uuid feb58745-67aa-4431-9d9c-3e6f33f301c3)
  )
  (wire (pts (xy 99.06 76.2) (xy 96.52 76.2))
    (stroke (width 0) (type default) (color 0 0 0 0))
    (uuid ff9b329b-5cea-45a3-8642-e02931706fc3)
  )
  (wire (pts (xy 182.88 86.36) (xy 185.42 86.36))
    (stroke (width 0) (type default) (color 0 0 0 0))
    (uuid ffe10fb2-8400-4495-ae3b-0db4cc7c49ae)
  )

  (global_label "PG5+" (shape input) (at 93.98 114.3 180) (fields_autoplaced)
    (effects (font (size 1.27 1.27)) (justify right))
    (uuid 015d0d94-1edd-4685-b5dd-490d0b3cdff9)
    (property "Intersheet References" "${INTERSHEET_REFS}" (id 0) (at 86.245 114.2206 0)
      (effects (font (size 1.27 1.27)) (justify right) hide)
    )
  )
  (global_label "RY14+" (shape input) (at 154.94 121.92 180) (fields_autoplaced)
    (effects (font (size 1.27 1.27)) (justify right))
    (uuid 03d7cab9-10d5-4c76-868e-82ff7b261811)
    (property "Intersheet References" "${INTERSHEET_REFS}" (id 0) (at 146.1769 121.8406 0)
      (effects (font (size 1.27 1.27)) (justify right) hide)
    )
  )
  (global_label "PG11+" (shape input) (at 93.98 83.82 180) (fields_autoplaced)
    (effects (font (size 1.27 1.27)) (justify right))
    (uuid 05e67d17-a107-4493-8f76-a7168fb08558)
    (property "Intersheet References" "${INTERSHEET_REFS}" (id 0) (at 85.0355 83.7406 0)
      (effects (font (size 1.27 1.27)) (justify right) hide)
    )
  )
  (global_label "PG14-" (shape input) (at 187.96 124.46 0) (fields_autoplaced)
    (effects (font (size 1.27 1.27)) (justify left))
    (uuid 07ff2e9a-1b17-4485-8a26-e18e1920b350)
    (property "Intersheet References" "${INTERSHEET_REFS}" (id 0) (at 196.9045 124.3806 0)
      (effects (font (size 1.27 1.27)) (justify left) hide)
    )
  )
  (global_label "RY10-" (shape input) (at 187.96 101.6 0) (fields_autoplaced)
    (effects (font (size 1.27 1.27)) (justify left))
    (uuid 09a8de4b-11bd-4c60-8212-7dfa542a987e)
    (property "Intersheet References" "${INTERSHEET_REFS}" (id 0) (at 196.7231 101.5206 0)
      (effects (font (size 1.27 1.27)) (justify left) hide)
    )
  )
  (global_label "RY4-" (shape input) (at 187.96 71.12 0) (fields_autoplaced)
    (effects (font (size 1.27 1.27)) (justify left))
    (uuid 0bbd10d4-23ff-4914-aee9-ee65127a7204)
    (property "Intersheet References" "${INTERSHEET_REFS}" (id 0) (at 195.5136 71.0406 0)
      (effects (font (size 1.27 1.27)) (justify left) hide)
    )
  )
  (global_label "PG13+" (shape input) (at 93.98 73.66 180) (fields_autoplaced)
    (effects (font (size 1.27 1.27)) (justify right))
    (uuid 0d2598a7-bb4d-4fb8-a8a2-328a65b403dc)
    (property "Intersheet References" "${INTERSHEET_REFS}" (id 0) (at 85.0355 73.5806 0)
      (effects (font (size 1.27 1.27)) (justify right) hide)
    )
  )
  (global_label "RY1+" (shape input) (at 93.98 132.08 180) (fields_autoplaced)
    (effects (font (size 1.27 1.27)) (justify right))
    (uuid 10a0b369-9141-4c8d-bebf-e0e7bbaefd7e)
    (property "Intersheet References" "${INTERSHEET_REFS}" (id 0) (at 86.4264 132.0006 0)
      (effects (font (size 1.27 1.27)) (justify right) hide)
    )
  )
  (global_label "PG13-" (shape input) (at 127 73.66 0) (fields_autoplaced)
    (effects (font (size 1.27 1.27)) (justify left))
    (uuid 12adcdd6-67d6-497a-86f9-5627e3413f39)
    (property "Intersheet References" "${INTERSHEET_REFS}" (id 0) (at 135.9445 73.5806 0)
      (effects (font (size 1.27 1.27)) (justify left) hide)
    )
  )
  (global_label "PG3+" (shape input) (at 93.98 124.46 180) (fields_autoplaced)
    (effects (font (size 1.27 1.27)) (justify right))
    (uuid 13fcb649-13df-4043-8183-2561cabf2a63)
    (property "Intersheet References" "${INTERSHEET_REFS}" (id 0) (at 86.245 124.3806 0)
      (effects (font (size 1.27 1.27)) (justify right) hide)
    )
  )
  (global_label "RY13+" (shape input) (at 93.98 71.12 180) (fields_autoplaced)
    (effects (font (size 1.27 1.27)) (justify right))
    (uuid 16aacd3b-b93a-4686-be89-34d22bd6f348)
    (property "Intersheet References" "${INTERSHEET_REFS}" (id 0) (at 85.2169 71.0406 0)
      (effects (font (size 1.27 1.27)) (justify right) hide)
    )
  )
  (global_label "RY15+" (shape input) (at 93.98 60.96 180) (fields_autoplaced)
    (effects (font (size 1.27 1.27)) (justify right))
    (uuid 1e40232b-ef13-4d1b-bb34-9e58ba5e34b6)
    (property "Intersheet References" "${INTERSHEET_REFS}" (id 0) (at 85.2169 60.8806 0)
      (effects (font (size 1.27 1.27)) (justify right) hide)
    )
  )
  (global_label "PG5-" (shape input) (at 127 114.3 0) (fields_autoplaced)
    (effects (font (size 1.27 1.27)) (justify left))
    (uuid 1ebf52bb-51c9-4251-bfbe-c67d3ebf277d)
    (property "Intersheet References" "${INTERSHEET_REFS}" (id 0) (at 134.735 114.2206 0)
      (effects (font (size 1.27 1.27)) (justify left) hide)
    )
  )
  (global_label "RY7-" (shape input) (at 127 101.6 0) (fields_autoplaced)
    (effects (font (size 1.27 1.27)) (justify left))
    (uuid 230aca2e-6737-4dfd-993d-b4081570d690)
    (property "Intersheet References" "${INTERSHEET_REFS}" (id 0) (at 134.5536 101.5206 0)
      (effects (font (size 1.27 1.27)) (justify left) hide)
    )
  )
  (global_label "PG12+" (shape input) (at 154.94 114.3 180) (fields_autoplaced)
    (effects (font (size 1.27 1.27)) (justify right))
    (uuid 2cb128c5-0455-4325-a7ce-35413df90cd0)
    (property "Intersheet References" "${INTERSHEET_REFS}" (id 0) (at 145.9955 114.2206 0)
      (effects (font (size 1.27 1.27)) (justify right) hide)
    )
  )
  (global_label "RY14-" (shape input) (at 187.96 121.92 0) (fields_autoplaced)
    (effects (font (size 1.27 1.27)) (justify left))
    (uuid 2d7e1184-3888-467a-ba19-66209fd8a23a)
    (property "Intersheet References" "${INTERSHEET_REFS}" (id 0) (at 196.7231 121.8406 0)
      (effects (font (size 1.27 1.27)) (justify left) hide)
    )
  )
  (global_label "PG6-" (shape input) (at 187.96 83.82 0) (fields_autoplaced)
    (effects (font (size 1.27 1.27)) (justify left))
    (uuid 2eb5a971-ec73-4969-a450-9e52d8aa1f6c)
    (property "Intersheet References" "${INTERSHEET_REFS}" (id 0) (at 195.695 83.7406 0)
      (effects (font (size 1.27 1.27)) (justify left) hide)
    )
  )
  (global_label "PG9+" (shape input) (at 93.98 93.98 180) (fields_autoplaced)
    (effects (font (size 1.27 1.27)) (justify right))
    (uuid 32c11fcc-0a77-4a47-ac56-b86a56b2cb6f)
    (property "Intersheet References" "${INTERSHEET_REFS}" (id 0) (at 86.245 93.9006 0)
      (effects (font (size 1.27 1.27)) (justify right) hide)
    )
  )
  (global_label "PG2+" (shape input) (at 154.94 63.5 180) (fields_autoplaced)
    (effects (font (size 1.27 1.27)) (justify right))
    (uuid 331a22d0-d975-4c39-ab5e-61dc3c754678)
    (property "Intersheet References" "${INTERSHEET_REFS}" (id 0) (at 147.205 63.4206 0)
      (effects (font (size 1.27 1.27)) (justify right) hide)
    )
  )
  (global_label "PG16-" (shape input) (at 187.96 134.62 0) (fields_autoplaced)
    (effects (font (size 1.27 1.27)) (justify left))
    (uuid 3a889cde-3291-436b-815b-b74e6d394170)
    (property "Intersheet References" "${INTERSHEET_REFS}" (id 0) (at 196.9045 134.5406 0)
      (effects (font (size 1.27 1.27)) (justify left) hide)
    )
  )
  (global_label "PG12-" (shape input) (at 187.96 114.3 0) (fields_autoplaced)
    (effects (font (size 1.27 1.27)) (justify left))
    (uuid 3cc7e990-93d6-41f7-94d4-0eba250e47f7)
    (property "Intersheet References" "${INTERSHEET_REFS}" (id 0) (at 196.9045 114.2206 0)
      (effects (font (size 1.27 1.27)) (justify left) hide)
    )
  )
  (global_label "PG4+" (shape input) (at 154.94 73.66 180) (fields_autoplaced)
    (effects (font (size 1.27 1.27)) (justify right))
    (uuid 3d2a8705-40d5-4a1d-a160-d7647bc97b7e)
    (property "Intersheet References" "${INTERSHEET_REFS}" (id 0) (at 147.205 73.5806 0)
      (effects (font (size 1.27 1.27)) (justify right) hide)
    )
  )
  (global_label "RY6-" (shape input) (at 187.96 81.28 0) (fields_autoplaced)
    (effects (font (size 1.27 1.27)) (justify left))
    (uuid 3f5c93cf-78d4-4f9e-8350-f85d6ccb7e44)
    (property "Intersheet References" "${INTERSHEET_REFS}" (id 0) (at 195.5136 81.2006 0)
      (effects (font (size 1.27 1.27)) (justify left) hide)
    )
  )
  (global_label "RY5+" (shape input) (at 93.98 111.76 180) (fields_autoplaced)
    (effects (font (size 1.27 1.27)) (justify right))
    (uuid 42f0c85e-b71c-493c-8800-dccfb154756b)
    (property "Intersheet References" "${INTERSHEET_REFS}" (id 0) (at 86.4264 111.6806 0)
      (effects (font (size 1.27 1.27)) (justify right) hide)
    )
  )
  (global_label "RY8-" (shape input) (at 187.96 91.44 0) (fields_autoplaced)
    (effects (font (size 1.27 1.27)) (justify left))
    (uuid 4924264c-f9b8-4fe6-9ad3-2cfcd1706360)
    (property "Intersheet References" "${INTERSHEET_REFS}" (id 0) (at 195.5136 91.3606 0)
      (effects (font (size 1.27 1.27)) (justify left) hide)
    )
  )
  (global_label "PG7-" (shape input) (at 127 104.14 0) (fields_autoplaced)
    (effects (font (size 1.27 1.27)) (justify left))
    (uuid 4b5893ab-254a-408e-a775-ee4775099eb0)
    (property "Intersheet References" "${INTERSHEET_REFS}" (id 0) (at 134.735 104.0606 0)
      (effects (font (size 1.27 1.27)) (justify left) hide)
    )
  )
  (global_label "PG7+" (shape input) (at 93.98 104.14 180) (fields_autoplaced)
    (effects (font (size 1.27 1.27)) (justify right))
    (uuid 4e48d34b-c298-44da-9274-be0a33c9311c)
    (property "Intersheet References" "${INTERSHEET_REFS}" (id 0) (at 86.245 104.0606 0)
      (effects (font (size 1.27 1.27)) (justify right) hide)
    )
  )
  (global_label "RY3+" (shape input) (at 93.98 121.92 180) (fields_autoplaced)
    (effects (font (size 1.27 1.27)) (justify right))
    (uuid 4f80d87d-aa01-41c3-bb90-72a04e459656)
    (property "Intersheet References" "${INTERSHEET_REFS}" (id 0) (at 86.4264 121.8406 0)
      (effects (font (size 1.27 1.27)) (justify right) hide)
    )
  )
  (global_label "RY9+" (shape input) (at 93.98 91.44 180) (fields_autoplaced)
    (effects (font (size 1.27 1.27)) (justify right))
    (uuid 5247d984-7f9f-417f-8e7e-3a014e2c2aca)
    (property "Intersheet References" "${INTERSHEET_REFS}" (id 0) (at 86.4264 91.3606 0)
      (effects (font (size 1.27 1.27)) (justify right) hide)
    )
  )
  (global_label "RY2-" (shape input) (at 187.96 60.96 0) (fields_autoplaced)
    (effects (font (size 1.27 1.27)) (justify left))
    (uuid 54bc5290-9d3c-4aad-a52b-52431ad10f1b)
    (property "Intersheet References" "${INTERSHEET_REFS}" (id 0) (at 195.5136 60.8806 0)
      (effects (font (size 1.27 1.27)) (justify left) hide)
    )
  )
  (global_label "PG4-" (shape input) (at 187.96 73.66 0) (fields_autoplaced)
    (effects (font (size 1.27 1.27)) (justify left))
    (uuid 558cb1bb-9afc-4bb2-aa8c-5320dd7fb602)
    (property "Intersheet References" "${INTERSHEET_REFS}" (id 0) (at 195.695 73.5806 0)
      (effects (font (size 1.27 1.27)) (justify left) hide)
    )
  )
  (global_label "PG11-" (shape input) (at 127 83.82 0) (fields_autoplaced)
    (effects (font (size 1.27 1.27)) (justify left))
    (uuid 5cbfa38f-d609-41ad-b559-a9ff43d9b1e7)
    (property "Intersheet References" "${INTERSHEET_REFS}" (id 0) (at 135.9445 83.7406 0)
      (effects (font (size 1.27 1.27)) (justify left) hide)
    )
  )
  (global_label "PG16+" (shape input) (at 154.94 134.62 180) (fields_autoplaced)
    (effects (font (size 1.27 1.27)) (justify right))
    (uuid 5e0f9b9c-b021-4436-bad5-51cbcbb7bf6d)
    (property "Intersheet References" "${INTERSHEET_REFS}" (id 0) (at 145.9955 134.5406 0)
      (effects (font (size 1.27 1.27)) (justify right) hide)
    )
  )
  (global_label "RY12+" (shape input) (at 154.94 111.76 180) (fields_autoplaced)
    (effects (font (size 1.27 1.27)) (justify right))
    (uuid 61e1b904-8021-473d-a121-5b981dbe8bee)
    (property "Intersheet References" "${INTERSHEET_REFS}" (id 0) (at 146.1769 111.6806 0)
      (effects (font (size 1.27 1.27)) (justify right) hide)
    )
  )
  (global_label "PG9-" (shape input) (at 127 93.98 0) (fields_autoplaced)
    (effects (font (size 1.27 1.27)) (justify left))
    (uuid 64e581cd-f342-4b6e-b66c-b33c2b9550f7)
    (property "Intersheet References" "${INTERSHEET_REFS}" (id 0) (at 134.735 93.9006 0)
      (effects (font (size 1.27 1.27)) (justify left) hide)
    )
  )
  (global_label "RY2+" (shape input) (at 154.94 60.96 180) (fields_autoplaced)
    (effects (font (size 1.27 1.27)) (justify right))
    (uuid 65ca5973-f0ba-492d-ba0c-29098cd4af01)
    (property "Intersheet References" "${INTERSHEET_REFS}" (id 0) (at 147.3864 60.8806 0)
      (effects (font (size 1.27 1.27)) (justify right) hide)
    )
  )
  (global_label "RY13-" (shape input) (at 127 71.12 0) (fields_autoplaced)
    (effects (font (size 1.27 1.27)) (justify left))
    (uuid 6635b7dc-a6a4-476a-a944-afff774cfa06)
    (property "Intersheet References" "${INTERSHEET_REFS}" (id 0) (at 135.7631 71.0406 0)
      (effects (font (size 1.27 1.27)) (justify left) hide)
    )
  )
  (global_label "RY5-" (shape input) (at 127 111.76 0) (fields_autoplaced)
    (effects (font (size 1.27 1.27)) (justify left))
    (uuid 69588af4-8aff-4cee-965e-3c8b5a3b9b3f)
    (property "Intersheet References" "${INTERSHEET_REFS}" (id 0) (at 134.5536 111.6806 0)
      (effects (font (size 1.27 1.27)) (justify left) hide)
    )
  )
  (global_label "RY11-" (shape input) (at 127 81.28 0) (fields_autoplaced)
    (effects (font (size 1.27 1.27)) (justify left))
    (uuid 6ee41944-26a2-4032-8fa6-f8b5175c8c6a)
    (property "Intersheet References" "${INTERSHEET_REFS}" (id 0) (at 135.7631 81.2006 0)
      (effects (font (size 1.27 1.27)) (justify left) hide)
    )
  )
  (global_label "RY7+" (shape input) (at 93.98 101.6 180) (fields_autoplaced)
    (effects (font (size 1.27 1.27)) (justify right))
    (uuid 7148b525-24d2-4fd0-a5e9-08df9da79458)
    (property "Intersheet References" "${INTERSHEET_REFS}" (id 0) (at 86.4264 101.5206 0)
      (effects (font (size 1.27 1.27)) (justify right) hide)
    )
  )
  (global_label "RY3-" (shape input) (at 127 121.92 0) (fields_autoplaced)
    (effects (font (size 1.27 1.27)) (justify left))
    (uuid 7731ed79-70ac-4171-ad50-56d72fa1c645)
    (property "Intersheet References" "${INTERSHEET_REFS}" (id 0) (at 134.5536 121.8406 0)
      (effects (font (size 1.27 1.27)) (justify left) hide)
    )
  )
  (global_label "RY8+" (shape input) (at 154.94 91.44 180) (fields_autoplaced)
    (effects (font (size 1.27 1.27)) (justify right))
    (uuid 7ed6c2d6-8ca0-49fd-b163-e8728f903858)
    (property "Intersheet References" "${INTERSHEET_REFS}" (id 0) (at 147.3864 91.3606 0)
      (effects (font (size 1.27 1.27)) (justify right) hide)
    )
  )
  (global_label "RY16-" (shape input) (at 187.96 132.08 0) (fields_autoplaced)
    (effects (font (size 1.27 1.27)) (justify left))
    (uuid 8455e93e-0497-4a1b-98ad-a5ed8aa30439)
    (property "Intersheet References" "${INTERSHEET_REFS}" (id 0) (at 196.7231 132.0006 0)
      (effects (font (size 1.27 1.27)) (justify left) hide)
    )
  )
  (global_label "RY1-" (shape input) (at 127 132.08 0) (fields_autoplaced)
    (effects (font (size 1.27 1.27)) (justify left))
    (uuid 8e009414-6a51-4c24-b8d6-37257dcbe233)
    (property "Intersheet References" "${INTERSHEET_REFS}" (id 0) (at 134.5536 132.0006 0)
      (effects (font (size 1.27 1.27)) (justify left) hide)
    )
  )
  (global_label "RY4+" (shape input) (at 154.94 71.12 180) (fields_autoplaced)
    (effects (font (size 1.27 1.27)) (justify right))
    (uuid 8f3da1ee-7c68-4b49-84b7-4186c964072f)
    (property "Intersheet References" "${INTERSHEET_REFS}" (id 0) (at 147.3864 71.0406 0)
      (effects (font (size 1.27 1.27)) (justify right) hide)
    )
  )
  (global_label "PG8+" (shape input) (at 154.94 93.98 180) (fields_autoplaced)
    (effects (font (size 1.27 1.27)) (justify right))
    (uuid 92cb044d-0d05-4bb8-9560-1ba1b1cb2197)
    (property "Intersheet References" "${INTERSHEET_REFS}" (id 0) (at 147.205 93.9006 0)
      (effects (font (size 1.27 1.27)) (justify right) hide)
    )
  )
  (global_label "PG14+" (shape input) (at 154.94 124.46 180) (fields_autoplaced)
    (effects (font (size 1.27 1.27)) (justify right))
    (uuid 96ba7967-84cb-47d8-80c9-45ed72b9afdf)
    (property "Intersheet References" "${INTERSHEET_REFS}" (id 0) (at 145.9955 124.3806 0)
      (effects (font (size 1.27 1.27)) (justify right) hide)
    )
  )
  (global_label "PG15-" (shape input) (at 127 63.5 0) (fields_autoplaced)
    (effects (font (size 1.27 1.27)) (justify left))
    (uuid 9d3f7c3f-c4b2-43b1-8fb7-fd313631fa51)
    (property "Intersheet References" "${INTERSHEET_REFS}" (id 0) (at 135.9445 63.4206 0)
      (effects (font (size 1.27 1.27)) (justify left) hide)
    )
  )
  (global_label "RY6+" (shape input) (at 154.94 81.28 180) (fields_autoplaced)
    (effects (font (size 1.27 1.27)) (justify right))
    (uuid a1657024-68b8-4a25-8e9d-09435443ee69)
    (property "Intersheet References" "${INTERSHEET_REFS}" (id 0) (at 147.3864 81.2006 0)
      (effects (font (size 1.27 1.27)) (justify right) hide)
    )
  )
  (global_label "RY9-" (shape input) (at 127 91.44 0) (fields_autoplaced)
    (effects (font (size 1.27 1.27)) (justify left))
    (uuid a873631d-6fb8-495a-8fde-b6ba4ee57fe9)
    (property "Intersheet References" "${INTERSHEET_REFS}" (id 0) (at 134.5536 91.3606 0)
      (effects (font (size 1.27 1.27)) (justify left) hide)
    )
  )
  (global_label "RY16+" (shape input) (at 154.94 132.08 180) (fields_autoplaced)
    (effects (font (size 1.27 1.27)) (justify right))
    (uuid abef84d4-8437-4b3f-b090-1ae6f52a64e3)
    (property "Intersheet References" "${INTERSHEET_REFS}" (id 0) (at 146.1769 132.0006 0)
      (effects (font (size 1.27 1.27)) (justify right) hide)
    )
  )
  (global_label "PG10-" (shape input) (at 187.96 104.14 0) (fields_autoplaced)
    (effects (font (size 1.27 1.27)) (justify left))
    (uuid bd436c77-da74-479f-a1e7-ec781736492a)
    (property "Intersheet References" "${INTERSHEET_REFS}" (id 0) (at 196.9045 104.0606 0)
      (effects (font (size 1.27 1.27)) (justify left) hide)
    )
  )
  (global_label "PG8-" (shape input) (at 187.96 93.98 0) (fields_autoplaced)
    (effects (font (size 1.27 1.27)) (justify left))
    (uuid bfeca3c0-b792-4fdc-921b-448fbf0066d6)
    (property "Intersheet References" "${INTERSHEET_REFS}" (id 0) (at 195.695 93.9006 0)
      (effects (font (size 1.27 1.27)) (justify left) hide)
    )
  )
  (global_label "PG2-" (shape input) (at 187.96 63.5 0) (fields_autoplaced)
    (effects (font (size 1.27 1.27)) (justify left))
    (uuid c1536655-9eaa-4ff0-8eb9-fc8ac393e72e)
    (property "Intersheet References" "${INTERSHEET_REFS}" (id 0) (at 195.695 63.4206 0)
      (effects (font (size 1.27 1.27)) (justify left) hide)
    )
  )
  (global_label "RY15-" (shape input) (at 127 60.96 0) (fields_autoplaced)
    (effects (font (size 1.27 1.27)) (justify left))
    (uuid c981e8fc-c1c6-4626-895f-d7ba18f4a276)
    (property "Intersheet References" "${INTERSHEET_REFS}" (id 0) (at 135.7631 60.8806 0)
      (effects (font (size 1.27 1.27)) (justify left) hide)
    )
  )
  (global_label "PG3-" (shape input) (at 127 124.46 0) (fields_autoplaced)
    (effects (font (size 1.27 1.27)) (justify left))
    (uuid cdf6a71c-d90e-44e7-839f-b5c1f476a43f)
    (property "Intersheet References" "${INTERSHEET_REFS}" (id 0) (at 134.735 124.3806 0)
      (effects (font (size 1.27 1.27)) (justify left) hide)
    )
  )
  (global_label "PG1-" (shape input) (at 127 134.62 0) (fields_autoplaced)
    (effects (font (size 1.27 1.27)) (justify left))
    (uuid d13af2d2-9496-4fa2-b070-6d864cd24d55)
    (property "Intersheet References" "${INTERSHEET_REFS}" (id 0) (at 134.735 134.5406 0)
      (effects (font (size 1.27 1.27)) (justify left) hide)
    )
  )
  (global_label "PG15+" (shape input) (at 93.98 63.5 180) (fields_autoplaced)
    (effects (font (size 1.27 1.27)) (justify right))
    (uuid db187efd-f13c-4eec-9933-b000b336ca29)
    (property "Intersheet References" "${INTERSHEET_REFS}" (id 0) (at 85.0355 63.4206 0)
      (effects (font (size 1.27 1.27)) (justify right) hide)
    )
  )
  (global_label "RY12-" (shape input) (at 187.96 111.76 0) (fields_autoplaced)
    (effects (font (size 1.27 1.27)) (justify left))
    (uuid dd036acd-7e6a-4f02-b188-05054236029f)
    (property "Intersheet References" "${INTERSHEET_REFS}" (id 0) (at 196.7231 111.6806 0)
      (effects (font (size 1.27 1.27)) (justify left) hide)
    )
  )
  (global_label "RY11+" (shape input) (at 93.98 81.28 180) (fields_autoplaced)
    (effects (font (size 1.27 1.27)) (justify right))
    (uuid e1641b0c-e326-4043-9ea6-e2f33a313afb)
    (property "Intersheet References" "${INTERSHEET_REFS}" (id 0) (at 85.2169 81.2006 0)
      (effects (font (size 1.27 1.27)) (justify right) hide)
    )
  )
  (global_label "PG1+" (shape input) (at 93.98 134.62 180) (fields_autoplaced)
    (effects (font (size 1.27 1.27)) (justify right))
    (uuid e6afcdd3-ddae-4a78-909e-bd793b740929)
    (property "Intersheet References" "${INTERSHEET_REFS}" (id 0) (at 86.245 134.5406 0)
      (effects (font (size 1.27 1.27)) (justify right) hide)
    )
  )
  (global_label "PG6+" (shape input) (at 154.94 83.82 180) (fields_autoplaced)
    (effects (font (size 1.27 1.27)) (justify right))
    (uuid edf6ad10-cc82-43d1-bc0a-205510d82ef2)
    (property "Intersheet References" "${INTERSHEET_REFS}" (id 0) (at 147.205 83.7406 0)
      (effects (font (size 1.27 1.27)) (justify right) hide)
    )
  )
  (global_label "PG10+" (shape input) (at 154.94 104.14 180) (fields_autoplaced)
    (effects (font (size 1.27 1.27)) (justify right))
    (uuid f2b6e32b-edf2-4804-861b-99e72f72470c)
    (property "Intersheet References" "${INTERSHEET_REFS}" (id 0) (at 145.9955 104.0606 0)
      (effects (font (size 1.27 1.27)) (justify right) hide)
    )
  )
  (global_label "RY10+" (shape input) (at 154.94 101.6 180) (fields_autoplaced)
    (effects (font (size 1.27 1.27)) (justify right))
    (uuid fa9aa5e4-b61f-4a04-b576-5b06f9fd3c52)
    (property "Intersheet References" "${INTERSHEET_REFS}" (id 0) (at 146.1769 101.5206 0)
      (effects (font (size 1.27 1.27)) (justify right) hide)
    )
  )

  (symbol (lib_id "SamacSys_Parts:RJE398880400") (at 99.06 55.88 0) (unit 1)
    (in_bom yes) (on_board yes) (fields_autoplaced)
    (uuid 9000443d-241b-4fa4-8f82-e9e0715c5085)
    (property "Reference" "J1101" (id 0) (at 110.49 49.4243 0))
    (property "Value" "RJE398880400" (id 1) (at 110.49 52.1994 0))
    (property "Footprint" "SamacSys_Parts:RJE398880400" (id 2) (at 118.11 53.34 0)
      (effects (font (size 1.27 1.27)) (justify left) hide)
    )
    (property "Datasheet" "" (id 3) (at 118.11 55.88 0)
      (effects (font (size 1.27 1.27)) (justify left) hide)
    )
    (property "Description" "Modular Connectors / Ethernet Connectors RA Eight Port No shiield, no LED\\'s" (id 4) (at 118.11 58.42 0)
      (effects (font (size 1.27 1.27)) (justify left) hide)
    )
    (property "Height" "12.9" (id 5) (at 118.11 60.96 0)
      (effects (font (size 1.27 1.27)) (justify left) hide)
    )
    (property "Mouser Part Number" "523-RJE398880400" (id 6) (at 118.11 63.5 0)
      (effects (font (size 1.27 1.27)) (justify left) hide)
    )
    (property "Mouser Price/Stock" "https://www.mouser.co.uk/ProductDetail/Amphenol-Commercial-Products/RJE398880400?qs=vLWxofP3U2wjdwWQ78xhUg%3D%3D" (id 7) (at 118.11 66.04 0)
      (effects (font (size 1.27 1.27)) (justify left) hide)
    )
    (property "Manufacturer_Name" "Amphenol" (id 8) (at 118.11 68.58 0)
      (effects (font (size 1.27 1.27)) (justify left) hide)
    )
    (property "Manufacturer_Part_Number" "RJE398880400" (id 9) (at 118.11 71.12 0)
      (effects (font (size 1.27 1.27)) (justify left) hide)
    )
    (pin "1" (uuid ede5d79d-0451-4f58-b039-9ef4cdb8c75d))
    (pin "10" (uuid dedb78f3-96a0-4bb7-9236-f08922ce2b21))
    (pin "11" (uuid 72e14a2c-2d0c-49ac-b87a-5b53e59ba22b))
    (pin "12" (uuid ad4ec1e2-340d-4188-9f58-126e8934cf24))
    (pin "13" (uuid e6cf9cb6-9e42-4403-8f93-a566a497c1c3))
    (pin "14" (uuid 0d6dcb20-f37c-41b7-b419-3ed1f420a455))
    (pin "15" (uuid 7cdecdbb-e78f-4a0d-92d7-fc8364a72d8a))
    (pin "16" (uuid 231109e9-cba9-4863-bbb1-87ce924d4a20))
    (pin "17" (uuid 6787997d-cac1-40a5-b5b7-a248545876a6))
    (pin "18" (uuid 88682a4f-e1c3-48c8-886f-0d0cc2b4cb01))
    (pin "19" (uuid 684a5de3-a519-44ea-bebe-5a3b8e01f198))
    (pin "2" (uuid 94d4f7a0-401c-45dd-8381-f69a5c1636e2))
    (pin "20" (uuid 25dda71c-2a69-4524-8f0a-227178fc174f))
    (pin "21" (uuid 583a1bb3-256e-445e-b973-7c511cc4f84d))
    (pin "22" (uuid b5d4dfb6-656e-4199-9bda-c59d7e97469e))
    (pin "23" (uuid 69709e76-0c31-4157-8b05-803ffbc19771))
    (pin "24" (uuid 16e7eae1-4aa8-49ad-a050-42f776321864))
    (pin "25" (uuid a26c7990-d45f-41cf-96fc-3f467fa4fb72))
    (pin "26" (uuid ee567585-ddb7-4c4a-a692-94261f4c4bce))
    (pin "27" (uuid 47957a49-780a-4ad3-b93b-120dab3c7819))
    (pin "28" (uuid baf8a7a5-5ced-44ff-9532-8c7b42db4e7e))
    (pin "29" (uuid 1d6119f2-44bf-40a9-8eca-1e6c7ecc0700))
    (pin "3" (uuid 570a290c-b3ff-49c5-b445-a0253a3acaa5))
    (pin "30" (uuid 0acacbe9-c251-4c47-bb46-c1e2da64e69f))
    (pin "31" (uuid 57cea1b4-7c83-4b23-8d4b-8fab9fe5fe14))
    (pin "32" (uuid b76da274-81ad-4b95-b30e-973d4d48e939))
    (pin "33" (uuid 67b901fe-0af3-4e03-aafe-cf4f1dd4fba3))
    (pin "34" (uuid 14db7f6c-c284-4f6a-af8f-4528074c17c0))
    (pin "35" (uuid d5820eca-1dca-4a2e-b084-045bb26b1395))
    (pin "36" (uuid fee56705-a755-4dc5-afa1-d277c4dd8748))
    (pin "37" (uuid f3ec02c7-3a1e-4148-9309-50bf010ce3f4))
    (pin "38" (uuid f46d0dd8-a176-494d-ac39-7fce20a26781))
    (pin "39" (uuid 5ffd7259-a59f-49d1-8f28-a3776bb3a3ed))
    (pin "4" (uuid 0f654ff2-4d80-41be-a050-5862ecf348b6))
    (pin "40" (uuid 186d5985-01b8-4441-b826-59712c03da10))
    (pin "41" (uuid ace90251-51e3-4007-b85a-c8e5ebcac299))
    (pin "42" (uuid 72c31dc3-f808-47b0-af85-ff82ce88630f))
    (pin "43" (uuid 628ce136-c60f-4f6b-a1b9-780af9cab8b6))
    (pin "44" (uuid d3806c3a-9a93-4a8a-acaa-82093e2e9038))
    (pin "45" (uuid d280f46e-3da7-4315-9dbf-2c81597e1017))
    (pin "46" (uuid 780d056e-1489-4453-996c-f32adfe96520))
    (pin "47" (uuid 48c50149-6459-40b1-adf4-39d288a8925c))
    (pin "48" (uuid e3fd11c9-1fda-47f7-8630-32292a9e55ea))
    (pin "49" (uuid 2ac95c9e-7f2e-404a-b029-c2f61a5b83cd))
    (pin "5" (uuid f431f7eb-12a8-41d6-bf25-e4c693392fab))
    (pin "50" (uuid 7db65a31-4e52-4c88-b75a-74e955510e3f))
    (pin "51" (uuid 9a1949c9-461d-4b2b-8420-a741226e4ba8))
    (pin "52" (uuid cb1ef16d-df6b-4893-8902-e48ac40eb1be))
    (pin "53" (uuid 27de7235-f784-4343-966b-47a6d2dde0d9))
    (pin "54" (uuid 2a6aa3fc-64b5-4796-8517-5985723eb4d6))
    (pin "55" (uuid 91c0f49e-2da6-497a-b4c0-004f9480d5b1))
    (pin "56" (uuid 2a21f161-c3f6-4461-a3cc-45fb053261c5))
    (pin "57" (uuid a516385a-b8c5-4716-8407-eb8c7c3767e3))
    (pin "58" (uuid 043a3b7e-aa5c-4415-88c8-772a9d3223b7))
    (pin "59" (uuid ede74b34-4731-4e5e-89f4-57ebc63e2132))
    (pin "6" (uuid 1e4b633a-1e18-472b-b95a-3c8b9a6871c1))
    (pin "60" (uuid 1ccb40e7-ed9e-4242-b3da-4d8f9822b568))
    (pin "61" (uuid f8851a13-c729-400d-95ea-0339271d1ce1))
    (pin "62" (uuid 8956d0d0-3bfc-4316-b733-49f13855608d))
    (pin "63" (uuid 59aa8722-8e4c-46a3-93fc-b59f59e75579))
    (pin "64" (uuid 2cd2711b-52a5-449f-a580-0a95cc2f18b3))
    (pin "7" (uuid 282da0ef-8a36-4584-9887-306ebfaf4d1f))
    (pin "8" (uuid cb7410df-103b-4a32-b923-dcc541d8c075))
    (pin "9" (uuid faa76306-d416-4116-a8be-218683f07d99))
  )

  (symbol (lib_id "SamacSys_Parts:RJE398880400") (at 160.02 55.88 0) (unit 1)
    (in_bom yes) (on_board yes) (fields_autoplaced)
    (uuid df2bd5ca-a7ad-4bb3-8974-866fae5a04a5)
    (property "Reference" "J1102" (id 0) (at 171.45 49.4243 0))
    (property "Value" "RJE398880400" (id 1) (at 171.45 52.1994 0))
    (property "Footprint" "SamacSys_Parts:RJE398880400" (id 2) (at 179.07 53.34 0)
      (effects (font (size 1.27 1.27)) (justify left) hide)
    )
    (property "Datasheet" "" (id 3) (at 179.07 55.88 0)
      (effects (font (size 1.27 1.27)) (justify left) hide)
    )
    (property "Description" "Modular Connectors / Ethernet Connectors RA Eight Port No shiield, no LED\\'s" (id 4) (at 179.07 58.42 0)
      (effects (font (size 1.27 1.27)) (justify left) hide)
    )
    (property "Height" "12.9" (id 5) (at 179.07 60.96 0)
      (effects (font (size 1.27 1.27)) (justify left) hide)
    )
    (property "Mouser Part Number" "523-RJE398880400" (id 6) (at 179.07 63.5 0)
      (effects (font (size 1.27 1.27)) (justify left) hide)
    )
    (property "Mouser Price/Stock" "https://www.mouser.co.uk/ProductDetail/Amphenol-Commercial-Products/RJE398880400?qs=vLWxofP3U2wjdwWQ78xhUg%3D%3D" (id 7) (at 179.07 66.04 0)
      (effects (font (size 1.27 1.27)) (justify left) hide)
    )
    (property "Manufacturer_Name" "Amphenol" (id 8) (at 179.07 68.58 0)
      (effects (font (size 1.27 1.27)) (justify left) hide)
    )
    (property "Manufacturer_Part_Number" "RJE398880400" (id 9) (at 179.07 71.12 0)
      (effects (font (size 1.27 1.27)) (justify left) hide)
    )
    (pin "1" (uuid 3e312ab9-4b25-4f40-93fc-50661d3fad9b))
    (pin "10" (uuid 768f1652-2d9c-4f63-8940-4c9b00512f40))
    (pin "11" (uuid 5816000e-50bd-4412-bc9b-3cdab9c89bbd))
    (pin "12" (uuid 21f8a4e5-26fc-4e51-98d6-3a856d785cb3))
    (pin "13" (uuid a2e14b2e-d1e4-4891-a31d-92693c853b16))
    (pin "14" (uuid 9f059396-e534-4686-a6e8-c3dd820afe0e))
    (pin "15" (uuid 62647cab-b42f-40b0-acb4-79508a859054))
    (pin "16" (uuid c962f8f4-b90d-4854-aeaf-56eb9afeb6a9))
    (pin "17" (uuid 89030bec-8474-49b3-8e58-8a965f8c6b1f))
    (pin "18" (uuid bffea12d-8de1-490a-ba26-1f56aa432c9e))
    (pin "19" (uuid 2cfda79f-4ec9-491d-91c4-b87a2eef2252))
    (pin "2" (uuid 1175b6d3-e9c9-4476-b4f3-4fbb5182e973))
    (pin "20" (uuid d234ec39-d698-41ad-a8ca-6a3497922047))
    (pin "21" (uuid 93b30400-cb12-4e00-8822-0f8889603019))
    (pin "22" (uuid 8f435151-c909-4cdf-a7f9-67c1f7b1e16c))
    (pin "23" (uuid fb635d95-7100-4c05-a33e-7d995a9dd129))
    (pin "24" (uuid d8157c76-0e33-4f01-9eac-87eca9e8e38f))
    (pin "25" (uuid 832ce300-5dca-4ac6-8418-9701d8b58306))
    (pin "26" (uuid 7584b969-db68-44f4-aab5-2fbaee1a1660))
    (pin "27" (uuid b6c336de-db36-4ae6-8b03-7db7c25090f4))
    (pin "28" (uuid fccc01e5-d61a-43ef-b8e2-3dbb39fe3b65))
    (pin "29" (uuid e1111840-5e3d-4b2d-88f6-7ddafb7bbc3f))
    (pin "3" (uuid 96a0c3ce-30fc-49e2-ba2d-b54b4792be23))
    (pin "30" (uuid 8ad00392-69a9-40d0-b325-4b4be8926d66))
    (pin "31" (uuid 1842d85e-5c8d-42a8-bb76-7d36d580e11a))
    (pin "32" (uuid a9d93963-7f14-41e3-89d4-12ab584928c4))
    (pin "33" (uuid 0598b429-c2dc-45b8-ba48-b9d7205cca77))
    (pin "34" (uuid 982032fa-2d49-4217-b371-80a381f13c3e))
    (pin "35" (uuid dd4bb877-6b4b-4af5-a8e7-ae7aba31e742))
    (pin "36" (uuid 0cabefd3-31a0-43bb-8ee3-d8e0232fc866))
    (pin "37" (uuid 54eb1513-3bc6-4c40-bca5-0650430edb77))
    (pin "38" (uuid c20e9996-fd42-4554-89c0-cbf14af59c98))
    (pin "39" (uuid db893f80-0c09-45eb-be72-7fa34cc1732c))
    (pin "4" (uuid d08f973c-9edf-4dfa-92ea-6629e7e14052))
    (pin "40" (uuid eb41711f-dc89-42fb-aa4d-e042a1dcccb5))
    (pin "41" (uuid fe7e73ec-469b-458d-94f2-97100c584c6e))
    (pin "42" (uuid 2fc68732-2538-449d-8d6f-13f332fb4992))
    (pin "43" (uuid 4fadd05f-c037-4083-916b-b60486ee86e3))
    (pin "44" (uuid 7ac3d03f-99c9-4159-a354-190b9e404b31))
    (pin "45" (uuid 538f8222-ee7f-4679-a36d-3784d7237295))
    (pin "46" (uuid 48462e33-71f0-4a5b-b16f-9edc06b58e1b))
    (pin "47" (uuid 39549b81-c677-4a21-9a96-d34cf2636099))
    (pin "48" (uuid 0295a99f-27f3-4bad-854e-dec07a78d207))
    (pin "49" (uuid 6ec26d22-a14d-46c8-94b8-f07e6de95fa0))
    (pin "5" (uuid 25165c40-f1cb-4a81-ad74-6bea9e79eda2))
    (pin "50" (uuid 7ba6aa30-09b4-424f-af16-d1934ab577e4))
    (pin "51" (uuid 50b053ff-82d5-4478-aa02-889e2343ef3d))
    (pin "52" (uuid d53da219-a2d3-4861-8a05-7491d4587470))
    (pin "53" (uuid 26caae0d-6706-49b9-894b-77576d38c96f))
    (pin "54" (uuid 684b832e-2326-44be-8720-c9ea6330fe71))
    (pin "55" (uuid 04d301b1-bd10-4690-9d85-05ad1eed078c))
    (pin "56" (uuid 13f6cd7c-39f5-4e6e-9406-dfd0a6ba128a))
    (pin "57" (uuid c806eb65-978c-4e91-8aef-0dc7db846b93))
    (pin "58" (uuid 4a28e7ca-bc8d-4804-85dc-f3b8fe4b0d82))
    (pin "59" (uuid afd6ef85-51b5-48ec-8a9f-96c46da4fa80))
    (pin "6" (uuid 686e4c73-533b-4c1b-9946-f6a4d1d13d25))
    (pin "60" (uuid 5347ace5-81d7-4d92-bf85-52d0e259799d))
    (pin "61" (uuid e3b7f339-eb91-410f-8a0a-b3d110988d30))
    (pin "62" (uuid b016e9dd-66f7-46a8-8f37-f0b469c6bb8d))
    (pin "63" (uuid 75d2ef36-be07-4763-814d-858a62af98a6))
    (pin "64" (uuid 26fbf0e3-4d63-4197-afdb-e1fa430e0e17))
    (pin "7" (uuid b38c1a56-7a7d-4f88-845b-f0f47d2bb610))
    (pin "8" (uuid 3d5949ff-ad1b-4996-a32e-a1247928aa83))
    (pin "9" (uuid b2cd2442-e30f-4693-91d5-181aab8719c5))
  )
)
