(kicad_sch (version 20211123) (generator eeschema)

  (uuid f2db379e-56b2-45e0-83c7-bf4f9bce2ffa)

  (paper "A4")

  (title_block
    (title "DAC-DR-MB")
    (date "2024-03-06")
    (rev "1.3")
    (company "T5! DIY Audio")
    (comment 1 "The Mother of Boards")
  )

  (lib_symbols
    (symbol "Connector_Generic:Conn_02x20_Odd_Even" (pin_names (offset 1.016) hide) (in_bom yes) (on_board yes)
      (property "Reference" "J" (id 0) (at 1.27 25.4 0)
        (effects (font (size 1.27 1.27)))
      )
      (property "Value" "Conn_02x20_Odd_Even" (id 1) (at 1.27 -27.94 0)
        (effects (font (size 1.27 1.27)))
      )
      (property "Footprint" "" (id 2) (at 0 0 0)
        (effects (font (size 1.27 1.27)) hide)
      )
      (property "Datasheet" "~" (id 3) (at 0 0 0)
        (effects (font (size 1.27 1.27)) hide)
      )
      (property "ki_keywords" "connector" (id 4) (at 0 0 0)
        (effects (font (size 1.27 1.27)) hide)
      )
      (property "ki_description" "Generic connector, double row, 02x20, odd/even pin numbering scheme (row 1 odd numbers, row 2 even numbers), script generated (kicad-library-utils/schlib/autogen/connector/)" (id 5) (at 0 0 0)
        (effects (font (size 1.27 1.27)) hide)
      )
      (property "ki_fp_filters" "Connector*:*_2x??_*" (id 6) (at 0 0 0)
        (effects (font (size 1.27 1.27)) hide)
      )
      (symbol "Conn_02x20_Odd_Even_1_1"
        (rectangle (start -1.27 -25.273) (end 0 -25.527)
          (stroke (width 0.1524) (type default) (color 0 0 0 0))
          (fill (type none))
        )
        (rectangle (start -1.27 -22.733) (end 0 -22.987)
          (stroke (width 0.1524) (type default) (color 0 0 0 0))
          (fill (type none))
        )
        (rectangle (start -1.27 -20.193) (end 0 -20.447)
          (stroke (width 0.1524) (type default) (color 0 0 0 0))
          (fill (type none))
        )
        (rectangle (start -1.27 -17.653) (end 0 -17.907)
          (stroke (width 0.1524) (type default) (color 0 0 0 0))
          (fill (type none))
        )
        (rectangle (start -1.27 -15.113) (end 0 -15.367)
          (stroke (width 0.1524) (type default) (color 0 0 0 0))
          (fill (type none))
        )
        (rectangle (start -1.27 -12.573) (end 0 -12.827)
          (stroke (width 0.1524) (type default) (color 0 0 0 0))
          (fill (type none))
        )
        (rectangle (start -1.27 -10.033) (end 0 -10.287)
          (stroke (width 0.1524) (type default) (color 0 0 0 0))
          (fill (type none))
        )
        (rectangle (start -1.27 -7.493) (end 0 -7.747)
          (stroke (width 0.1524) (type default) (color 0 0 0 0))
          (fill (type none))
        )
        (rectangle (start -1.27 -4.953) (end 0 -5.207)
          (stroke (width 0.1524) (type default) (color 0 0 0 0))
          (fill (type none))
        )
        (rectangle (start -1.27 -2.413) (end 0 -2.667)
          (stroke (width 0.1524) (type default) (color 0 0 0 0))
          (fill (type none))
        )
        (rectangle (start -1.27 0.127) (end 0 -0.127)
          (stroke (width 0.1524) (type default) (color 0 0 0 0))
          (fill (type none))
        )
        (rectangle (start -1.27 2.667) (end 0 2.413)
          (stroke (width 0.1524) (type default) (color 0 0 0 0))
          (fill (type none))
        )
        (rectangle (start -1.27 5.207) (end 0 4.953)
          (stroke (width 0.1524) (type default) (color 0 0 0 0))
          (fill (type none))
        )
        (rectangle (start -1.27 7.747) (end 0 7.493)
          (stroke (width 0.1524) (type default) (color 0 0 0 0))
          (fill (type none))
        )
        (rectangle (start -1.27 10.287) (end 0 10.033)
          (stroke (width 0.1524) (type default) (color 0 0 0 0))
          (fill (type none))
        )
        (rectangle (start -1.27 12.827) (end 0 12.573)
          (stroke (width 0.1524) (type default) (color 0 0 0 0))
          (fill (type none))
        )
        (rectangle (start -1.27 15.367) (end 0 15.113)
          (stroke (width 0.1524) (type default) (color 0 0 0 0))
          (fill (type none))
        )
        (rectangle (start -1.27 17.907) (end 0 17.653)
          (stroke (width 0.1524) (type default) (color 0 0 0 0))
          (fill (type none))
        )
        (rectangle (start -1.27 20.447) (end 0 20.193)
          (stroke (width 0.1524) (type default) (color 0 0 0 0))
          (fill (type none))
        )
        (rectangle (start -1.27 22.987) (end 0 22.733)
          (stroke (width 0.1524) (type default) (color 0 0 0 0))
          (fill (type none))
        )
        (rectangle (start -1.27 24.13) (end 3.81 -26.67)
          (stroke (width 0.254) (type default) (color 0 0 0 0))
          (fill (type background))
        )
        (rectangle (start 3.81 -25.273) (end 2.54 -25.527)
          (stroke (width 0.1524) (type default) (color 0 0 0 0))
          (fill (type none))
        )
        (rectangle (start 3.81 -22.733) (end 2.54 -22.987)
          (stroke (width 0.1524) (type default) (color 0 0 0 0))
          (fill (type none))
        )
        (rectangle (start 3.81 -20.193) (end 2.54 -20.447)
          (stroke (width 0.1524) (type default) (color 0 0 0 0))
          (fill (type none))
        )
        (rectangle (start 3.81 -17.653) (end 2.54 -17.907)
          (stroke (width 0.1524) (type default) (color 0 0 0 0))
          (fill (type none))
        )
        (rectangle (start 3.81 -15.113) (end 2.54 -15.367)
          (stroke (width 0.1524) (type default) (color 0 0 0 0))
          (fill (type none))
        )
        (rectangle (start 3.81 -12.573) (end 2.54 -12.827)
          (stroke (width 0.1524) (type default) (color 0 0 0 0))
          (fill (type none))
        )
        (rectangle (start 3.81 -10.033) (end 2.54 -10.287)
          (stroke (width 0.1524) (type default) (color 0 0 0 0))
          (fill (type none))
        )
        (rectangle (start 3.81 -7.493) (end 2.54 -7.747)
          (stroke (width 0.1524) (type default) (color 0 0 0 0))
          (fill (type none))
        )
        (rectangle (start 3.81 -4.953) (end 2.54 -5.207)
          (stroke (width 0.1524) (type default) (color 0 0 0 0))
          (fill (type none))
        )
        (rectangle (start 3.81 -2.413) (end 2.54 -2.667)
          (stroke (width 0.1524) (type default) (color 0 0 0 0))
          (fill (type none))
        )
        (rectangle (start 3.81 0.127) (end 2.54 -0.127)
          (stroke (width 0.1524) (type default) (color 0 0 0 0))
          (fill (type none))
        )
        (rectangle (start 3.81 2.667) (end 2.54 2.413)
          (stroke (width 0.1524) (type default) (color 0 0 0 0))
          (fill (type none))
        )
        (rectangle (start 3.81 5.207) (end 2.54 4.953)
          (stroke (width 0.1524) (type default) (color 0 0 0 0))
          (fill (type none))
        )
        (rectangle (start 3.81 7.747) (end 2.54 7.493)
          (stroke (width 0.1524) (type default) (color 0 0 0 0))
          (fill (type none))
        )
        (rectangle (start 3.81 10.287) (end 2.54 10.033)
          (stroke (width 0.1524) (type default) (color 0 0 0 0))
          (fill (type none))
        )
        (rectangle (start 3.81 12.827) (end 2.54 12.573)
          (stroke (width 0.1524) (type default) (color 0 0 0 0))
          (fill (type none))
        )
        (rectangle (start 3.81 15.367) (end 2.54 15.113)
          (stroke (width 0.1524) (type default) (color 0 0 0 0))
          (fill (type none))
        )
        (rectangle (start 3.81 17.907) (end 2.54 17.653)
          (stroke (width 0.1524) (type default) (color 0 0 0 0))
          (fill (type none))
        )
        (rectangle (start 3.81 20.447) (end 2.54 20.193)
          (stroke (width 0.1524) (type default) (color 0 0 0 0))
          (fill (type none))
        )
        (rectangle (start 3.81 22.987) (end 2.54 22.733)
          (stroke (width 0.1524) (type default) (color 0 0 0 0))
          (fill (type none))
        )
        (pin passive line (at -5.08 22.86 0) (length 3.81)
          (name "Pin_1" (effects (font (size 1.27 1.27))))
          (number "1" (effects (font (size 1.27 1.27))))
        )
        (pin passive line (at 7.62 12.7 180) (length 3.81)
          (name "Pin_10" (effects (font (size 1.27 1.27))))
          (number "10" (effects (font (size 1.27 1.27))))
        )
        (pin passive line (at -5.08 10.16 0) (length 3.81)
          (name "Pin_11" (effects (font (size 1.27 1.27))))
          (number "11" (effects (font (size 1.27 1.27))))
        )
        (pin passive line (at 7.62 10.16 180) (length 3.81)
          (name "Pin_12" (effects (font (size 1.27 1.27))))
          (number "12" (effects (font (size 1.27 1.27))))
        )
        (pin passive line (at -5.08 7.62 0) (length 3.81)
          (name "Pin_13" (effects (font (size 1.27 1.27))))
          (number "13" (effects (font (size 1.27 1.27))))
        )
        (pin passive line (at 7.62 7.62 180) (length 3.81)
          (name "Pin_14" (effects (font (size 1.27 1.27))))
          (number "14" (effects (font (size 1.27 1.27))))
        )
        (pin passive line (at -5.08 5.08 0) (length 3.81)
          (name "Pin_15" (effects (font (size 1.27 1.27))))
          (number "15" (effects (font (size 1.27 1.27))))
        )
        (pin passive line (at 7.62 5.08 180) (length 3.81)
          (name "Pin_16" (effects (font (size 1.27 1.27))))
          (number "16" (effects (font (size 1.27 1.27))))
        )
        (pin passive line (at -5.08 2.54 0) (length 3.81)
          (name "Pin_17" (effects (font (size 1.27 1.27))))
          (number "17" (effects (font (size 1.27 1.27))))
        )
        (pin passive line (at 7.62 2.54 180) (length 3.81)
          (name "Pin_18" (effects (font (size 1.27 1.27))))
          (number "18" (effects (font (size 1.27 1.27))))
        )
        (pin passive line (at -5.08 0 0) (length 3.81)
          (name "Pin_19" (effects (font (size 1.27 1.27))))
          (number "19" (effects (font (size 1.27 1.27))))
        )
        (pin passive line (at 7.62 22.86 180) (length 3.81)
          (name "Pin_2" (effects (font (size 1.27 1.27))))
          (number "2" (effects (font (size 1.27 1.27))))
        )
        (pin passive line (at 7.62 0 180) (length 3.81)
          (name "Pin_20" (effects (font (size 1.27 1.27))))
          (number "20" (effects (font (size 1.27 1.27))))
        )
        (pin passive line (at -5.08 -2.54 0) (length 3.81)
          (name "Pin_21" (effects (font (size 1.27 1.27))))
          (number "21" (effects (font (size 1.27 1.27))))
        )
        (pin passive line (at 7.62 -2.54 180) (length 3.81)
          (name "Pin_22" (effects (font (size 1.27 1.27))))
          (number "22" (effects (font (size 1.27 1.27))))
        )
        (pin passive line (at -5.08 -5.08 0) (length 3.81)
          (name "Pin_23" (effects (font (size 1.27 1.27))))
          (number "23" (effects (font (size 1.27 1.27))))
        )
        (pin passive line (at 7.62 -5.08 180) (length 3.81)
          (name "Pin_24" (effects (font (size 1.27 1.27))))
          (number "24" (effects (font (size 1.27 1.27))))
        )
        (pin passive line (at -5.08 -7.62 0) (length 3.81)
          (name "Pin_25" (effects (font (size 1.27 1.27))))
          (number "25" (effects (font (size 1.27 1.27))))
        )
        (pin passive line (at 7.62 -7.62 180) (length 3.81)
          (name "Pin_26" (effects (font (size 1.27 1.27))))
          (number "26" (effects (font (size 1.27 1.27))))
        )
        (pin passive line (at -5.08 -10.16 0) (length 3.81)
          (name "Pin_27" (effects (font (size 1.27 1.27))))
          (number "27" (effects (font (size 1.27 1.27))))
        )
        (pin passive line (at 7.62 -10.16 180) (length 3.81)
          (name "Pin_28" (effects (font (size 1.27 1.27))))
          (number "28" (effects (font (size 1.27 1.27))))
        )
        (pin passive line (at -5.08 -12.7 0) (length 3.81)
          (name "Pin_29" (effects (font (size 1.27 1.27))))
          (number "29" (effects (font (size 1.27 1.27))))
        )
        (pin passive line (at -5.08 20.32 0) (length 3.81)
          (name "Pin_3" (effects (font (size 1.27 1.27))))
          (number "3" (effects (font (size 1.27 1.27))))
        )
        (pin passive line (at 7.62 -12.7 180) (length 3.81)
          (name "Pin_30" (effects (font (size 1.27 1.27))))
          (number "30" (effects (font (size 1.27 1.27))))
        )
        (pin passive line (at -5.08 -15.24 0) (length 3.81)
          (name "Pin_31" (effects (font (size 1.27 1.27))))
          (number "31" (effects (font (size 1.27 1.27))))
        )
        (pin passive line (at 7.62 -15.24 180) (length 3.81)
          (name "Pin_32" (effects (font (size 1.27 1.27))))
          (number "32" (effects (font (size 1.27 1.27))))
        )
        (pin passive line (at -5.08 -17.78 0) (length 3.81)
          (name "Pin_33" (effects (font (size 1.27 1.27))))
          (number "33" (effects (font (size 1.27 1.27))))
        )
        (pin passive line (at 7.62 -17.78 180) (length 3.81)
          (name "Pin_34" (effects (font (size 1.27 1.27))))
          (number "34" (effects (font (size 1.27 1.27))))
        )
        (pin passive line (at -5.08 -20.32 0) (length 3.81)
          (name "Pin_35" (effects (font (size 1.27 1.27))))
          (number "35" (effects (font (size 1.27 1.27))))
        )
        (pin passive line (at 7.62 -20.32 180) (length 3.81)
          (name "Pin_36" (effects (font (size 1.27 1.27))))
          (number "36" (effects (font (size 1.27 1.27))))
        )
        (pin passive line (at -5.08 -22.86 0) (length 3.81)
          (name "Pin_37" (effects (font (size 1.27 1.27))))
          (number "37" (effects (font (size 1.27 1.27))))
        )
        (pin passive line (at 7.62 -22.86 180) (length 3.81)
          (name "Pin_38" (effects (font (size 1.27 1.27))))
          (number "38" (effects (font (size 1.27 1.27))))
        )
        (pin passive line (at -5.08 -25.4 0) (length 3.81)
          (name "Pin_39" (effects (font (size 1.27 1.27))))
          (number "39" (effects (font (size 1.27 1.27))))
        )
        (pin passive line (at 7.62 20.32 180) (length 3.81)
          (name "Pin_4" (effects (font (size 1.27 1.27))))
          (number "4" (effects (font (size 1.27 1.27))))
        )
        (pin passive line (at 7.62 -25.4 180) (length 3.81)
          (name "Pin_40" (effects (font (size 1.27 1.27))))
          (number "40" (effects (font (size 1.27 1.27))))
        )
        (pin passive line (at -5.08 17.78 0) (length 3.81)
          (name "Pin_5" (effects (font (size 1.27 1.27))))
          (number "5" (effects (font (size 1.27 1.27))))
        )
        (pin passive line (at 7.62 17.78 180) (length 3.81)
          (name "Pin_6" (effects (font (size 1.27 1.27))))
          (number "6" (effects (font (size 1.27 1.27))))
        )
        (pin passive line (at -5.08 15.24 0) (length 3.81)
          (name "Pin_7" (effects (font (size 1.27 1.27))))
          (number "7" (effects (font (size 1.27 1.27))))
        )
        (pin passive line (at 7.62 15.24 180) (length 3.81)
          (name "Pin_8" (effects (font (size 1.27 1.27))))
          (number "8" (effects (font (size 1.27 1.27))))
        )
        (pin passive line (at -5.08 12.7 0) (length 3.81)
          (name "Pin_9" (effects (font (size 1.27 1.27))))
          (number "9" (effects (font (size 1.27 1.27))))
        )
      )
    )
    (symbol "Device:C" (pin_numbers hide) (pin_names (offset 0.254)) (in_bom yes) (on_board yes)
      (property "Reference" "C" (id 0) (at 0.635 2.54 0)
        (effects (font (size 1.27 1.27)) (justify left))
      )
      (property "Value" "C" (id 1) (at 0.635 -2.54 0)
        (effects (font (size 1.27 1.27)) (justify left))
      )
      (property "Footprint" "" (id 2) (at 0.9652 -3.81 0)
        (effects (font (size 1.27 1.27)) hide)
      )
      (property "Datasheet" "~" (id 3) (at 0 0 0)
        (effects (font (size 1.27 1.27)) hide)
      )
      (property "ki_keywords" "cap capacitor" (id 4) (at 0 0 0)
        (effects (font (size 1.27 1.27)) hide)
      )
      (property "ki_description" "Unpolarized capacitor" (id 5) (at 0 0 0)
        (effects (font (size 1.27 1.27)) hide)
      )
      (property "ki_fp_filters" "C_*" (id 6) (at 0 0 0)
        (effects (font (size 1.27 1.27)) hide)
      )
      (symbol "C_0_1"
        (polyline
          (pts
            (xy -2.032 -0.762)
            (xy 2.032 -0.762)
          )
          (stroke (width 0.508) (type default) (color 0 0 0 0))
          (fill (type none))
        )
        (polyline
          (pts
            (xy -2.032 0.762)
            (xy 2.032 0.762)
          )
          (stroke (width 0.508) (type default) (color 0 0 0 0))
          (fill (type none))
        )
      )
      (symbol "C_1_1"
        (pin passive line (at 0 3.81 270) (length 2.794)
          (name "~" (effects (font (size 1.27 1.27))))
          (number "1" (effects (font (size 1.27 1.27))))
        )
        (pin passive line (at 0 -3.81 90) (length 2.794)
          (name "~" (effects (font (size 1.27 1.27))))
          (number "2" (effects (font (size 1.27 1.27))))
        )
      )
    )
    (symbol "Device:Ferrite_Bead_Small" (pin_numbers hide) (pin_names (offset 0)) (in_bom yes) (on_board yes)
      (property "Reference" "FB" (id 0) (at 1.905 1.27 0)
        (effects (font (size 1.27 1.27)) (justify left))
      )
      (property "Value" "Device_Ferrite_Bead_Small" (id 1) (at 1.905 -1.27 0)
        (effects (font (size 1.27 1.27)) (justify left))
      )
      (property "Footprint" "" (id 2) (at -1.778 0 90)
        (effects (font (size 1.27 1.27)) hide)
      )
      (property "Datasheet" "" (id 3) (at 0 0 0)
        (effects (font (size 1.27 1.27)) hide)
      )
      (property "ki_fp_filters" "Inductor_* L_* *Ferrite*" (id 4) (at 0 0 0)
        (effects (font (size 1.27 1.27)) hide)
      )
      (symbol "Ferrite_Bead_Small_0_1"
        (polyline
          (pts
            (xy 0 -1.27)
            (xy 0 -0.7874)
          )
          (stroke (width 0) (type default) (color 0 0 0 0))
          (fill (type none))
        )
        (polyline
          (pts
            (xy 0 0.889)
            (xy 0 1.2954)
          )
          (stroke (width 0) (type default) (color 0 0 0 0))
          (fill (type none))
        )
        (polyline
          (pts
            (xy -1.8288 0.2794)
            (xy -1.1176 1.4986)
            (xy 1.8288 -0.2032)
            (xy 1.1176 -1.4224)
            (xy -1.8288 0.2794)
          )
          (stroke (width 0) (type default) (color 0 0 0 0))
          (fill (type none))
        )
      )
      (symbol "Ferrite_Bead_Small_1_1"
        (pin passive line (at 0 2.54 270) (length 1.27)
          (name "~" (effects (font (size 1.27 1.27))))
          (number "1" (effects (font (size 1.27 1.27))))
        )
        (pin passive line (at 0 -2.54 90) (length 1.27)
          (name "~" (effects (font (size 1.27 1.27))))
          (number "2" (effects (font (size 1.27 1.27))))
        )
      )
    )
    (symbol "Device:R" (pin_numbers hide) (pin_names (offset 0)) (in_bom yes) (on_board yes)
      (property "Reference" "R" (id 0) (at 2.032 0 90)
        (effects (font (size 1.27 1.27)))
      )
      (property "Value" "R" (id 1) (at 0 0 90)
        (effects (font (size 1.27 1.27)))
      )
      (property "Footprint" "" (id 2) (at -1.778 0 90)
        (effects (font (size 1.27 1.27)) hide)
      )
      (property "Datasheet" "~" (id 3) (at 0 0 0)
        (effects (font (size 1.27 1.27)) hide)
      )
      (property "ki_keywords" "R res resistor" (id 4) (at 0 0 0)
        (effects (font (size 1.27 1.27)) hide)
      )
      (property "ki_description" "Resistor" (id 5) (at 0 0 0)
        (effects (font (size 1.27 1.27)) hide)
      )
      (property "ki_fp_filters" "R_*" (id 6) (at 0 0 0)
        (effects (font (size 1.27 1.27)) hide)
      )
      (symbol "R_0_1"
        (rectangle (start -1.016 -2.54) (end 1.016 2.54)
          (stroke (width 0.254) (type default) (color 0 0 0 0))
          (fill (type none))
        )
      )
      (symbol "R_1_1"
        (pin passive line (at 0 3.81 270) (length 1.27)
          (name "~" (effects (font (size 1.27 1.27))))
          (number "1" (effects (font (size 1.27 1.27))))
        )
        (pin passive line (at 0 -3.81 90) (length 1.27)
          (name "~" (effects (font (size 1.27 1.27))))
          (number "2" (effects (font (size 1.27 1.27))))
        )
      )
    )
    (symbol "GND_1" (power) (pin_names (offset 0)) (in_bom yes) (on_board yes)
      (property "Reference" "#PWR" (id 0) (at 0 -6.35 0)
        (effects (font (size 1.27 1.27)) hide)
      )
      (property "Value" "GND_1" (id 1) (at 0 -3.81 0)
        (effects (font (size 1.27 1.27)))
      )
      (property "Footprint" "" (id 2) (at 0 0 0)
        (effects (font (size 1.27 1.27)) hide)
      )
      (property "Datasheet" "" (id 3) (at 0 0 0)
        (effects (font (size 1.27 1.27)) hide)
      )
      (property "ki_keywords" "global power" (id 4) (at 0 0 0)
        (effects (font (size 1.27 1.27)) hide)
      )
      (property "ki_description" "Power symbol creates a global label with name \"GND\" , ground" (id 5) (at 0 0 0)
        (effects (font (size 1.27 1.27)) hide)
      )
      (symbol "GND_1_0_1"
        (polyline
          (pts
            (xy 0 0)
            (xy 0 -1.27)
            (xy 1.27 -1.27)
            (xy 0 -2.54)
            (xy -1.27 -1.27)
            (xy 0 -1.27)
          )
          (stroke (width 0) (type default) (color 0 0 0 0))
          (fill (type none))
        )
      )
      (symbol "GND_1_1_1"
        (pin power_in line (at 0 0 270) (length 0) hide
          (name "GND" (effects (font (size 1.27 1.27))))
          (number "1" (effects (font (size 1.27 1.27))))
        )
      )
    )
    (symbol "GND_2" (power) (pin_names (offset 0)) (in_bom yes) (on_board yes)
      (property "Reference" "#PWR" (id 0) (at 0 -6.35 0)
        (effects (font (size 1.27 1.27)) hide)
      )
      (property "Value" "GND_2" (id 1) (at 0 -3.81 0)
        (effects (font (size 1.27 1.27)))
      )
      (property "Footprint" "" (id 2) (at 0 0 0)
        (effects (font (size 1.27 1.27)) hide)
      )
      (property "Datasheet" "" (id 3) (at 0 0 0)
        (effects (font (size 1.27 1.27)) hide)
      )
      (property "ki_keywords" "global power" (id 4) (at 0 0 0)
        (effects (font (size 1.27 1.27)) hide)
      )
      (property "ki_description" "Power symbol creates a global label with name \"GND\" , ground" (id 5) (at 0 0 0)
        (effects (font (size 1.27 1.27)) hide)
      )
      (symbol "GND_2_0_1"
        (polyline
          (pts
            (xy 0 0)
            (xy 0 -1.27)
            (xy 1.27 -1.27)
            (xy 0 -2.54)
            (xy -1.27 -1.27)
            (xy 0 -1.27)
          )
          (stroke (width 0) (type default) (color 0 0 0 0))
          (fill (type none))
        )
      )
      (symbol "GND_2_1_1"
        (pin power_in line (at 0 0 270) (length 0) hide
          (name "GND" (effects (font (size 1.27 1.27))))
          (number "1" (effects (font (size 1.27 1.27))))
        )
      )
    )
    (symbol "SamacSys_Parts:542MILFT" (pin_names (offset 0.762)) (in_bom yes) (on_board yes)
      (property "Reference" "IC" (id 0) (at 11.43 6.35 0)
        (effects (font (size 1.27 1.27)) (justify left))
      )
      (property "Value" "542MILFT" (id 1) (at 7.62 3.81 0)
        (effects (font (size 1.27 1.27)) (justify left))
      )
      (property "Footprint" "SOIC127P600X175-8N" (id 2) (at 26.67 2.54 0)
        (effects (font (size 1.27 1.27)) (justify left) hide)
      )
      (property "Datasheet" "https://componentsearchengine.com/Datasheets/1/542MILFT.pdf" (id 3) (at 26.67 0 0)
        (effects (font (size 1.27 1.27)) (justify left) hide)
      )
      (property "Description" "SOIC 150 MIL" (id 4) (at 26.67 -2.54 0)
        (effects (font (size 1.27 1.27)) (justify left) hide)
      )
      (property "Height" "1.75" (id 5) (at 26.67 -5.08 0)
        (effects (font (size 1.27 1.27)) (justify left) hide)
      )
      (property "Mouser Part Number" "972-542MILFT" (id 6) (at 26.67 -7.62 0)
        (effects (font (size 1.27 1.27)) (justify left) hide)
      )
      (property "Mouser Price/Stock" "https://www.mouser.com/Search/Refine.aspx?Keyword=972-542MILFT" (id 7) (at 26.67 -10.16 0)
        (effects (font (size 1.27 1.27)) (justify left) hide)
      )
      (property "Manufacturer_Name" "IDT" (id 8) (at 26.67 -12.7 0)
        (effects (font (size 1.27 1.27)) (justify left) hide)
      )
      (property "Manufacturer_Part_Number" "542MILFT" (id 9) (at 26.67 -15.24 0)
        (effects (font (size 1.27 1.27)) (justify left) hide)
      )
      (property "ki_description" "SOIC 150 MIL" (id 10) (at 0 0 0)
        (effects (font (size 1.27 1.27)) hide)
      )
      (symbol "542MILFT_0_0"
        (pin passive line (at 0 0 0) (length 5.08)
          (name "ICLK" (effects (font (size 1.27 1.27))))
          (number "1" (effects (font (size 1.27 1.27))))
        )
        (pin passive line (at 0 -2.54 0) (length 5.08)
          (name "VDD" (effects (font (size 1.27 1.27))))
          (number "2" (effects (font (size 1.27 1.27))))
        )
        (pin passive line (at 0 -5.08 0) (length 5.08)
          (name "GND" (effects (font (size 1.27 1.27))))
          (number "3" (effects (font (size 1.27 1.27))))
        )
        (pin passive line (at 0 -7.62 0) (length 5.08)
          (name "S0" (effects (font (size 1.27 1.27))))
          (number "4" (effects (font (size 1.27 1.27))))
        )
        (pin passive line (at 24.13 -7.62 180) (length 5.08)
          (name "S1" (effects (font (size 1.27 1.27))))
          (number "5" (effects (font (size 1.27 1.27))))
        )
        (pin passive line (at 24.13 -5.08 180) (length 5.08)
          (name "OE" (effects (font (size 1.27 1.27))))
          (number "6" (effects (font (size 1.27 1.27))))
        )
        (pin passive line (at 24.13 -2.54 180) (length 5.08)
          (name "CLK/2" (effects (font (size 1.27 1.27))))
          (number "7" (effects (font (size 1.27 1.27))))
        )
        (pin passive line (at 24.13 0 180) (length 5.08)
          (name "CLK" (effects (font (size 1.27 1.27))))
          (number "8" (effects (font (size 1.27 1.27))))
        )
      )
      (symbol "542MILFT_0_1"
        (polyline
          (pts
            (xy 5.08 2.54)
            (xy 19.05 2.54)
            (xy 19.05 -10.16)
            (xy 5.08 -10.16)
            (xy 5.08 2.54)
          )
          (stroke (width 0.1524) (type default) (color 0 0 0 0))
          (fill (type background))
        )
      )
    )
    (symbol "SamacSys_Parts:NBA3N012CSNT1G" (pin_names (offset 0.762)) (in_bom yes) (on_board yes)
      (property "Reference" "IC" (id 0) (at 11.43 6.35 0)
        (effects (font (size 1.27 1.27)) (justify left))
      )
      (property "Value" "NBA3N012CSNT1G" (id 1) (at 3.81 3.81 0)
        (effects (font (size 1.27 1.27)) (justify left))
      )
      (property "Footprint" "SOT95P280X145-5N" (id 2) (at 35.56 2.54 0)
        (effects (font (size 1.27 1.27)) (justify left) hide)
      )
      (property "Datasheet" "http://www.onsemi.com/pub/Collateral/NBA3N012C-D.PDF" (id 3) (at 35.56 0 0)
        (effects (font (size 1.27 1.27)) (justify left) hide)
      )
      (property "Description" "ON SEMICONDUCTOR - NBA3N012CSNT1G - LVDS LINE RECEIVER, AEC-Q100, SOT-23" (id 4) (at 35.56 -2.54 0)
        (effects (font (size 1.27 1.27)) (justify left) hide)
      )
      (property "Height" "1.45" (id 5) (at 35.56 -5.08 0)
        (effects (font (size 1.27 1.27)) (justify left) hide)
      )
      (property "Mouser Part Number" "863-NBA3N012CSNT1G" (id 6) (at 35.56 -7.62 0)
        (effects (font (size 1.27 1.27)) (justify left) hide)
      )
      (property "Mouser Price/Stock" "https://www.mouser.co.uk/ProductDetail/ON-Semiconductor/NBA3N012CSNT1G?qs=u4fy%2FsgLU9O7Rz%2FH1fAZpQ%3D%3D" (id 7) (at 35.56 -10.16 0)
        (effects (font (size 1.27 1.27)) (justify left) hide)
      )
      (property "Manufacturer_Name" "ON Semiconductor" (id 8) (at 35.56 -12.7 0)
        (effects (font (size 1.27 1.27)) (justify left) hide)
      )
      (property "Manufacturer_Part_Number" "NBA3N012CSNT1G" (id 9) (at 35.56 -15.24 0)
        (effects (font (size 1.27 1.27)) (justify left) hide)
      )
      (property "ki_description" "ON SEMICONDUCTOR - NBA3N012CSNT1G - LVDS LINE RECEIVER, AEC-Q100, SOT-23" (id 10) (at 0 0 0)
        (effects (font (size 1.27 1.27)) hide)
      )
      (symbol "NBA3N012CSNT1G_0_0"
        (pin power_in line (at 25.4 0 180) (length 5.08)
          (name "VDD" (effects (font (size 1.27 1.27))))
          (number "1" (effects (font (size 1.27 1.27))))
        )
        (pin power_in line (at 25.4 -5.08 180) (length 5.08)
          (name "GND" (effects (font (size 1.27 1.27))))
          (number "2" (effects (font (size 1.27 1.27))))
        )
        (pin input line (at 0 0 0) (length 5.08)
          (name "IN" (effects (font (size 1.27 1.27))))
          (number "3" (effects (font (size 1.27 1.27))))
        )
        (pin input line (at 0 -5.08 0) (length 5.08)
          (name "~{IN}" (effects (font (size 1.27 1.27))))
          (number "4" (effects (font (size 1.27 1.27))))
        )
        (pin output line (at 25.4 -2.54 180) (length 5.08)
          (name "Q" (effects (font (size 1.27 1.27))))
          (number "5" (effects (font (size 1.27 1.27))))
        )
      )
      (symbol "NBA3N012CSNT1G_0_1"
        (polyline
          (pts
            (xy 5.08 2.54)
            (xy 20.32 2.54)
            (xy 20.32 -7.62)
            (xy 5.08 -7.62)
            (xy 5.08 2.54)
          )
          (stroke (width 0.1524) (type default) (color 0 0 0 0))
          (fill (type none))
        )
      )
    )
    (symbol "Switch:SW_DIP_x05" (pin_names (offset 0) hide) (in_bom yes) (on_board yes)
      (property "Reference" "SW" (id 0) (at 0 8.89 0)
        (effects (font (size 1.27 1.27)))
      )
      (property "Value" "SW_DIP_x05" (id 1) (at 0 -8.89 0)
        (effects (font (size 1.27 1.27)))
      )
      (property "Footprint" "" (id 2) (at 0 0 0)
        (effects (font (size 1.27 1.27)) hide)
      )
      (property "Datasheet" "~" (id 3) (at 0 0 0)
        (effects (font (size 1.27 1.27)) hide)
      )
      (property "ki_keywords" "dip switch" (id 4) (at 0 0 0)
        (effects (font (size 1.27 1.27)) hide)
      )
      (property "ki_description" "5x DIP Switch, Single Pole Single Throw (SPST) switch, small symbol" (id 5) (at 0 0 0)
        (effects (font (size 1.27 1.27)) hide)
      )
      (property "ki_fp_filters" "SW?DIP?x5*" (id 6) (at 0 0 0)
        (effects (font (size 1.27 1.27)) hide)
      )
      (symbol "SW_DIP_x05_0_0"
        (circle (center -2.032 -5.08) (radius 0.508)
          (stroke (width 0) (type default) (color 0 0 0 0))
          (fill (type none))
        )
        (circle (center -2.032 -2.54) (radius 0.508)
          (stroke (width 0) (type default) (color 0 0 0 0))
          (fill (type none))
        )
        (circle (center -2.032 0) (radius 0.508)
          (stroke (width 0) (type default) (color 0 0 0 0))
          (fill (type none))
        )
        (circle (center -2.032 2.54) (radius 0.508)
          (stroke (width 0) (type default) (color 0 0 0 0))
          (fill (type none))
        )
        (circle (center -2.032 5.08) (radius 0.508)
          (stroke (width 0) (type default) (color 0 0 0 0))
          (fill (type none))
        )
        (polyline
          (pts
            (xy -1.524 -4.9276)
            (xy 2.3622 -3.8862)
          )
          (stroke (width 0) (type default) (color 0 0 0 0))
          (fill (type none))
        )
        (polyline
          (pts
            (xy -1.524 -2.3876)
            (xy 2.3622 -1.3462)
          )
          (stroke (width 0) (type default) (color 0 0 0 0))
          (fill (type none))
        )
        (polyline
          (pts
            (xy -1.524 0.127)
            (xy 2.3622 1.1684)
          )
          (stroke (width 0) (type default) (color 0 0 0 0))
          (fill (type none))
        )
        (polyline
          (pts
            (xy -1.524 2.667)
            (xy 2.3622 3.7084)
          )
          (stroke (width 0) (type default) (color 0 0 0 0))
          (fill (type none))
        )
        (polyline
          (pts
            (xy -1.524 5.207)
            (xy 2.3622 6.2484)
          )
          (stroke (width 0) (type default) (color 0 0 0 0))
          (fill (type none))
        )
        (circle (center 2.032 -5.08) (radius 0.508)
          (stroke (width 0) (type default) (color 0 0 0 0))
          (fill (type none))
        )
        (circle (center 2.032 -2.54) (radius 0.508)
          (stroke (width 0) (type default) (color 0 0 0 0))
          (fill (type none))
        )
        (circle (center 2.032 0) (radius 0.508)
          (stroke (width 0) (type default) (color 0 0 0 0))
          (fill (type none))
        )
        (circle (center 2.032 2.54) (radius 0.508)
          (stroke (width 0) (type default) (color 0 0 0 0))
          (fill (type none))
        )
        (circle (center 2.032 5.08) (radius 0.508)
          (stroke (width 0) (type default) (color 0 0 0 0))
          (fill (type none))
        )
      )
      (symbol "SW_DIP_x05_0_1"
        (rectangle (start -3.81 7.62) (end 3.81 -7.62)
          (stroke (width 0.254) (type default) (color 0 0 0 0))
          (fill (type background))
        )
      )
      (symbol "SW_DIP_x05_1_1"
        (pin passive line (at -7.62 5.08 0) (length 5.08)
          (name "~" (effects (font (size 1.27 1.27))))
          (number "1" (effects (font (size 1.27 1.27))))
        )
        (pin passive line (at 7.62 5.08 180) (length 5.08)
          (name "~" (effects (font (size 1.27 1.27))))
          (number "10" (effects (font (size 1.27 1.27))))
        )
        (pin passive line (at -7.62 2.54 0) (length 5.08)
          (name "~" (effects (font (size 1.27 1.27))))
          (number "2" (effects (font (size 1.27 1.27))))
        )
        (pin passive line (at -7.62 0 0) (length 5.08)
          (name "~" (effects (font (size 1.27 1.27))))
          (number "3" (effects (font (size 1.27 1.27))))
        )
        (pin passive line (at -7.62 -2.54 0) (length 5.08)
          (name "~" (effects (font (size 1.27 1.27))))
          (number "4" (effects (font (size 1.27 1.27))))
        )
        (pin passive line (at -7.62 -5.08 0) (length 5.08)
          (name "~" (effects (font (size 1.27 1.27))))
          (number "5" (effects (font (size 1.27 1.27))))
        )
        (pin passive line (at 7.62 -5.08 180) (length 5.08)
          (name "~" (effects (font (size 1.27 1.27))))
          (number "6" (effects (font (size 1.27 1.27))))
        )
        (pin passive line (at 7.62 -2.54 180) (length 5.08)
          (name "~" (effects (font (size 1.27 1.27))))
          (number "7" (effects (font (size 1.27 1.27))))
        )
        (pin passive line (at 7.62 0 180) (length 5.08)
          (name "~" (effects (font (size 1.27 1.27))))
          (number "8" (effects (font (size 1.27 1.27))))
        )
        (pin passive line (at 7.62 2.54 180) (length 5.08)
          (name "~" (effects (font (size 1.27 1.27))))
          (number "9" (effects (font (size 1.27 1.27))))
        )
      )
    )
    (symbol "power:GND" (power) (pin_names (offset 0)) (in_bom yes) (on_board yes)
      (property "Reference" "#PWR" (id 0) (at 0 -6.35 0)
        (effects (font (size 1.27 1.27)) hide)
      )
      (property "Value" "GND" (id 1) (at 0 -3.81 0)
        (effects (font (size 1.27 1.27)))
      )
      (property "Footprint" "" (id 2) (at 0 0 0)
        (effects (font (size 1.27 1.27)) hide)
      )
      (property "Datasheet" "" (id 3) (at 0 0 0)
        (effects (font (size 1.27 1.27)) hide)
      )
      (property "ki_keywords" "power-flag" (id 4) (at 0 0 0)
        (effects (font (size 1.27 1.27)) hide)
      )
      (property "ki_description" "Power symbol creates a global label with name \"GND\" , ground" (id 5) (at 0 0 0)
        (effects (font (size 1.27 1.27)) hide)
      )
      (symbol "GND_0_1"
        (polyline
          (pts
            (xy 0 0)
            (xy 0 -1.27)
            (xy 1.27 -1.27)
            (xy 0 -2.54)
            (xy -1.27 -1.27)
            (xy 0 -1.27)
          )
          (stroke (width 0) (type default) (color 0 0 0 0))
          (fill (type none))
        )
      )
      (symbol "GND_1_1"
        (pin power_in line (at 0 0 270) (length 0) hide
          (name "GND" (effects (font (size 1.27 1.27))))
          (number "1" (effects (font (size 1.27 1.27))))
        )
      )
    )
    (symbol "t-5:TP2" (in_bom yes) (on_board yes)
      (property "Reference" "TP" (id 0) (at 0 1.27 0)
        (effects (font (size 1.27 1.27)))
      )
      (property "Value" "TP2" (id 1) (at 0 1.27 0)
        (effects (font (size 1.27 1.27)) hide)
      )
      (property "Footprint" "T5_w11:TP2" (id 2) (at 0 0 0)
        (effects (font (size 1.27 1.27)) hide)
      )
      (property "Datasheet" "" (id 3) (at 0 0 0)
        (effects (font (size 1.27 1.27)) hide)
      )
      (symbol "TP2_0_1"
        (rectangle (start -2.54 0) (end 2.54 -2.54)
          (stroke (width 0.1524) (type default) (color 0 0 0 0))
          (fill (type background))
        )
      )
      (symbol "TP2_1_1"
        (pin input line (at -1.27 -5.08 90) (length 2.54)
          (name "1" (effects (font (size 1.27 1.27))))
          (number "1" (effects (font (size 1.27 1.27))))
        )
        (pin input line (at 1.27 -5.08 90) (length 2.54)
          (name "2" (effects (font (size 1.27 1.27))))
          (number "2" (effects (font (size 1.27 1.27))))
        )
      )
    )
    (symbol "t-5:XO_4Pin" (pin_names (offset 1.016)) (in_bom yes) (on_board yes)
      (property "Reference" "XO" (id 0) (at 0 0 0)
        (effects (font (size 1.27 1.27)))
      )
      (property "Value" "XO_4Pin" (id 1) (at 0 -2.54 0)
        (effects (font (size 1.27 1.27)))
      )
      (property "Footprint" "T5_w11:XO_4Pin" (id 2) (at 0 0 0)
        (effects (font (size 1.27 1.27)) hide)
      )
      (property "Datasheet" "" (id 3) (at 0 0 0)
        (effects (font (size 1.27 1.27)) hide)
      )
      (symbol "XO_4Pin_0_1"
        (rectangle (start -6.35 -5.08) (end 6.35 -15.24)
          (stroke (width 0) (type default) (color 0 0 0 0))
          (fill (type background))
        )
      )
      (symbol "XO_4Pin_1_1"
        (pin input line (at -8.89 -7.62 0) (length 2.54)
          (name "EN" (effects (font (size 1.27 1.27))))
          (number "1" (effects (font (size 1.27 1.27))))
        )
        (pin power_in line (at -8.89 -12.7 0) (length 2.54)
          (name "GND" (effects (font (size 1.27 1.27))))
          (number "2" (effects (font (size 1.27 1.27))))
        )
        (pin output line (at 8.89 -12.7 180) (length 2.54)
          (name "Out+" (effects (font (size 1.27 1.27))))
          (number "3" (effects (font (size 1.27 1.27))))
        )
        (pin power_in line (at 8.89 -7.62 180) (length 2.54)
          (name "VCC" (effects (font (size 1.27 1.27))))
          (number "4" (effects (font (size 1.27 1.27))))
        )
      )
    )
  )

  (junction (at 47.625 124.46) (diameter 0) (color 0 0 0 0)
    (uuid 02fb79c5-c7c6-4d2a-9600-271cb20c928d)
  )
  (junction (at 47.625 119.38) (diameter 0) (color 0 0 0 0)
    (uuid 1bc276dc-a39d-4ccf-bf3e-4ae2f44f68e4)
  )
  (junction (at 74.295 144.78) (diameter 0) (color 0 0 0 0)
    (uuid 2b5ed1a5-e940-4605-a070-ce73faa06b8d)
  )
  (junction (at 169.545 85.09) (diameter 0) (color 0 0 0 0)
    (uuid 2ee9ae40-3386-45bb-8cc7-065d248f850c)
  )
  (junction (at 212.725 105.41) (diameter 0) (color 0 0 0 0)
    (uuid 325c315b-7ff5-40ee-b71c-8ef391944246)
  )
  (junction (at 198.755 80.01) (diameter 0) (color 0 0 0 0)
    (uuid 32ce0d1e-458a-4614-834b-442a96c24bf6)
  )
  (junction (at 65.405 137.16) (diameter 0) (color 0 0 0 0)
    (uuid 38c4276c-f7f3-44da-babf-a896a857aa98)
  )
  (junction (at 47.625 114.3) (diameter 0) (color 0 0 0 0)
    (uuid 39b6257a-9cf1-45d3-90e7-3c27a13864ba)
  )
  (junction (at 201.295 105.41) (diameter 0) (color 0 0 0 0)
    (uuid 45cf2596-104d-4fd9-85bb-abd71747ce35)
  )
  (junction (at 231.775 69.85) (diameter 0) (color 0 0 0 0)
    (uuid 4a349a34-2b82-4dd7-9dfb-c94053fa1deb)
  )
  (junction (at 47.625 154.94) (diameter 0) (color 0 0 0 0)
    (uuid 4ad95240-a27d-4ac0-a385-e217f6fe6c9e)
  )
  (junction (at 47.625 127) (diameter 0) (color 0 0 0 0)
    (uuid 4b210ff3-bff7-49a9-ab67-886bac466d44)
  )
  (junction (at 47.625 144.78) (diameter 0) (color 0 0 0 0)
    (uuid 539c6951-3b01-4468-8b4f-44cd54ea7519)
  )
  (junction (at 47.625 121.92) (diameter 0) (color 0 0 0 0)
    (uuid 56613434-e15e-42bc-9432-e0da16c50fc7)
  )
  (junction (at 47.625 142.24) (diameter 0) (color 0 0 0 0)
    (uuid 6cd3b388-1ebc-451c-8345-169d4260632f)
  )
  (junction (at 47.625 149.86) (diameter 0) (color 0 0 0 0)
    (uuid 77871392-402b-4e14-87ed-cb0a5762a3f9)
  )
  (junction (at 47.625 116.84) (diameter 0) (color 0 0 0 0)
    (uuid 7a92daea-6705-4c75-ab72-deebdfdee0e8)
  )
  (junction (at 47.625 129.54) (diameter 0) (color 0 0 0 0)
    (uuid 7ab19960-f2f3-4e5d-af95-04c65f956606)
  )
  (junction (at 169.545 87.63) (diameter 0) (color 0 0 0 0)
    (uuid 81b5694e-b93d-4183-97eb-6e193b99733a)
  )
  (junction (at 257.81 69.85) (diameter 0) (color 0 0 0 0)
    (uuid 8ebefef2-8b08-4296-a61e-8fc1cee5a9f6)
  )
  (junction (at 47.625 109.22) (diameter 0) (color 0 0 0 0)
    (uuid 911e718e-2a83-4980-b2e4-edd155d0b3e9)
  )
  (junction (at 47.625 152.4) (diameter 0) (color 0 0 0 0)
    (uuid 9a3957e1-57e1-4514-9226-7b3d42829bc1)
  )
  (junction (at 169.545 80.01) (diameter 0) (color 0 0 0 0)
    (uuid a5db067b-07cf-480d-bdc5-236fcce957ad)
  )
  (junction (at 231.775 74.93) (diameter 0) (color 0 0 0 0)
    (uuid a7a7fe71-e436-4a60-b537-eae171cbb710)
  )
  (junction (at 169.545 72.39) (diameter 0) (color 0 0 0 0)
    (uuid ae36a059-f65c-4723-b014-c097c5215541)
  )
  (junction (at 47.625 139.7) (diameter 0) (color 0 0 0 0)
    (uuid ba54f50c-d12f-43c2-8756-845c9dd68f54)
  )
  (junction (at 231.775 72.39) (diameter 0) (color 0 0 0 0)
    (uuid bdf918d9-423d-4a9e-b245-9c853cccaecd)
  )
  (junction (at 47.625 147.32) (diameter 0) (color 0 0 0 0)
    (uuid dc56da4e-9e5c-4d41-a5a4-c33dc4a555fa)
  )
  (junction (at 145.415 53.975) (diameter 0) (color 0 0 0 0)
    (uuid e8aaf92a-1fb1-4ee2-8e1c-b3488bb82553)
  )
  (junction (at 47.625 111.76) (diameter 0) (color 0 0 0 0)
    (uuid f50b1b1b-421d-408f-8943-d9584c8f6c1f)
  )

  (no_connect (at 62.865 149.86) (uuid 314ea9fc-09d0-4e3f-95ef-d77a87ad93a6))
  (no_connect (at 50.165 137.16) (uuid 44b4dfc2-e0c8-48cb-924f-30566e0f666e))
  (no_connect (at 62.865 142.24) (uuid 6eb64fde-c910-4090-8799-a4bae8683b7d))
  (no_connect (at 50.165 134.62) (uuid 9ae3ce6b-c9c7-45b5-93c3-0042794e73cd))
  (no_connect (at 62.865 147.32) (uuid a17866fe-485f-4a86-bce3-df672d821478))
  (no_connect (at 62.865 139.7) (uuid bdd1b2dc-30dd-4007-86cc-50a28176d674))
  (no_connect (at 62.865 134.62) (uuid e910c538-9848-4a16-9e96-542d999ad6b2))
  (no_connect (at 62.865 154.94) (uuid f54f848c-5975-446e-9ba8-addb20180a12))

  (wire (pts (xy 201.295 100.33) (xy 201.295 77.47))
    (stroke (width 0) (type default) (color 0 0 0 0))
    (uuid 00a8e94b-bb69-4981-9bc4-914c05830a4c)
  )
  (wire (pts (xy 47.625 154.94) (xy 47.625 157.48))
    (stroke (width 0) (type default) (color 0 0 0 0))
    (uuid 0309d469-605a-43fd-93fb-82bdec1fbdb9)
  )
  (wire (pts (xy 74.295 144.78) (xy 80.01 144.78))
    (stroke (width 0) (type default) (color 0 0 0 0))
    (uuid 07e980c1-a0de-43c3-867e-cf71ff4355c0)
  )
  (wire (pts (xy 172.085 74.93) (xy 169.545 74.93))
    (stroke (width 0) (type default) (color 0 0 0 0))
    (uuid 08227a9e-1b50-4189-9f26-e161d088df86)
  )
  (wire (pts (xy 169.545 80.01) (xy 169.545 85.09))
    (stroke (width 0) (type default) (color 0 0 0 0))
    (uuid 0c876b3f-b467-4454-863d-af1535111587)
  )
  (wire (pts (xy 142.875 74.93) (xy 145.415 74.93))
    (stroke (width 0) (type default) (color 0 0 0 0))
    (uuid 0e5c40a0-dc51-4d6e-86c1-2710e82f1d8d)
  )
  (wire (pts (xy 169.545 85.09) (xy 169.545 87.63))
    (stroke (width 0) (type default) (color 0 0 0 0))
    (uuid 0f10d38f-a0c0-4404-a64a-66318b82f960)
  )
  (wire (pts (xy 50.165 111.76) (xy 47.625 111.76))
    (stroke (width 0) (type default) (color 0 0 0 0))
    (uuid 1995b72b-e9ad-48be-85ab-1ccf2ab0eb60)
  )
  (wire (pts (xy 62.865 127) (xy 80.01 127))
    (stroke (width 0) (type default) (color 0 0 0 0))
    (uuid 1a2c7de3-bba2-4e10-92e1-d37c69c85469)
  )
  (wire (pts (xy 198.755 80.01) (xy 196.215 80.01))
    (stroke (width 0) (type default) (color 0 0 0 0))
    (uuid 1f4686a5-797e-41cf-b521-440d430ccd5f)
  )
  (wire (pts (xy 178.435 105.41) (xy 179.705 105.41))
    (stroke (width 0) (type default) (color 0 0 0 0))
    (uuid 20bb0003-9082-418e-abeb-414f357b12c4)
  )
  (wire (pts (xy 50.165 152.4) (xy 47.625 152.4))
    (stroke (width 0) (type default) (color 0 0 0 0))
    (uuid 2210607a-50d8-421f-9f6a-93222c1768c5)
  )
  (wire (pts (xy 169.545 72.39) (xy 172.085 72.39))
    (stroke (width 0) (type default) (color 0 0 0 0))
    (uuid 222d5d95-b37f-43e7-86f3-a44b4c179c32)
  )
  (wire (pts (xy 197.485 100.33) (xy 201.295 100.33))
    (stroke (width 0) (type default) (color 0 0 0 0))
    (uuid 24fc8f36-a2fb-411b-9d6e-69df61190c13)
  )
  (wire (pts (xy 47.625 127) (xy 47.625 129.54))
    (stroke (width 0) (type default) (color 0 0 0 0))
    (uuid 275032d1-19d5-46a0-ac25-e87332e42acf)
  )
  (wire (pts (xy 201.295 77.47) (xy 215.265 77.47))
    (stroke (width 0) (type default) (color 0 0 0 0))
    (uuid 2b779d36-ca2e-4a24-8164-d51c59f2dbe0)
  )
  (wire (pts (xy 47.625 147.32) (xy 47.625 149.86))
    (stroke (width 0) (type default) (color 0 0 0 0))
    (uuid 2c12004b-da16-43ef-bdfd-3424627102ad)
  )
  (wire (pts (xy 62.865 121.92) (xy 80.01 121.92))
    (stroke (width 0) (type default) (color 0 0 0 0))
    (uuid 355d6516-e04e-4bff-9751-be307283f29e)
  )
  (wire (pts (xy 178.435 129.54) (xy 178.435 105.41))
    (stroke (width 0) (type default) (color 0 0 0 0))
    (uuid 3b906f8e-81bc-400c-bb29-39059c04a77c)
  )
  (wire (pts (xy 231.775 69.85) (xy 239.395 69.85))
    (stroke (width 0) (type default) (color 0 0 0 0))
    (uuid 3c20a740-3b0a-4dca-bc97-24342bfc33c5)
  )
  (wire (pts (xy 62.865 152.4) (xy 80.01 152.4))
    (stroke (width 0) (type default) (color 0 0 0 0))
    (uuid 3e895899-18f7-423c-8632-27eb30ea4bd2)
  )
  (wire (pts (xy 62.865 111.76) (xy 80.01 111.76))
    (stroke (width 0) (type default) (color 0 0 0 0))
    (uuid 3f7812f9-5ca6-44d1-bb53-f797b77dc2ed)
  )
  (wire (pts (xy 224.155 105.41) (xy 221.615 105.41))
    (stroke (width 0) (type default) (color 0 0 0 0))
    (uuid 445842d2-38a0-421d-8ade-dc425e63f55d)
  )
  (wire (pts (xy 47.625 114.3) (xy 50.165 114.3))
    (stroke (width 0) (type default) (color 0 0 0 0))
    (uuid 448e6bd8-58a2-4d6b-8bb7-981cc21723ab)
  )
  (wire (pts (xy 163.195 87.63) (xy 163.195 88.9))
    (stroke (width 0) (type default) (color 0 0 0 0))
    (uuid 45cf0232-3e40-40e8-92c3-20d2a86d1fc9)
  )
  (wire (pts (xy 230.505 69.85) (xy 231.775 69.85))
    (stroke (width 0) (type default) (color 0 0 0 0))
    (uuid 4601fd15-8ed3-484e-b9c1-985138a026b4)
  )
  (wire (pts (xy 47.625 139.7) (xy 47.625 142.24))
    (stroke (width 0) (type default) (color 0 0 0 0))
    (uuid 46c7da43-7282-47b5-9035-d0ab5ba0193c)
  )
  (wire (pts (xy 174.625 121.92) (xy 174.625 100.33))
    (stroke (width 0) (type default) (color 0 0 0 0))
    (uuid 46de7469-34ff-4bf6-b18a-b6af1f5f78b5)
  )
  (wire (pts (xy 163.195 87.63) (xy 169.545 87.63))
    (stroke (width 0) (type default) (color 0 0 0 0))
    (uuid 46f6ea34-2f61-494a-ad27-4d1399ae5e42)
  )
  (wire (pts (xy 62.865 109.22) (xy 80.01 109.22))
    (stroke (width 0) (type default) (color 0 0 0 0))
    (uuid 48218581-b360-451c-a737-779f3433d782)
  )
  (wire (pts (xy 198.755 77.47) (xy 198.755 80.01))
    (stroke (width 0) (type default) (color 0 0 0 0))
    (uuid 4b551a5c-3179-4758-b6be-ae13c0df5849)
  )
  (wire (pts (xy 231.775 74.93) (xy 231.775 77.47))
    (stroke (width 0) (type default) (color 0 0 0 0))
    (uuid 4bd4c323-534b-462a-b0ae-8e7579c42117)
  )
  (wire (pts (xy 201.295 63.5) (xy 169.545 63.5))
    (stroke (width 0) (type default) (color 0 0 0 0))
    (uuid 4cb62a43-1312-4d5f-9d93-7dfa45a99c0d)
  )
  (wire (pts (xy 215.265 72.39) (xy 196.215 72.39))
    (stroke (width 0) (type default) (color 0 0 0 0))
    (uuid 4e513016-1c57-43a5-9094-766bbd693047)
  )
  (wire (pts (xy 47.625 129.54) (xy 50.165 129.54))
    (stroke (width 0) (type default) (color 0 0 0 0))
    (uuid 4ebb6a6a-b4bb-4164-aca7-4360c1e66755)
  )
  (wire (pts (xy 231.775 77.47) (xy 230.505 77.47))
    (stroke (width 0) (type default) (color 0 0 0 0))
    (uuid 4ed074e8-52fb-4fad-97df-30511b3bcd0f)
  )
  (wire (pts (xy 62.865 114.3) (xy 80.01 114.3))
    (stroke (width 0) (type default) (color 0 0 0 0))
    (uuid 508e9bba-8500-42f0-a35d-f3e0fc643ca0)
  )
  (wire (pts (xy 231.775 72.39) (xy 230.505 72.39))
    (stroke (width 0) (type default) (color 0 0 0 0))
    (uuid 50d6067e-05aa-4e3a-bd0f-e145fe91c509)
  )
  (wire (pts (xy 145.415 53.975) (xy 142.875 53.975))
    (stroke (width 0) (type default) (color 0 0 0 0))
    (uuid 52047592-86ac-498a-8155-e95694030a67)
  )
  (wire (pts (xy 174.625 100.33) (xy 179.705 100.33))
    (stroke (width 0) (type default) (color 0 0 0 0))
    (uuid 5318f816-456d-40bd-bae2-9d298bdb2c63)
  )
  (wire (pts (xy 47.625 119.38) (xy 50.165 119.38))
    (stroke (width 0) (type default) (color 0 0 0 0))
    (uuid 53f710f3-5d2f-4dfe-84c1-d68878ad7d2f)
  )
  (wire (pts (xy 201.295 119.38) (xy 201.295 121.92))
    (stroke (width 0) (type default) (color 0 0 0 0))
    (uuid 55141a27-ab07-4e27-ae77-5bfce5c9b6be)
  )
  (wire (pts (xy 117.475 69.85) (xy 114.935 69.85))
    (stroke (width 0) (type default) (color 0 0 0 0))
    (uuid 575fee48-a551-4b69-965a-a77577b89860)
  )
  (wire (pts (xy 201.295 69.85) (xy 201.295 63.5))
    (stroke (width 0) (type default) (color 0 0 0 0))
    (uuid 57a70d44-85d1-4e51-9a9b-233d49694a65)
  )
  (wire (pts (xy 196.215 77.47) (xy 198.755 77.47))
    (stroke (width 0) (type default) (color 0 0 0 0))
    (uuid 5b81ef8e-ccdd-428d-a72c-032013906f18)
  )
  (wire (pts (xy 135.255 53.975) (xy 133.35 53.975))
    (stroke (width 0) (type default) (color 0 0 0 0))
    (uuid 5e975a77-cd24-4d07-866b-7d30b5dcfc22)
  )
  (wire (pts (xy 231.775 72.39) (xy 231.775 74.93))
    (stroke (width 0) (type default) (color 0 0 0 0))
    (uuid 6080be81-2486-4535-9e84-e0c6d5083eb0)
  )
  (wire (pts (xy 62.865 119.38) (xy 80.01 119.38))
    (stroke (width 0) (type default) (color 0 0 0 0))
    (uuid 64568432-135f-490a-b4ec-ed783483513a)
  )
  (wire (pts (xy 47.625 109.22) (xy 47.625 111.76))
    (stroke (width 0) (type default) (color 0 0 0 0))
    (uuid 67d2a841-80e6-4798-8142-91805bc921a8)
  )
  (wire (pts (xy 50.165 121.92) (xy 47.625 121.92))
    (stroke (width 0) (type default) (color 0 0 0 0))
    (uuid 6f07e9a9-d648-424f-8632-b0bf82299a6f)
  )
  (wire (pts (xy 47.625 121.92) (xy 47.625 124.46))
    (stroke (width 0) (type default) (color 0 0 0 0))
    (uuid 6fa26741-dbff-4c95-9156-ff3680f6e31c)
  )
  (wire (pts (xy 74.295 141.605) (xy 74.295 144.78))
    (stroke (width 0) (type default) (color 0 0 0 0))
    (uuid 70ab68cb-f3d1-452d-99ff-2c3e3a416d42)
  )
  (wire (pts (xy 50.165 142.24) (xy 47.625 142.24))
    (stroke (width 0) (type default) (color 0 0 0 0))
    (uuid 75cadd77-3348-4e9b-b3fc-3ac4b35b466c)
  )
  (wire (pts (xy 145.415 74.93) (xy 145.415 77.47))
    (stroke (width 0) (type default) (color 0 0 0 0))
    (uuid 76edd1c7-3a2e-446d-943e-c8355a594c92)
  )
  (wire (pts (xy 76.835 141.605) (xy 76.835 146.05))
    (stroke (width 0) (type default) (color 0 0 0 0))
    (uuid 7745401c-3502-4232-a504-48470719c5a2)
  )
  (wire (pts (xy 216.535 105.41) (xy 212.725 105.41))
    (stroke (width 0) (type default) (color 0 0 0 0))
    (uuid 7c958492-2cab-4eac-8fd5-d66da4a55436)
  )
  (wire (pts (xy 201.295 69.85) (xy 215.265 69.85))
    (stroke (width 0) (type default) (color 0 0 0 0))
    (uuid 7dee9d48-fc42-4e00-8916-027c6b59f97e)
  )
  (wire (pts (xy 257.81 81.28) (xy 257.81 83.82))
    (stroke (width 0) (type default) (color 0 0 0 0))
    (uuid 8025cb18-7a62-4008-98d6-2780459e3ceb)
  )
  (wire (pts (xy 65.405 137.16) (xy 65.405 129.54))
    (stroke (width 0) (type default) (color 0 0 0 0))
    (uuid 815e4735-4310-436e-9571-22806739b70f)
  )
  (wire (pts (xy 158.115 72.39) (xy 169.545 72.39))
    (stroke (width 0) (type default) (color 0 0 0 0))
    (uuid 820ff095-47db-4e81-b755-1c25329164a9)
  )
  (wire (pts (xy 62.865 106.68) (xy 80.01 106.68))
    (stroke (width 0) (type default) (color 0 0 0 0))
    (uuid 8760c05a-d549-4ca8-92bc-eff371fbed0e)
  )
  (wire (pts (xy 62.865 137.16) (xy 65.405 137.16))
    (stroke (width 0) (type default) (color 0 0 0 0))
    (uuid 890955eb-f154-4068-8da9-8f28366204ed)
  )
  (wire (pts (xy 50.165 127) (xy 47.625 127))
    (stroke (width 0) (type default) (color 0 0 0 0))
    (uuid 8a5b04df-9c64-44d4-917e-b6e54b21ad22)
  )
  (wire (pts (xy 150.495 72.39) (xy 142.875 72.39))
    (stroke (width 0) (type default) (color 0 0 0 0))
    (uuid 8b1cbfb8-fb73-4c70-88f5-4fc9ec44e819)
  )
  (wire (pts (xy 142.875 69.85) (xy 145.415 69.85))
    (stroke (width 0) (type default) (color 0 0 0 0))
    (uuid 8b4bf000-04cc-4bbc-97d6-31f731b172f2)
  )
  (wire (pts (xy 47.625 152.4) (xy 47.625 154.94))
    (stroke (width 0) (type default) (color 0 0 0 0))
    (uuid 8d87f65d-592b-4cc3-ac75-189a38950aee)
  )
  (wire (pts (xy 47.625 116.84) (xy 47.625 119.38))
    (stroke (width 0) (type default) (color 0 0 0 0))
    (uuid 919d3878-c5cf-4524-a807-3d621e2481e4)
  )
  (wire (pts (xy 62.865 144.78) (xy 74.295 144.78))
    (stroke (width 0) (type default) (color 0 0 0 0))
    (uuid 94bd940d-758f-4596-bab4-471527babbc7)
  )
  (wire (pts (xy 163.195 96.52) (xy 163.195 97.79))
    (stroke (width 0) (type default) (color 0 0 0 0))
    (uuid 978001bf-544e-484b-9212-675e3a95024d)
  )
  (wire (pts (xy 201.295 105.41) (xy 201.295 111.76))
    (stroke (width 0) (type default) (color 0 0 0 0))
    (uuid 9b1fcc69-ad1b-4597-a530-976cd5d37d2b)
  )
  (wire (pts (xy 255.905 78.74) (xy 257.81 78.74))
    (stroke (width 0) (type default) (color 0 0 0 0))
    (uuid 9bc1bb24-f129-4dbd-b6af-69b2377611e5)
  )
  (wire (pts (xy 172.085 80.01) (xy 169.545 80.01))
    (stroke (width 0) (type default) (color 0 0 0 0))
    (uuid 9bc3d5b5-40d0-466a-adeb-32c1a54a94bf)
  )
  (wire (pts (xy 47.625 129.54) (xy 47.625 139.7))
    (stroke (width 0) (type default) (color 0 0 0 0))
    (uuid 9e153bef-21dc-4567-a9c6-ad79c07c8cde)
  )
  (wire (pts (xy 169.545 63.5) (xy 169.545 72.39))
    (stroke (width 0) (type default) (color 0 0 0 0))
    (uuid 9fc4e8be-5602-439a-9de0-f3e2fb19cbc5)
  )
  (wire (pts (xy 62.865 129.54) (xy 65.405 129.54))
    (stroke (width 0) (type default) (color 0 0 0 0))
    (uuid a29e6dc1-ebbf-4ba0-bfe5-fd511b5382dd)
  )
  (wire (pts (xy 47.625 144.78) (xy 47.625 147.32))
    (stroke (width 0) (type default) (color 0 0 0 0))
    (uuid a3733175-da90-44ff-862c-beb63d7456b0)
  )
  (wire (pts (xy 62.865 116.84) (xy 80.01 116.84))
    (stroke (width 0) (type default) (color 0 0 0 0))
    (uuid a76e204c-c461-486c-828e-f66a03f2a04b)
  )
  (wire (pts (xy 47.625 124.46) (xy 47.625 127))
    (stroke (width 0) (type default) (color 0 0 0 0))
    (uuid aa7da9dc-5c58-40b9-af8b-d8764242a892)
  )
  (wire (pts (xy 47.625 119.38) (xy 47.625 121.92))
    (stroke (width 0) (type default) (color 0 0 0 0))
    (uuid aa911108-f327-44b3-b3a1-c8c0bbc80ab7)
  )
  (wire (pts (xy 198.755 85.09) (xy 198.755 80.01))
    (stroke (width 0) (type default) (color 0 0 0 0))
    (uuid aaf61d37-11ef-4478-9055-46742c79d036)
  )
  (wire (pts (xy 47.625 144.78) (xy 50.165 144.78))
    (stroke (width 0) (type default) (color 0 0 0 0))
    (uuid b1cb554d-4586-44d1-878c-b3579b410148)
  )
  (wire (pts (xy 50.165 106.68) (xy 47.625 106.68))
    (stroke (width 0) (type default) (color 0 0 0 0))
    (uuid b1e54a65-2732-492d-b3fd-c98653c032e6)
  )
  (wire (pts (xy 47.625 106.68) (xy 47.625 109.22))
    (stroke (width 0) (type default) (color 0 0 0 0))
    (uuid b2ef8eff-383d-44c4-9e67-d98f862692ff)
  )
  (wire (pts (xy 169.545 74.93) (xy 169.545 80.01))
    (stroke (width 0) (type default) (color 0 0 0 0))
    (uuid b4ac40ad-e580-4656-a3f0-09b20d79e5f9)
  )
  (wire (pts (xy 196.215 74.93) (xy 215.265 74.93))
    (stroke (width 0) (type default) (color 0 0 0 0))
    (uuid b51bd7ab-17a6-49ae-a60f-6c51813b18c4)
  )
  (wire (pts (xy 133.35 53.975) (xy 133.35 55.88))
    (stroke (width 0) (type default) (color 0 0 0 0))
    (uuid b63588db-0e33-4b9a-8bce-3487f3a5c7df)
  )
  (wire (pts (xy 164.465 77.47) (xy 164.465 80.01))
    (stroke (width 0) (type default) (color 0 0 0 0))
    (uuid ba899c48-d9b7-4092-90eb-6daced49efea)
  )
  (wire (pts (xy 166.37 115.57) (xy 169.545 115.57))
    (stroke (width 0) (type default) (color 0 0 0 0))
    (uuid bb5ae3b9-3028-4102-a86f-713d5a181f14)
  )
  (wire (pts (xy 239.395 80.01) (xy 239.395 129.54))
    (stroke (width 0) (type default) (color 0 0 0 0))
    (uuid bd7ba533-d602-4d1a-b622-d9cc98b222d4)
  )
  (wire (pts (xy 201.295 105.41) (xy 197.485 105.41))
    (stroke (width 0) (type default) (color 0 0 0 0))
    (uuid bec19158-e90a-425c-8dfd-4f5e1f6ad8eb)
  )
  (wire (pts (xy 172.085 77.47) (xy 164.465 77.47))
    (stroke (width 0) (type default) (color 0 0 0 0))
    (uuid c0f50ec0-e6da-40e2-9cb8-73635be879cf)
  )
  (wire (pts (xy 47.625 139.7) (xy 50.165 139.7))
    (stroke (width 0) (type default) (color 0 0 0 0))
    (uuid c6a198d2-e0e4-4d6d-8a2a-bdeb249501be)
  )
  (wire (pts (xy 239.395 129.54) (xy 178.435 129.54))
    (stroke (width 0) (type default) (color 0 0 0 0))
    (uuid c759f780-e61f-416c-8bcb-e331f7e8cf2b)
  )
  (wire (pts (xy 47.625 114.3) (xy 47.625 116.84))
    (stroke (width 0) (type default) (color 0 0 0 0))
    (uuid c89b4458-226c-4d7e-a120-959bbc00972c)
  )
  (wire (pts (xy 169.545 115.57) (xy 169.545 110.49))
    (stroke (width 0) (type default) (color 0 0 0 0))
    (uuid ca8f4e19-e8d0-4d59-a07d-e37d52d790d8)
  )
  (wire (pts (xy 231.775 69.85) (xy 231.775 72.39))
    (stroke (width 0) (type default) (color 0 0 0 0))
    (uuid cb58f068-a175-4e0a-a92e-791fb6500523)
  )
  (wire (pts (xy 145.415 53.975) (xy 145.415 49.53))
    (stroke (width 0) (type default) (color 0 0 0 0))
    (uuid ccde424e-64f2-4803-8d68-47336f2f10f0)
  )
  (wire (pts (xy 50.165 132.08) (xy 45.085 132.08))
    (stroke (width 0) (type default) (color 0 0 0 0))
    (uuid d2d33ba2-88b9-4ab1-b1e5-73f4ac0f626e)
  )
  (wire (pts (xy 80.01 132.08) (xy 62.865 132.08))
    (stroke (width 0) (type default) (color 0 0 0 0))
    (uuid d2f866c2-8028-4442-9c6e-26aa004fdffb)
  )
  (wire (pts (xy 47.625 109.22) (xy 50.165 109.22))
    (stroke (width 0) (type default) (color 0 0 0 0))
    (uuid d35fcc28-4e93-4843-92ca-3a62079bbe38)
  )
  (wire (pts (xy 65.405 137.16) (xy 65.405 139.7))
    (stroke (width 0) (type default) (color 0 0 0 0))
    (uuid d3965a46-28c9-48df-b049-2a519a31e831)
  )
  (wire (pts (xy 47.625 149.86) (xy 47.625 152.4))
    (stroke (width 0) (type default) (color 0 0 0 0))
    (uuid d7b6c19d-a87a-4be3-960f-22242978f346)
  )
  (wire (pts (xy 47.625 124.46) (xy 50.165 124.46))
    (stroke (width 0) (type default) (color 0 0 0 0))
    (uuid dbe2158d-4ece-470a-a28e-c0afd4760ef9)
  )
  (wire (pts (xy 50.165 116.84) (xy 47.625 116.84))
    (stroke (width 0) (type default) (color 0 0 0 0))
    (uuid dca90630-daac-45fc-bc69-3edf240fdf33)
  )
  (wire (pts (xy 230.505 74.93) (xy 231.775 74.93))
    (stroke (width 0) (type default) (color 0 0 0 0))
    (uuid e4df15b3-ea3f-4ab5-a08d-1ec7de2e4276)
  )
  (wire (pts (xy 62.865 124.46) (xy 80.01 124.46))
    (stroke (width 0) (type default) (color 0 0 0 0))
    (uuid e501cc64-4d2f-4c4e-931c-8b524b949896)
  )
  (wire (pts (xy 169.545 85.09) (xy 198.755 85.09))
    (stroke (width 0) (type default) (color 0 0 0 0))
    (uuid e655b052-b5da-4817-b49f-9bac026b893b)
  )
  (wire (pts (xy 47.625 154.94) (xy 50.165 154.94))
    (stroke (width 0) (type default) (color 0 0 0 0))
    (uuid e67072f5-b3a9-4858-aa7e-36adff1f51b7)
  )
  (wire (pts (xy 47.625 111.76) (xy 47.625 114.3))
    (stroke (width 0) (type default) (color 0 0 0 0))
    (uuid ed5a89b1-8709-48fd-b411-946f74be29a6)
  )
  (wire (pts (xy 201.295 105.41) (xy 212.725 105.41))
    (stroke (width 0) (type default) (color 0 0 0 0))
    (uuid ede02459-2eaa-455a-a873-8dffb9d9a970)
  )
  (wire (pts (xy 259.715 69.85) (xy 257.81 69.85))
    (stroke (width 0) (type default) (color 0 0 0 0))
    (uuid f3707625-8b60-4912-92f9-dee6f46f2ea3)
  )
  (wire (pts (xy 145.415 69.85) (xy 145.415 53.975))
    (stroke (width 0) (type default) (color 0 0 0 0))
    (uuid f450baf6-8105-4c14-9f0c-42c47ff5bdad)
  )
  (wire (pts (xy 255.905 81.28) (xy 257.81 81.28))
    (stroke (width 0) (type default) (color 0 0 0 0))
    (uuid f4abe16d-1de2-4eb0-ae81-d88c0ebadde2)
  )
  (wire (pts (xy 50.165 147.32) (xy 47.625 147.32))
    (stroke (width 0) (type default) (color 0 0 0 0))
    (uuid f4e9ac90-4cb1-4ebc-8505-c9eae4d0ad1c)
  )
  (wire (pts (xy 257.81 78.74) (xy 257.81 69.85))
    (stroke (width 0) (type default) (color 0 0 0 0))
    (uuid f596caaf-e3c3-482c-b9d6-b68fa312d438)
  )
  (wire (pts (xy 215.265 80.01) (xy 212.725 80.01))
    (stroke (width 0) (type default) (color 0 0 0 0))
    (uuid f6afc32e-59c5-41a4-a61a-e2e57fc79611)
  )
  (wire (pts (xy 257.81 69.85) (xy 247.015 69.85))
    (stroke (width 0) (type default) (color 0 0 0 0))
    (uuid f78adee8-6540-4bbb-bbab-634ea5a73478)
  )
  (wire (pts (xy 47.625 149.86) (xy 50.165 149.86))
    (stroke (width 0) (type default) (color 0 0 0 0))
    (uuid f7dfd53f-7ad4-435a-9b23-4200a9fab8b4)
  )
  (wire (pts (xy 212.725 80.01) (xy 212.725 105.41))
    (stroke (width 0) (type default) (color 0 0 0 0))
    (uuid f80693c9-d5c5-4a86-bc4e-5dd12c7c4ed3)
  )
  (wire (pts (xy 117.475 74.93) (xy 114.935 74.93))
    (stroke (width 0) (type default) (color 0 0 0 0))
    (uuid fb633923-5439-409c-b594-d0a802d22450)
  )
  (wire (pts (xy 47.625 142.24) (xy 47.625 144.78))
    (stroke (width 0) (type default) (color 0 0 0 0))
    (uuid fcc1c632-2de8-4d98-b466-73f80e7f2336)
  )
  (wire (pts (xy 169.545 105.41) (xy 169.545 87.63))
    (stroke (width 0) (type default) (color 0 0 0 0))
    (uuid feb9cd6a-2b03-456a-8cb4-caa3c8121ded)
  )
  (wire (pts (xy 230.505 80.01) (xy 239.395 80.01))
    (stroke (width 0) (type default) (color 0 0 0 0))
    (uuid ff3cbf4c-e527-4ffe-9252-ca8a2af287e9)
  )

  (text "SW1: MCLK/1\nSW2: MCLK/2\nSW3: MCLK/4\nSW4: local 24.576MHz osc.\nSW5: local osc. enable"
    (at 212.725 59.69 0)
    (effects (font (size 1.27 1.27)) (justify left bottom))
    (uuid 4e135840-e79e-4a3c-b322-d44c0a058a82)
  )

  (global_label "+3V3_D" (shape input) (at 145.415 49.53 90) (fields_autoplaced)
    (effects (font (size 1.27 1.27)) (justify left))
    (uuid 2da469d4-03bd-4296-94ed-cbaae9e339a1)
    (property "Intersheet References" "${INTERSHEET_REFS}" (id 0) (at 230.505 185.42 0)
      (effects (font (size 1.27 1.27)) (justify left) hide)
    )
  )
  (global_label "+3V3_D" (shape input) (at 224.155 105.41 0) (fields_autoplaced)
    (effects (font (size 1.27 1.27)) (justify left))
    (uuid 315718ee-ac92-41c2-8f4d-f4c2a513a3c9)
    (property "Intersheet References" "${INTERSHEET_REFS}" (id 0) (at 233.7968 105.3306 0)
      (effects (font (size 1.27 1.27)) (justify left) hide)
    )
  )
  (global_label "+3V3_D" (shape input) (at 166.37 115.57 180) (fields_autoplaced)
    (effects (font (size 1.27 1.27)) (justify right))
    (uuid 32c188a8-5553-445b-85a1-14860891c3d6)
    (property "Intersheet References" "${INTERSHEET_REFS}" (id 0) (at 156.7282 115.4906 0)
      (effects (font (size 1.27 1.27)) (justify right) hide)
    )
  )
  (global_label "XMOS_I2S_DIN1" (shape input) (at 80.01 144.78 0) (fields_autoplaced)
    (effects (font (size 1.27 1.27)) (justify left))
    (uuid 46b39a1e-4cd5-4ee6-9351-536b258930d0)
    (property "Intersheet References" "${INTERSHEET_REFS}" (id 0) (at -55.88 46.99 0)
      (effects (font (size 1.27 1.27)) hide)
    )
  )
  (global_label "XMOS_I2S_LRCK" (shape input) (at 80.01 121.92 0) (fields_autoplaced)
    (effects (font (size 1.27 1.27)) (justify left))
    (uuid 51e25e81-7b5a-46c6-8133-77833d753510)
    (property "Intersheet References" "${INTERSHEET_REFS}" (id 0) (at -55.88 46.99 0)
      (effects (font (size 1.27 1.27)) hide)
    )
  )
  (global_label "XMOS_I2S_DOUT4" (shape input) (at 80.01 111.76 0) (fields_autoplaced)
    (effects (font (size 1.27 1.27)) (justify left))
    (uuid 5210e1bc-9d85-4082-be30-5df9fb356137)
    (property "Intersheet References" "${INTERSHEET_REFS}" (id 0) (at -55.88 46.99 0)
      (effects (font (size 1.27 1.27)) hide)
    )
  )
  (global_label "XMOS_I2S_DOUT2" (shape input) (at 80.01 116.84 0) (fields_autoplaced)
    (effects (font (size 1.27 1.27)) (justify left))
    (uuid 5558991a-c656-417b-9f97-cb9c920294e6)
    (property "Intersheet References" "${INTERSHEET_REFS}" (id 0) (at -55.88 46.99 0)
      (effects (font (size 1.27 1.27)) hide)
    )
  )
  (global_label "XMOS_I2S_BCK" (shape input) (at 80.01 124.46 0) (fields_autoplaced)
    (effects (font (size 1.27 1.27)) (justify left))
    (uuid 59abb002-bdad-4bad-9827-9b580f4d9778)
    (property "Intersheet References" "${INTERSHEET_REFS}" (id 0) (at -55.88 46.99 0)
      (effects (font (size 1.27 1.27)) hide)
    )
  )
  (global_label "MCLK16+" (shape input) (at 114.935 69.85 180) (fields_autoplaced)
    (effects (font (size 1.27 1.27)) (justify right))
    (uuid 78ce431b-aa2d-4178-b976-ca378ef33468)
    (property "Intersheet References" "${INTERSHEET_REFS}" (id 0) (at 47.625 -142.24 90)
      (effects (font (size 1.27 1.27)) (justify right) hide)
    )
  )
  (global_label "+3V3_D" (shape input) (at 80.01 132.08 0) (fields_autoplaced)
    (effects (font (size 1.27 1.27)) (justify left))
    (uuid 847d10ae-317f-4a8c-a427-fb318e804c66)
    (property "Intersheet References" "${INTERSHEET_REFS}" (id 0) (at -55.88 46.99 0)
      (effects (font (size 1.27 1.27)) hide)
    )
  )
  (global_label "XMOS_I2S_DOUT7" (shape input) (at 80.01 152.4 0) (fields_autoplaced)
    (effects (font (size 1.27 1.27)) (justify left))
    (uuid 90e1ed27-31d9-4541-b017-4ec4b5a92c88)
    (property "Intersheet References" "${INTERSHEET_REFS}" (id 0) (at -55.88 46.99 0)
      (effects (font (size 1.27 1.27)) hide)
    )
  )
  (global_label "+3V3_D" (shape input) (at 45.085 132.08 180) (fields_autoplaced)
    (effects (font (size 1.27 1.27)) (justify right))
    (uuid 90f8c8cf-f285-415b-90ae-ab43a9bd610b)
    (property "Intersheet References" "${INTERSHEET_REFS}" (id 0) (at -67.945 46.99 0)
      (effects (font (size 1.27 1.27)) hide)
    )
  )
  (global_label "MCLK16-" (shape input) (at 114.935 74.93 180) (fields_autoplaced)
    (effects (font (size 1.27 1.27)) (justify right))
    (uuid 9e203670-e07a-4f22-9499-4ae811270e13)
    (property "Intersheet References" "${INTERSHEET_REFS}" (id 0) (at 47.625 -139.7 90)
      (effects (font (size 1.27 1.27)) (justify left) hide)
    )
  )
  (global_label "MCLK_XMOS" (shape input) (at 80.01 119.38 0) (fields_autoplaced)
    (effects (font (size 1.27 1.27)) (justify left))
    (uuid a6e9057e-60b8-4661-a2d0-911a30a7cd7b)
    (property "Intersheet References" "${INTERSHEET_REFS}" (id 0) (at -306.07 -97.79 0)
      (effects (font (size 1.27 1.27)) (justify right) hide)
    )
  )
  (global_label "XMOS_I2S_DOUT1" (shape input) (at 80.01 127 0) (fields_autoplaced)
    (effects (font (size 1.27 1.27)) (justify left))
    (uuid a97fb80a-2549-42f2-9959-6c752b314245)
    (property "Intersheet References" "${INTERSHEET_REFS}" (id 0) (at -55.88 46.99 0)
      (effects (font (size 1.27 1.27)) hide)
    )
  )
  (global_label "XMOS_I2S_DOUT3" (shape input) (at 80.01 114.3 0) (fields_autoplaced)
    (effects (font (size 1.27 1.27)) (justify left))
    (uuid ad259a1c-0a01-445c-a565-1f1a7a4837b1)
    (property "Intersheet References" "${INTERSHEET_REFS}" (id 0) (at -55.88 46.99 0)
      (effects (font (size 1.27 1.27)) hide)
    )
  )
  (global_label "MCLK_XMOS" (shape input) (at 259.715 69.85 0) (fields_autoplaced)
    (effects (font (size 1.27 1.27)) (justify left))
    (uuid ca739545-dcdf-4a68-ba9c-278478b011fe)
    (property "Intersheet References" "${INTERSHEET_REFS}" (id 0) (at -126.365 -147.32 0)
      (effects (font (size 1.27 1.27)) (justify right) hide)
    )
  )
  (global_label "XMOS_I2S_DOUT5" (shape input) (at 80.01 109.22 0) (fields_autoplaced)
    (effects (font (size 1.27 1.27)) (justify left))
    (uuid cebe8ea9-ac12-465e-ad87-030935f6a5df)
    (property "Intersheet References" "${INTERSHEET_REFS}" (id 0) (at -55.88 46.99 0)
      (effects (font (size 1.27 1.27)) hide)
    )
  )
  (global_label "XMOS_I2S_DOUT6" (shape input) (at 80.01 106.68 0) (fields_autoplaced)
    (effects (font (size 1.27 1.27)) (justify left))
    (uuid ec018475-be21-4878-a71e-6be5bb3b5f97)
    (property "Intersheet References" "${INTERSHEET_REFS}" (id 0) (at -55.88 46.99 0)
      (effects (font (size 1.27 1.27)) hide)
    )
  )

  (symbol (lib_id "Connector_Generic:Conn_02x20_Odd_Even") (at 55.245 129.54 0) (unit 1)
    (in_bom yes) (on_board yes)
    (uuid 00000000-0000-0000-0000-000060ab45b4)
    (property "Reference" "J901" (id 0) (at 56.515 101.1682 0))
    (property "Value" "Conn_02x20_Odd_Even" (id 1) (at 56.515 103.4796 0))
    (property "Footprint" "T5_w11:XMOS" (id 2) (at 55.245 129.54 0)
      (effects (font (size 1.27 1.27)) hide)
    )
    (property "Datasheet" "~" (id 3) (at 55.245 129.54 0)
      (effects (font (size 1.27 1.27)) hide)
    )
    (pin "1" (uuid 182280a3-d5f6-4a18-ab40-add29d2ac9f3))
    (pin "10" (uuid 03a82d2a-4b52-42c6-bd1f-7e60398a821b))
    (pin "11" (uuid 324734aa-51cc-4908-8ae3-fc2171fd5d87))
    (pin "12" (uuid f9f4c7d0-0bca-447a-b7d6-14b4f3a166fa))
    (pin "13" (uuid 4b206a73-9f84-4652-a616-b1800860c88f))
    (pin "14" (uuid 218ead00-ac40-4443-b3c9-afe9681620b5))
    (pin "15" (uuid 8172826f-fc54-470d-a8b5-4b25126c61c2))
    (pin "16" (uuid f1f0f3fd-9b10-4528-9ae3-37e09b3bef4c))
    (pin "17" (uuid ff5f7c6e-dc13-4122-95c7-ecf5d8ca0b86))
    (pin "18" (uuid 84f3e33e-3762-448b-9363-ce47ebcee824))
    (pin "19" (uuid 71a63dae-dc72-40fe-b955-82503c7a223e))
    (pin "2" (uuid 539111b2-abb2-40fe-a38c-a22cf5340574))
    (pin "20" (uuid 6bd8922e-6dae-4864-a6fb-2dc6d58f44b9))
    (pin "21" (uuid 121b45f9-ad4a-46d5-ba7e-68d9873f0863))
    (pin "22" (uuid 639e46ca-74df-4626-a3d7-41a28ae94997))
    (pin "23" (uuid 9e962a28-368d-4dc8-9054-7e18b53c628d))
    (pin "24" (uuid 925f5767-914d-47e6-8bcc-e20530844bf5))
    (pin "25" (uuid 0918abb2-754f-4e10-a5f8-09a7eb9f4279))
    (pin "26" (uuid 9c800ba6-e26b-4e6c-9d9f-ae70670a132f))
    (pin "27" (uuid 167a69d7-7f73-47cb-b882-903ce37c607e))
    (pin "28" (uuid 556ad5a7-4512-43f1-9e82-fe7c12a54eab))
    (pin "29" (uuid 2695d85b-4366-414d-80b7-3210677e8e13))
    (pin "3" (uuid 4239a80c-9258-47f2-b870-ec7b9e230d49))
    (pin "30" (uuid 0c773273-c1b3-4815-ba12-9425e25e0f6a))
    (pin "31" (uuid 8995472f-3e91-4c9a-bdf0-37daf898513e))
    (pin "32" (uuid 9b63993a-0786-4cc0-82e8-1ebe10a8d372))
    (pin "33" (uuid a8f675a1-594b-4635-aef0-0bdd5268274d))
    (pin "34" (uuid d7c04334-87c3-4b4f-8bcc-835e908e4c2d))
    (pin "35" (uuid 9b4618cb-8c9b-459e-811e-e74835b291a9))
    (pin "36" (uuid d3d4442e-d56d-485b-85db-25d1bfd3b42a))
    (pin "37" (uuid 13762e25-5a59-4ee7-8043-812412f76aac))
    (pin "38" (uuid cde96bb9-b9ba-4646-b410-d18c4f907e2c))
    (pin "39" (uuid 016d91f1-2cd7-466b-a498-06f1d1a2fdc0))
    (pin "4" (uuid 87c4f259-cd6d-4223-a86e-c94ce1355331))
    (pin "40" (uuid 745370fa-3db4-449e-ad9a-c0f754365539))
    (pin "5" (uuid e56fe1be-8f42-4e75-9a84-c8918646c083))
    (pin "6" (uuid 922a6ac3-7559-4fe8-bca7-f23cbd4e8627))
    (pin "7" (uuid 780634cc-ca09-452d-826e-c191070c15f8))
    (pin "8" (uuid 446a9d5b-2dda-4deb-af3e-f5a9ce915445))
    (pin "9" (uuid 056c17d5-dbd5-468a-b2df-c095bbc42a92))
  )

  (symbol (lib_id "power:GND") (at 65.405 139.7 0) (unit 1)
    (in_bom yes) (on_board yes) (fields_autoplaced)
    (uuid 28c287c9-fd01-4a61-87ab-e83f2fc7eacc)
    (property "Reference" "#PWR0127" (id 0) (at 65.405 146.05 0)
      (effects (font (size 1.27 1.27)) hide)
    )
    (property "Value" "GND" (id 1) (at 67.31 141.4038 0)
      (effects (font (size 1.27 1.27)) (justify left))
    )
    (property "Footprint" "" (id 2) (at 65.405 139.7 0)
      (effects (font (size 1.27 1.27)) hide)
    )
    (property "Datasheet" "" (id 3) (at 65.405 139.7 0)
      (effects (font (size 1.27 1.27)) hide)
    )
    (pin "1" (uuid d4bc0737-ac09-4a28-b214-b7faa32567b3))
  )

  (symbol (lib_id "t-5:TP2") (at 250.825 80.01 90) (unit 1)
    (in_bom yes) (on_board yes) (fields_autoplaced)
    (uuid 4779d514-59c6-4073-b519-68a80246a69d)
    (property "Reference" "TP811" (id 0) (at 252.095 76.358 90))
    (property "Value" "TP2" (id 1) (at 249.555 80.01 0)
      (effects (font (size 1.27 1.27)) hide)
    )
    (property "Footprint" "T5_w11:TP2" (id 2) (at 250.825 80.01 0)
      (effects (font (size 1.27 1.27)) hide)
    )
    (property "Datasheet" "" (id 3) (at 250.825 80.01 0)
      (effects (font (size 1.27 1.27)) hide)
    )
    (pin "1" (uuid 3a0a6c6b-6917-44f1-bff0-03d9f36fc25f))
    (pin "2" (uuid 19c7c805-2e91-470d-a708-af95999c5762))
  )

  (symbol (lib_id "power:GND") (at 47.625 157.48 0) (unit 1)
    (in_bom yes) (on_board yes) (fields_autoplaced)
    (uuid 4a255691-d86e-4766-a7dc-2a5e484558dc)
    (property "Reference" "#PWR0128" (id 0) (at 47.625 163.83 0)
      (effects (font (size 1.27 1.27)) hide)
    )
    (property "Value" "GND" (id 1) (at 49.53 159.1838 0)
      (effects (font (size 1.27 1.27)) (justify left))
    )
    (property "Footprint" "" (id 2) (at 47.625 157.48 0)
      (effects (font (size 1.27 1.27)) hide)
    )
    (property "Datasheet" "" (id 3) (at 47.625 157.48 0)
      (effects (font (size 1.27 1.27)) hide)
    )
    (pin "1" (uuid 2e5f9919-e31d-46ac-939c-58892c3a39c9))
  )

  (symbol (lib_name "GND_1") (lib_id "power:GND") (at 76.835 146.05 0) (unit 1)
    (in_bom yes) (on_board yes) (fields_autoplaced)
    (uuid 51e3075a-3b9b-4604-b8bc-de720f95ffd0)
    (property "Reference" "#PWR0154" (id 0) (at 76.835 152.4 0)
      (effects (font (size 1.27 1.27)) hide)
    )
    (property "Value" "GND" (id 1) (at 76.835 150.4934 0))
    (property "Footprint" "" (id 2) (at 76.835 146.05 0)
      (effects (font (size 1.27 1.27)) hide)
    )
    (property "Datasheet" "" (id 3) (at 76.835 146.05 0)
      (effects (font (size 1.27 1.27)) hide)
    )
    (pin "1" (uuid 55483b4e-a34a-4faf-a87c-a4fdff51a9be))
  )

  (symbol (lib_id "power:GND") (at 133.35 55.88 0) (mirror y) (unit 1)
    (in_bom yes) (on_board yes) (fields_autoplaced)
    (uuid 566ad236-b6c4-408a-b7cd-80afb8dff717)
    (property "Reference" "#PWR0145" (id 0) (at 133.35 62.23 0)
      (effects (font (size 1.27 1.27)) hide)
    )
    (property "Value" "GND" (id 1) (at 131.445 57.5838 0)
      (effects (font (size 1.27 1.27)) (justify left))
    )
    (property "Footprint" "" (id 2) (at 133.35 55.88 0)
      (effects (font (size 1.27 1.27)) hide)
    )
    (property "Datasheet" "" (id 3) (at 133.35 55.88 0)
      (effects (font (size 1.27 1.27)) hide)
    )
    (pin "1" (uuid da4dce4b-898c-4aa6-bbb9-d1a373820d2c))
  )

  (symbol (lib_id "power:GND") (at 145.415 77.47 0) (mirror y) (unit 1)
    (in_bom yes) (on_board yes) (fields_autoplaced)
    (uuid 5b294309-3fbf-4d9b-b112-b4c0869d9907)
    (property "Reference" "#PWR0144" (id 0) (at 145.415 83.82 0)
      (effects (font (size 1.27 1.27)) hide)
    )
    (property "Value" "GND" (id 1) (at 143.51 79.1738 0)
      (effects (font (size 1.27 1.27)) (justify left))
    )
    (property "Footprint" "" (id 2) (at 145.415 77.47 0)
      (effects (font (size 1.27 1.27)) hide)
    )
    (property "Datasheet" "" (id 3) (at 145.415 77.47 0)
      (effects (font (size 1.27 1.27)) hide)
    )
    (pin "1" (uuid 99ba7787-7d21-4ce6-b83e-a8b32fd6ac2d))
  )

  (symbol (lib_id "Device:C") (at 139.065 53.975 270) (mirror x) (unit 1)
    (in_bom yes) (on_board yes)
    (uuid 6de6ca23-a25a-4207-b40b-ac36f8c6c14d)
    (property "Reference" "C901" (id 0) (at 139.065 60.3758 90))
    (property "Value" "100n" (id 1) (at 139.065 58.0644 90))
    (property "Footprint" "Capacitor_SMD:C_0805_2012Metric" (id 2) (at 135.255 53.0098 0)
      (effects (font (size 1.27 1.27)) hide)
    )
    (property "Datasheet" "~" (id 3) (at 139.065 53.975 0)
      (effects (font (size 1.27 1.27)) hide)
    )
    (pin "1" (uuid d5c14d61-0654-4981-91db-9109a1b16547))
    (pin "2" (uuid 849fa5fc-5156-4cb2-9cbc-6cb447f018ce))
  )

  (symbol (lib_name "GND_2") (lib_id "power:GND") (at 257.81 83.82 0) (unit 1)
    (in_bom yes) (on_board yes) (fields_autoplaced)
    (uuid 7f171b6d-26c9-478c-b7d3-01fbdc849119)
    (property "Reference" "#PWR0152" (id 0) (at 257.81 90.17 0)
      (effects (font (size 1.27 1.27)) hide)
    )
    (property "Value" "GND" (id 1) (at 257.81 88.2634 0))
    (property "Footprint" "" (id 2) (at 257.81 83.82 0)
      (effects (font (size 1.27 1.27)) hide)
    )
    (property "Datasheet" "" (id 3) (at 257.81 83.82 0)
      (effects (font (size 1.27 1.27)) hide)
    )
    (pin "1" (uuid 95fec978-da9a-4fc4-8cfe-b58954e882d1))
  )

  (symbol (lib_id "Device:R") (at 154.305 72.39 270) (mirror x) (unit 1)
    (in_bom yes) (on_board yes)
    (uuid 88210023-5fe1-44f8-bd29-9d65a92f760d)
    (property "Reference" "R901" (id 0) (at 154.305 69.85 90))
    (property "Value" "47" (id 1) (at 154.305 67.31 90))
    (property "Footprint" "Resistor_SMD:R_0805_2012Metric" (id 2) (at 154.305 74.168 90)
      (effects (font (size 1.27 1.27)) hide)
    )
    (property "Datasheet" "~" (id 3) (at 154.305 72.39 0)
      (effects (font (size 1.27 1.27)) hide)
    )
    (pin "1" (uuid 52e60c3e-ded3-491a-b9a7-77b6d964647b))
    (pin "2" (uuid 91fd3642-3dca-4939-bb52-5ac4265ff6f2))
  )

  (symbol (lib_id "Device:R") (at 243.205 69.85 270) (unit 1)
    (in_bom yes) (on_board yes)
    (uuid 889e952d-ed8e-4961-bd18-620f21fcf452)
    (property "Reference" "R902" (id 0) (at 243.205 64.5922 90))
    (property "Value" "47" (id 1) (at 243.205 66.9036 90))
    (property "Footprint" "Resistor_SMD:R_0805_2012Metric" (id 2) (at 243.205 68.072 90)
      (effects (font (size 1.27 1.27)) hide)
    )
    (property "Datasheet" "~" (id 3) (at 243.205 69.85 0)
      (effects (font (size 1.27 1.27)) hide)
    )
    (pin "1" (uuid 21f997b5-1d75-41c5-8d57-d2e67944bc24))
    (pin "2" (uuid 20c2d1d1-f906-4a60-b643-c9cd4cad1286))
  )

  (symbol (lib_id "Device:Ferrite_Bead_Small") (at 169.545 107.95 180) (unit 1)
    (in_bom yes) (on_board yes)
    (uuid a0ac037a-3a1a-42c9-9e32-bb6a5d3fb430)
    (property "Reference" "FB901" (id 0) (at 167.005 109.1184 0)
      (effects (font (size 1.27 1.27)) (justify left))
    )
    (property "Value" "FB" (id 1) (at 167.005 106.807 0)
      (effects (font (size 1.27 1.27)) (justify left))
    )
    (property "Footprint" "Inductor_SMD:L_0805_2012Metric" (id 2) (at 171.323 107.95 90)
      (effects (font (size 1.27 1.27)) hide)
    )
    (property "Datasheet" "~" (id 3) (at 169.545 107.95 0)
      (effects (font (size 1.27 1.27)) hide)
    )
    (pin "1" (uuid 6ffd66f1-6ffd-4aba-bcf8-e9dcd2c6bf28))
    (pin "2" (uuid e56d5a82-4752-4be8-88a1-0017d4ba9d5e))
  )

  (symbol (lib_id "SamacSys_Parts:NBA3N012CSNT1G") (at 117.475 69.85 0) (unit 1)
    (in_bom yes) (on_board yes)
    (uuid a95d42cc-19d5-486f-bad5-4690929559c9)
    (property "Reference" "IC901" (id 0) (at 130.175 63.119 0))
    (property "Value" "NBA3N012CSNT1G" (id 1) (at 130.175 65.4304 0))
    (property "Footprint" "SamacSys_Parts:SOT95P280X145-5N" (id 2) (at 153.035 67.31 0)
      (effects (font (size 1.27 1.27)) (justify left) hide)
    )
    (property "Datasheet" "http://www.onsemi.com/pub/Collateral/NBA3N012C-D.PDF" (id 3) (at 153.035 69.85 0)
      (effects (font (size 1.27 1.27)) (justify left) hide)
    )
    (property "Description" "ON SEMICONDUCTOR - NBA3N012CSNT1G - LVDS LINE RECEIVER, AEC-Q100, SOT-23" (id 4) (at 153.035 72.39 0)
      (effects (font (size 1.27 1.27)) (justify left) hide)
    )
    (property "Height" "1.45" (id 5) (at 153.035 74.93 0)
      (effects (font (size 1.27 1.27)) (justify left) hide)
    )
    (property "Mouser Part Number" "863-NBA3N012CSNT1G" (id 6) (at 153.035 77.47 0)
      (effects (font (size 1.27 1.27)) (justify left) hide)
    )
    (property "Mouser Price/Stock" "https://www.mouser.co.uk/ProductDetail/ON-Semiconductor/NBA3N012CSNT1G?qs=u4fy%2FsgLU9O7Rz%2FH1fAZpQ%3D%3D" (id 7) (at 153.035 80.01 0)
      (effects (font (size 1.27 1.27)) (justify left) hide)
    )
    (property "Manufacturer_Name" "ON Semiconductor" (id 8) (at 153.035 82.55 0)
      (effects (font (size 1.27 1.27)) (justify left) hide)
    )
    (property "Manufacturer_Part_Number" "NBA3N012CSNT1G" (id 9) (at 153.035 85.09 0)
      (effects (font (size 1.27 1.27)) (justify left) hide)
    )
    (pin "1" (uuid c48a529b-8beb-434b-a3c6-6e9ecffbcb83))
    (pin "2" (uuid 8f76b4a9-c0dd-4923-82ef-49237fa12089))
    (pin "3" (uuid 2ffceb68-d3b7-42ed-b206-443213cc5a9f))
    (pin "4" (uuid 205bfbbe-4beb-4923-84dc-9ace253cb5be))
    (pin "5" (uuid c3857df1-169f-47f4-a3eb-e562beff0526))
  )

  (symbol (lib_id "t-5:TP2") (at 75.565 136.525 0) (unit 1)
    (in_bom yes) (on_board yes)
    (uuid ab72a457-1024-4341-bf64-3a3258ece12f)
    (property "Reference" "TP910" (id 0) (at 73.7362 135.0538 0)
      (effects (font (size 1.27 1.27)) (justify left))
    )
    (property "Value" "TP2" (id 1) (at 75.565 135.255 0)
      (effects (font (size 1.27 1.27)) hide)
    )
    (property "Footprint" "T5_w11:TP2" (id 2) (at 75.565 136.525 0)
      (effects (font (size 1.27 1.27)) hide)
    )
    (property "Datasheet" "" (id 3) (at 75.565 136.525 0)
      (effects (font (size 1.27 1.27)) hide)
    )
    (pin "1" (uuid b3ce517b-6a7c-4631-8c7f-35e2a0a81305))
    (pin "2" (uuid 5b7da9b3-6f1f-46f4-b167-f39e86a708fe))
  )

  (symbol (lib_id "Device:C") (at 201.295 115.57 0) (unit 1)
    (in_bom yes) (on_board yes)
    (uuid b34f557b-f269-4e47-a930-324b2aec59e7)
    (property "Reference" "C903" (id 0) (at 204.216 114.4016 0)
      (effects (font (size 1.27 1.27)) (justify left))
    )
    (property "Value" "100n" (id 1) (at 204.216 116.713 0)
      (effects (font (size 1.27 1.27)) (justify left))
    )
    (property "Footprint" "Capacitor_SMD:C_0805_2012Metric" (id 2) (at 202.2602 119.38 0)
      (effects (font (size 1.27 1.27)) hide)
    )
    (property "Datasheet" "~" (id 3) (at 201.295 115.57 0)
      (effects (font (size 1.27 1.27)) hide)
    )
    (pin "1" (uuid bc2b4ff1-0351-4088-9db4-5cbf2deb75fe))
    (pin "2" (uuid 41821583-7814-4ca4-9f34-f4fc6f760057))
  )

  (symbol (lib_id "power:GND") (at 174.625 121.92 0) (unit 1)
    (in_bom yes) (on_board yes)
    (uuid b775d898-a385-4664-9c57-3539c02cd4ed)
    (property "Reference" "#PWR0804" (id 0) (at 174.625 128.27 0)
      (effects (font (size 1.27 1.27)) hide)
    )
    (property "Value" "GND" (id 1) (at 174.752 126.3142 0))
    (property "Footprint" "" (id 2) (at 174.625 121.92 0)
      (effects (font (size 1.27 1.27)) hide)
    )
    (property "Datasheet" "" (id 3) (at 174.625 121.92 0)
      (effects (font (size 1.27 1.27)) hide)
    )
    (pin "1" (uuid 7dec87be-b96d-4138-be47-1752d2553ead))
  )

  (symbol (lib_id "SamacSys_Parts:542MILFT") (at 172.085 72.39 0) (unit 1)
    (in_bom yes) (on_board yes)
    (uuid c46fc0b7-fe9f-4e71-9d3e-a65c568c4842)
    (property "Reference" "IC902" (id 0) (at 184.15 65.659 0))
    (property "Value" "542MILFT" (id 1) (at 184.15 67.9704 0))
    (property "Footprint" "SamacSys_Parts:SOIC127P600X175-8N" (id 2) (at 198.755 69.85 0)
      (effects (font (size 1.27 1.27)) (justify left) hide)
    )
    (property "Datasheet" "https://componentsearchengine.com/Datasheets/1/542MILFT.pdf" (id 3) (at 198.755 72.39 0)
      (effects (font (size 1.27 1.27)) (justify left) hide)
    )
    (property "Description" "SOIC 150 MIL" (id 4) (at 198.755 74.93 0)
      (effects (font (size 1.27 1.27)) (justify left) hide)
    )
    (property "Height" "1.75" (id 5) (at 198.755 77.47 0)
      (effects (font (size 1.27 1.27)) (justify left) hide)
    )
    (property "Mouser Part Number" "972-542MILFT" (id 6) (at 198.755 80.01 0)
      (effects (font (size 1.27 1.27)) (justify left) hide)
    )
    (property "Mouser Price/Stock" "https://www.mouser.com/Search/Refine.aspx?Keyword=972-542MILFT" (id 7) (at 198.755 82.55 0)
      (effects (font (size 1.27 1.27)) (justify left) hide)
    )
    (property "Manufacturer_Name" "IDT" (id 8) (at 198.755 85.09 0)
      (effects (font (size 1.27 1.27)) (justify left) hide)
    )
    (property "Manufacturer_Part_Number" "542MILFT" (id 9) (at 198.755 87.63 0)
      (effects (font (size 1.27 1.27)) (justify left) hide)
    )
    (pin "1" (uuid 4872f64e-c130-423d-85d5-7381f588488b))
    (pin "2" (uuid 5b38f0c3-e179-44b9-a04d-68497b33c7a7))
    (pin "3" (uuid 4cdd8e00-eb53-42b9-b7ae-cc5afaa9f863))
    (pin "4" (uuid ed7ce501-8044-44de-9b8d-5da9c07045fe))
    (pin "5" (uuid 7705ec0d-e6d0-4cbb-b1b2-afae77028286))
    (pin "6" (uuid 90479e55-fddc-49c9-b261-981b145071c5))
    (pin "7" (uuid e4524fca-b043-4d56-ad7b-8fc01369dd5a))
    (pin "8" (uuid 53f744ff-4179-4c75-b4c2-518012135906))
  )

  (symbol (lib_id "power:GND") (at 201.295 121.92 0) (unit 1)
    (in_bom yes) (on_board yes)
    (uuid c97448b5-7b8d-47ad-80be-13a6fe8a1a12)
    (property "Reference" "#PWR0806" (id 0) (at 201.295 128.27 0)
      (effects (font (size 1.27 1.27)) hide)
    )
    (property "Value" "GND" (id 1) (at 201.422 126.3142 0))
    (property "Footprint" "" (id 2) (at 201.295 121.92 0)
      (effects (font (size 1.27 1.27)) hide)
    )
    (property "Datasheet" "" (id 3) (at 201.295 121.92 0)
      (effects (font (size 1.27 1.27)) hide)
    )
    (pin "1" (uuid a4dd3327-872d-4629-8ddf-9b7584b27e23))
  )

  (symbol (lib_id "t-5:XO_4Pin") (at 188.595 113.03 0) (mirror x) (unit 1)
    (in_bom yes) (on_board yes)
    (uuid d36182a0-b76b-4364-8ac9-fd11ed4f13ff)
    (property "Reference" "XO901" (id 0) (at 188.595 112.141 0))
    (property "Value" "XO_4Pin" (id 1) (at 188.595 109.8296 0))
    (property "Footprint" "T5_w11:DIP-14-4-THT" (id 2) (at 188.595 113.03 0)
      (effects (font (size 1.27 1.27)) hide)
    )
    (property "Datasheet" "" (id 3) (at 188.595 113.03 0)
      (effects (font (size 1.27 1.27)) hide)
    )
    (pin "1" (uuid 0f7d54a6-81e4-47b3-87e0-7a1a035f66ee))
    (pin "2" (uuid 73df7c19-d1f3-4ab2-9cba-f551bd7c103c))
    (pin "3" (uuid bd5838fe-3a4f-4e3e-9864-cac11dc7228d))
    (pin "4" (uuid 9f1d10ad-25b9-41f9-9eb7-cbf80ecc7b02))
  )

  (symbol (lib_id "power:GND") (at 164.465 80.01 0) (unit 1)
    (in_bom yes) (on_board yes)
    (uuid d8f61861-1b34-49de-9e57-4c8e1092ec1c)
    (property "Reference" "#PWR0803" (id 0) (at 164.465 86.36 0)
      (effects (font (size 1.27 1.27)) hide)
    )
    (property "Value" "GND" (id 1) (at 164.592 84.4042 0))
    (property "Footprint" "" (id 2) (at 164.465 80.01 0)
      (effects (font (size 1.27 1.27)) hide)
    )
    (property "Datasheet" "" (id 3) (at 164.465 80.01 0)
      (effects (font (size 1.27 1.27)) hide)
    )
    (pin "1" (uuid f356199f-2103-4b65-9219-95428482968a))
  )

  (symbol (lib_id "Device:Ferrite_Bead_Small") (at 219.075 105.41 270) (unit 1)
    (in_bom yes) (on_board yes)
    (uuid e57b9983-caa0-49f4-871d-6e4191616869)
    (property "Reference" "FB902" (id 0) (at 219.075 99.3902 90))
    (property "Value" "FB" (id 1) (at 219.075 101.7016 90))
    (property "Footprint" "Inductor_SMD:L_0805_2012Metric" (id 2) (at 219.075 103.632 90)
      (effects (font (size 1.27 1.27)) hide)
    )
    (property "Datasheet" "~" (id 3) (at 219.075 105.41 0)
      (effects (font (size 1.27 1.27)) hide)
    )
    (pin "1" (uuid 8c09f1e2-7940-465c-af2f-405fac662324))
    (pin "2" (uuid 0d04f1d4-7443-478d-84ec-69ef40a7b9bf))
  )

  (symbol (lib_id "Switch:SW_DIP_x05") (at 222.885 74.93 0) (unit 1)
    (in_bom yes) (on_board yes)
    (uuid e86c370a-40e0-47b7-8dbd-72955a3748ef)
    (property "Reference" "SW901" (id 0) (at 222.885 63.0682 0))
    (property "Value" "SW_DIP_x05" (id 1) (at 222.885 65.3796 0))
    (property "Footprint" "Button_Switch_THT:SW_DIP_SPSTx05_Slide_6.7x14.26mm_W7.62mm_P2.54mm_LowProfile" (id 2) (at 222.885 74.93 0)
      (effects (font (size 1.27 1.27)) hide)
    )
    (property "Datasheet" "~" (id 3) (at 222.885 74.93 0)
      (effects (font (size 1.27 1.27)) hide)
    )
    (pin "1" (uuid eed70545-c8a2-4928-9387-3a38599045ee))
    (pin "10" (uuid a1b9d247-5d18-4bbe-a009-fb4f3e7ddf29))
    (pin "2" (uuid cb4f8b83-e502-4ac9-923b-0538171306d2))
    (pin "3" (uuid 5736dccf-aebb-4e76-9a7b-006c707faac7))
    (pin "4" (uuid cba7d9f0-d8a4-43b7-b80e-81734149e366))
    (pin "5" (uuid 992bd374-c909-4a60-9d3c-c3ef3f3f585f))
    (pin "6" (uuid 97ea5ebd-d250-4f9d-bfe4-d5d23b34a78c))
    (pin "7" (uuid d7406f84-b11d-4443-828f-9b88a7869a1a))
    (pin "8" (uuid 9e34539b-0331-477b-852f-15993ffb6671))
    (pin "9" (uuid 9b6cc1e4-5d6a-4ab7-9a40-5946afb35447))
  )

  (symbol (lib_id "power:GND") (at 163.195 97.79 0) (mirror y) (unit 1)
    (in_bom yes) (on_board yes)
    (uuid fbe037a1-844a-450c-8149-43991cc82591)
    (property "Reference" "#PWR0802" (id 0) (at 163.195 104.14 0)
      (effects (font (size 1.27 1.27)) hide)
    )
    (property "Value" "GND" (id 1) (at 163.068 102.1842 0))
    (property "Footprint" "" (id 2) (at 163.195 97.79 0)
      (effects (font (size 1.27 1.27)) hide)
    )
    (property "Datasheet" "" (id 3) (at 163.195 97.79 0)
      (effects (font (size 1.27 1.27)) hide)
    )
    (pin "1" (uuid 333faca7-e0fe-4bc2-a357-28e650364e7f))
  )

  (symbol (lib_id "Device:C") (at 163.195 92.71 0) (mirror y) (unit 1)
    (in_bom yes) (on_board yes)
    (uuid fc635eb3-f421-44df-9cff-cc2b5fd8dc8c)
    (property "Reference" "C902" (id 0) (at 160.274 91.5416 0)
      (effects (font (size 1.27 1.27)) (justify left))
    )
    (property "Value" "100n" (id 1) (at 160.274 93.853 0)
      (effects (font (size 1.27 1.27)) (justify left))
    )
    (property "Footprint" "Capacitor_SMD:C_0805_2012Metric" (id 2) (at 162.2298 96.52 0)
      (effects (font (size 1.27 1.27)) hide)
    )
    (property "Datasheet" "~" (id 3) (at 163.195 92.71 0)
      (effects (font (size 1.27 1.27)) hide)
    )
    (pin "1" (uuid ff6d0818-3504-4b86-a574-4e48b0363096))
    (pin "2" (uuid 274af50a-7181-40ed-912b-8e6cdd7a8e6b))
  )
)
